<svg xmlns="http://www.w3.org/2000/svg" width="38.736" height="10.33" viewBox="0 0 38.736 10.33">
  <g id="arrow-03" transform="translate(-580.123 -1149.992)">
    <path id="Trazado_23" data-name="Trazado 23" d="M4757.623-1867h37.6" transform="translate(-4177.5 3022)" fill="none" stroke="#fb6262" stroke-width="1"/>
    <g id="Grupo_79" transform="translate(618.137 1159.822) rotate(180)">
      <path id="Trazado_6-2" d="M0,4.866,4.665,0,9.33,4.866" transform="translate(0 9.33) rotate(-90)" fill="none" stroke="#fb6262" stroke-linecap="round" stroke-miterlimit="10" stroke-width="1"/>
    </g>
  </g>
</svg>
