<svg xmlns="http://www.w3.org/2000/svg" width="24.159" height="34.959" viewBox="0 0 24.159 34.959">
  <g id="centre" transform="translate(-2.015 -0.341)">
    <path id="Trazado_87" d="M5.986,11.988h0A6,6,0,0,1,1.752,1.756,5.984,5.984,0,0,1,11.967,5.994a5.995,5.995,0,0,1-5.981,5.994Zm0-10.93A4.939,4.939,0,0,0,2.5,9.487,4.932,4.932,0,0,0,9.468,2.507,4.9,4.9,0,0,0,5.986,1.058h0Z" transform="translate(8.317 7.08)" fill="#fb6262"/>
    <g id="Grupo_78" transform="translate(2.015 0.341)">
      <path id="Trazado_88" d="M12.087,34.959H12.07a.481.481,0,0,1-.378-.187C11.215,34.167,0,19.888,0,12.98A13.01,13.01,0,0,1,5.994,1.744a11.487,11.487,0,0,1,12.17,0A13.01,13.01,0,0,1,24.158,12.98c0,6.423-9.7,19.233-11.647,21.736l-.045.058A.488.488,0,0,1,12.087,34.959ZM12.07,1.214a10.492,10.492,0,0,0-4.315.928A11.055,11.055,0,0,0,4.231,4.664,12.07,12.07,0,0,0,.979,12.98,14.152,14.152,0,0,0,2.433,18.3,53.116,53.116,0,0,0,5.78,24.512c2.5,4.071,5.233,7.719,6.29,9.1,1.056-1.379,3.785-5.028,6.29-9.1a53.136,53.136,0,0,0,3.347-6.21,14.148,14.148,0,0,0,1.454-5.32,12.073,12.073,0,0,0-3.252-8.315,11.057,11.057,0,0,0-3.524-2.522A10.493,10.493,0,0,0,12.07,1.214Z" transform="translate(0 0)" fill="#fb6262"/>
    </g>
  </g>
</svg>
