<svg xmlns="http://www.w3.org/2000/svg" width="36.946" height="45.388" viewBox="0 0 36.946 45.388">
  <g id="development" transform="translate(-37.962 -112.83)">
    <g id="Grupo_427" data-name="Grupo 427" transform="translate(38.699 145.47)">
      <g id="Grupo_426" data-name="Grupo 426">
        <path id="Trazado_143" data-name="Trazado 143" d="M144.621,376H136.96a.957.957,0,0,0-.958.957h0v10.533a.957.957,0,0,0,.957.958h7.661a.957.957,0,0,0,.958-.957h0V376.958A.957.957,0,0,0,144.621,376Zm-.958,10.533h-5.745v-8.618h5.745Z" transform="translate(-136.002 -376)" fill="#fb6262" stroke="#fff" stroke-width="0.6"/>
      </g>
    </g>
    <g id="Grupo_429" data-name="Grupo 429" transform="translate(51.865 141.64)">
      <g id="Grupo_428" data-name="Grupo 428">
        <path id="Trazado_144" data-name="Trazado 144" d="M264.621,344H256.96a.957.957,0,0,0-.958.957h0v14.363a.957.957,0,0,0,.957.958h7.661a.957.957,0,0,0,.958-.957h0V344.958A.957.957,0,0,0,264.621,344Zm-.958,14.364h-5.745V345.915h5.745Z" transform="translate(-256.002 -344)" fill="#fb6262" stroke="#fff" stroke-width="0.6"/>
      </g>
    </g>
    <g id="Grupo_431" data-name="Grupo 431" transform="translate(65.032 133.021)">
      <g id="Grupo_430" data-name="Grupo 430" transform="translate(0 0)">
        <path id="Trazado_145" data-name="Trazado 145" d="M384.621,272H376.96a.957.957,0,0,0-.958.957h0v22.982a.957.957,0,0,0,.957.958h7.661a.957.957,0,0,0,.958-.957h0V272.958A.957.957,0,0,0,384.621,272Zm-.958,22.982h-5.745V273.915h5.745Z" transform="translate(-376.002 -272)" fill="#fb6262" stroke="#fff" stroke-width="0.6"/>
      </g>
    </g>
    <g id="Grupo_433" data-name="Grupo 433" transform="translate(41.318 113.249) rotate(7)">
      <g id="Grupo_432" data-name="Grupo 432" transform="translate(0 0)">
        <path id="Trazado_146" data-name="Trazado 146" d="M31.448,1.92l-.017-.005L24.728,0,24.2,1.842l4.693,1.341L0,22.145l1.051,1.6L29.471,5.095,27.9,10.215l1.83.563,2.357-7.661A.958.958,0,0,0,31.448,1.92Z" fill="#fb6262" stroke="#fff" stroke-width="0.6"/>
      </g>
    </g>
  </g>
</svg>
