<svg xmlns="http://www.w3.org/2000/svg" width="13.679" height="17.465" viewBox="0 0 13.679 17.465">
  <g id="date" transform="translate(0.3 0.3)">
    <g id="_20" transform="translate(3.116 6.996)">
      <text id="_20-2" data-name="20" fill="#fb6262" font-size="6" font-family="Helvetica"><tspan x="0" y="5">20</tspan></text>
    </g>
    <g id="Grupo_120">
      <rect id="Rectángulo_180" width="13.079" height="15.837" transform="translate(0 1.028)" fill="none" stroke="#fb6262" stroke-linecap="round" stroke-miterlimit="10" stroke-width="0.6"/>
      <path id="Línea_14" d="M.5,0V2" transform="translate(6.04)" fill="none" stroke="#fb6262" stroke-linecap="round" stroke-miterlimit="10" stroke-width="0.6"/>
      <path id="Línea_15" d="M.5,0V2" transform="translate(9.278)" fill="none" stroke="#fb6262" stroke-linecap="round" stroke-miterlimit="10" stroke-width="0.6"/>
      <path id="Línea_16" d="M.5,0V2" transform="translate(2.802)" fill="none" stroke="#fb6262" stroke-linecap="round" stroke-miterlimit="10" stroke-width="0.6"/>
      <path id="Línea_17" d="M0,.563H13.079" transform="translate(0 4.336)" fill="none" stroke="#fb6262" stroke-linecap="round" stroke-miterlimit="10" stroke-width="0.6"/>
    </g>
  </g>
</svg>
