<svg xmlns="http://www.w3.org/2000/svg" width="12" height="15.739" viewBox="0 0 12 15.739">
  <g id="download" transform="translate(-140 -505.261)">
    <g id="Grupo_258" data-name="Grupo 258" transform="translate(409.214 275.806) rotate(90)">
      <path id="Trazado_8" data-name="Trazado 8" d="M229.955,264.813h12.521v.028" transform="translate(0 -2.098)" fill="none" stroke="#fb6262" stroke-linecap="round" stroke-width="1"/>
      <path id="Trazado_9" data-name="Trazado 9" d="M248.437,259.395l3.372,3.372-3.372,3.372" transform="translate(-8.995)" fill="none" stroke="#fb6262" stroke-linecap="round" stroke-width="1"/>
    </g>
    <line id="Línea_23" data-name="Línea 23" x2="12" transform="translate(140 520.5)" fill="none" stroke="#fb6262" stroke-width="1"/>
  </g>
</svg>
