<?xml version="1.0" encoding="utf-8"?>
<!-- Generator: Adobe Illustrator 16.0.0, SVG Export Plug-In . SVG Version: 6.00 Build 0)  -->
<!DOCTYPE svg PUBLIC "-//W3C//DTD SVG 1.1//EN" "http://www.w3.org/Graphics/SVG/1.1/DTD/svg11.dtd">
<svg version="1.1" id="Layer_1" xmlns="http://www.w3.org/2000/svg" xmlns:xlink="http://www.w3.org/1999/xlink" x="0px" y="0px"
	 width="74.965px" height="34.667px" viewBox="0 0 74.965 34.667" enable-background="new 0 0 74.965 34.667" xml:space="preserve">
<g id="empreses-09" transform="translate(-639.873 -1273.699)">
	<path id="users_1_" fill="#FFFFFF" stroke="#FFFFFF" stroke-width="0.4" d="M674.349,1300.62l-5.952-2.977
		c-0.559-0.277-0.912-0.849-0.91-1.473v-2.105c0.143-0.175,0.293-0.373,0.448-0.594c0.782-1.11,1.4-2.327,1.838-3.613
		c0.884-0.401,1.451-1.283,1.45-2.254v-2.491c-0.002-0.603-0.224-1.184-0.623-1.635v-3.315c0.122-1.474-0.346-2.936-1.3-4.065
		c-1.28-1.46-3.356-2.2-6.173-2.2s-4.893,0.74-6.173,2.2c-0.726,0.842-1.175,1.888-1.286,2.994
		c-1.167-0.575-2.455-0.861-3.756-0.832c-6.473,0-6.85,5.517-6.853,5.607v2.853c-0.383,0.389-0.605,0.907-0.623,1.452v2.152
		c0,0.668,0.3,1.301,0.817,1.723c0.432,1.469,1.21,2.812,2.27,3.916v1.709c-0.003,0.502-0.284,0.961-0.73,1.193l-4.145,2.6
		c-1.586,0.864-2.574,2.526-2.575,4.333v2.366h37.382v-2.518C677.462,1303.517,676.258,1301.568,674.349,1300.62z M648.796,1305.527
		v1.394h-7.477v-1.121c0.003-1.362,0.753-2.614,1.954-3.259l4.144-2.6c0.83-0.453,1.347-1.323,1.346-2.269v-2.238l-0.2-0.185
		c-1.033-1.025-1.778-2.305-2.161-3.711l-0.057-0.246l-0.213-0.137c-0.284-0.181-0.457-0.494-0.458-0.831v-2.152
		c0.036-0.29,0.187-0.553,0.418-0.731l0.2-0.185v-3.357c0.011-0.179,0.336-4.4,5.609-4.4c1.321-0.047,2.625,0.31,3.738,1.024v2.948
		c-0.399,0.452-0.621,1.033-0.623,1.635v2.492c0,0.187,0.021,0.374,0.063,0.556c0.017,0.072,0.05,0.138,0.074,0.208
		c0.03,0.106,0.066,0.21,0.11,0.312l0,0c0.162,0.333,0.396,0.626,0.685,0.858c0,0.012,0.007,0.022,0.01,0.034
		c0.037,0.143,0.077,0.285,0.119,0.424l0.05,0.163c0.009,0.029,0.019,0.058,0.029,0.087c0.022,0.067,0.043,0.134,0.065,0.2
		c0.037,0.109,0.077,0.222,0.122,0.345c0.019,0.051,0.04,0.1,0.06,0.148c0.051,0.13,0.1,0.256,0.156,0.381
		c0.013,0.03,0.024,0.062,0.037,0.092l0.035,0.079c0.016,0.036,0.033,0.069,0.049,0.1c0.061,0.133,0.121,0.262,0.183,0.387
		c0.01,0.02,0.019,0.042,0.029,0.063c0.039,0.078,0.079,0.15,0.118,0.226c0.067,0.128,0.133,0.249,0.2,0.366
		c0.032,0.057,0.064,0.113,0.1,0.168c0.09,0.152,0.175,0.294,0.258,0.425l0.053,0.084c0.151,0.233,0.282,0.423,0.39,0.571
		l0.078,0.105l0.044,0.061v2.063c0,0.602-0.329,1.156-0.858,1.444l-1.649,0.899l-0.287-0.025l-0.117,0.246l-3.505,1.912
		C649.911,1301.568,648.79,1303.466,648.796,1305.527z M676.21,1306.92h-26.168v-1.394c0-1.602,0.874-3.074,2.28-3.84l5.558-3.033
		c0.93-0.506,1.508-1.48,1.508-2.539v-2.5l0,0l-0.121-0.146l-0.024-0.028c0,0-0.04-0.049-0.1-0.131l-0.012-0.015
		c-0.033-0.043-0.072-0.095-0.116-0.156l0,0c-0.093-0.129-0.209-0.3-0.339-0.5l-0.009-0.014c-0.061-0.101-0.126-0.2-0.192-0.31
		l-0.015-0.025c-0.141-0.236-0.29-0.5-0.439-0.8l0,0c-0.079-0.159-0.158-0.326-0.236-0.5l0,0l-0.032-0.072l0,0
		c-0.034-0.078-0.069-0.16-0.1-0.244l-0.037-0.093c-0.032-0.082-0.065-0.164-0.1-0.258c-0.064-0.169-0.123-0.346-0.181-0.529
		l-0.034-0.111c0-0.012-0.008-0.025-0.012-0.038c-0.059-0.2-0.115-0.4-0.162-0.6l-0.057-0.247l-0.212-0.137
		c-0.358-0.227-0.576-0.621-0.577-1.045v-2.502c0.001-0.352,0.153-0.687,0.417-0.919l0.206-0.185v-4.101l-0.026-0.01
		c-0.049-1.084,0.312-2.146,1.011-2.976c1.032-1.178,2.794-1.775,5.236-1.775s4.191,0.593,5.225,1.762
		c0.733,0.875,1.096,2.002,1.011,3.141l-0.006,3.962l0.206,0.186c0.264,0.232,0.416,0.566,0.417,0.918v2.492
		c-0.002,0.546-0.362,1.027-0.886,1.183l-0.31,0.1l-0.1,0.308c-0.403,1.27-0.999,2.469-1.766,3.559
		c-0.162,0.232-0.336,0.457-0.521,0.672l-0.155,0.178v2.569c-0.003,1.097,0.617,2.101,1.6,2.587l5.952,2.977
		c1.486,0.736,2.424,2.254,2.418,3.912V1306.92z"/>
	<g id="Grupo_307" transform="translate(683.358 1281.606)">
		<g id="Polígono_1" transform="translate(0 0)">
			<path fill="#FFFFFF" d="M14.019,2.9c0.563-0.95,1.79-1.264,2.74-0.701C17.048,2.37,17.288,2.612,17.46,2.9L29.69,23.542
				c0.563,0.949,0.25,2.176-0.7,2.74c-0.309,0.183-0.662,0.279-1.021,0.279H3.51c-1.104,0-2.001-0.895-2.001-2
				c0-0.359,0.097-0.711,0.279-1.02L14.019,2.9z"/>
			<path fill="#FFFFFF" d="M15.74,2.723c-0.434,0-0.811,0.215-1.032,0.588L2.478,23.95c-0.223,0.375-0.227,0.826-0.011,1.205
				S3.074,25.76,3.51,25.76h24.46c0.437,0,0.826-0.227,1.043-0.605c0.216-0.379,0.212-0.83-0.011-1.205L16.773,3.311
				C16.55,2.938,16.175,2.723,15.74,2.723 M15.74,1.923c0.667,0,1.334,0.327,1.721,0.98l12.23,20.638
				c0.789,1.333-0.172,3.02-1.721,3.02H3.51c-1.55,0-2.511-1.687-1.721-3.02L14.019,2.904C14.407,2.25,15.074,1.923,15.74,1.923z"/>
		</g>
		<text transform="matrix(1 0 0 1 13.4564 21.0115)" fill="#FFFFFF" font-family="'ArialMT'" font-size="15">!</text>
	</g>
</g>
</svg>
