<svg xmlns="http://www.w3.org/2000/svg" width="36.056" height="33.09" viewBox="0 0 36.056 33.09">
  <path id="users_1_" data-name="users (1)" d="M32.693,27.988,27.016,25.15a1.563,1.563,0,0,1-.868-1.405v-2.01c.136-.166.279-.356.427-.565a13.6,13.6,0,0,0,1.755-3.446,2.358,2.358,0,0,0,1.383-2.149V13.2a2.37,2.37,0,0,0-.594-1.56V8.476A5.327,5.327,0,0,0,27.876,4.6a5.831,5.831,0,0,0-2.2-1.5,9.611,9.611,0,0,0-3.685-.6c-2.687,0-4.667.706-5.888,2.1a5.161,5.161,0,0,0-1.227,2.855,7.719,7.719,0,0,0-3.582-.793c-6.174,0-6.533,5.262-6.537,5.348v2.721a2.069,2.069,0,0,0-.594,1.385v2.053a2.121,2.121,0,0,0,.779,1.643A9.108,9.108,0,0,0,7.1,23.545v1.63a1.291,1.291,0,0,1-.7,1.138l-3.954,2.48A4.709,4.709,0,0,0,0,32.928v2.256H35.656v-2.4a5.332,5.332,0,0,0-2.963-4.8ZM8.32,32.666V34H1.189V32.928a3.537,3.537,0,0,1,1.867-3.11l3.953-2.48a2.462,2.462,0,0,0,1.284-2.164V23.041L8.1,22.864a7.916,7.916,0,0,1-2.061-3.539l-.054-.235-.2-.131a.944.944,0,0,1-.437-.793V16.114a1.039,1.039,0,0,1,.4-.7l.2-.176v-3.2c.011-.171.32-4.194,5.35-4.194a6.187,6.187,0,0,1,3.566.977v2.811a2.37,2.37,0,0,0-.594,1.56v2.377a2.39,2.39,0,0,0,.06.531c.016.069.048.132.07.2a2.347,2.347,0,0,0,.1.3h0a2.381,2.381,0,0,0,.653.818.131.131,0,0,0,.01.032c.036.136.073.272.114.4l.048.155c.008.027.018.055.027.083.021.064.041.128.062.191.036.1.073.212.116.329.018.049.039.093.058.141.049.124.1.244.149.363.012.029.023.059.036.087l.033.075c.015.034.031.065.047.1.058.127.115.25.175.369.01.019.018.04.028.059.037.074.075.144.112.216.064.122.127.238.19.349.031.055.061.108.092.16.086.146.167.28.246.405l.051.08c.144.223.269.4.372.544l.074.1.042.058V23.68a1.57,1.57,0,0,1-.818,1.379l-1.572.858-.274-.024-.112.235-3.343,1.824a5.361,5.361,0,0,0-2.8,4.714ZM34.468,34H9.508V32.67A4.17,4.17,0,0,1,11.683,29l5.3-2.892a2.76,2.76,0,0,0,1.438-2.423V21.3h0l-.115-.138-.023-.027s-.038-.046-.1-.125L18.175,21c-.031-.041-.068-.09-.111-.149h0c-.089-.123-.2-.283-.323-.475l-.008-.013c-.058-.091-.12-.19-.183-.3l-.014-.024c-.134-.225-.277-.48-.419-.762h0c-.075-.152-.151-.311-.225-.477h0l-.031-.069h0c-.033-.074-.065-.152-.1-.232l-.036-.089c-.031-.078-.062-.156-.1-.246-.061-.162-.118-.33-.172-.5l-.033-.106a.165.165,0,0,0-.011-.036c-.056-.188-.109-.38-.155-.577L16.2,16.7l-.2-.13a1.185,1.185,0,0,1-.55-1V13.2a1.173,1.173,0,0,1,.4-.877l.2-.176V8.232l-.016-.012A4.113,4.113,0,0,1,17,5.382c.985-1.124,2.665-1.693,4.994-1.693s4,.565,4.984,1.681a4.183,4.183,0,0,1,.964,3l0,3.779.2.177a1.171,1.171,0,0,1,.4.876v2.377A1.182,1.182,0,0,1,27.68,16.7l-.3.091-.1.294a12.441,12.441,0,0,1-1.684,3.4,7.817,7.817,0,0,1-.5.641l-.148.169v2.451a2.744,2.744,0,0,0,1.525,2.468l5.677,2.838a4.149,4.149,0,0,1,2.306,3.732Z" transform="translate(0.2 -2.294)" fill="#fb6262" stroke="#fb6262" stroke-width="0.4"/>
</svg>
