<svg xmlns="http://www.w3.org/2000/svg" width="83.104" height="40.226" viewBox="0 0 83.104 40.226">
  <g id="Group_7" data-name="Group 7" transform="translate(-2768.135 -821.599)">
    <text id="Lorem_Ipsum_is_simpl" data-name="Lorem Ipsum is simpl" transform="translate(2821.239 854.409)" fill="#fb6262" font-size="14" font-family="SegoeUI, Segoe UI"><tspan x="0" y="0">SEPE</tspan></text>
    <path id="Trazado_71" data-name="Trazado 71" d="M2580-1725.66l3.553,3.553,7.187-7.187" transform="translate(251.915 2559.833)" fill="#fb6262"/>
    <g id="building" transform="translate(2768.337 821.8)">
      <g id="Grupo_310" data-name="Grupo 310">
        <g id="Grupo_309" data-name="Grupo 309">
          <path id="Trazado_63" data-name="Trazado 63" d="M50.032,48.921h-2.6V11.5a.817.817,0,0,0-.865-.865H3.325a.817.817,0,0,0-.865.865V48.921h-2.6a.817.817,0,0,0-.627.237A.817.817,0,0,0-1,49.785v-.193a.817.817,0,0,0,.238.627.817.817,0,0,0,.627.238H50.032a.817.817,0,0,0,.865-.865v.193a.817.817,0,0,0-.865-.864ZM4.19,12.364H45.707V48.921H32.733V39.406a.817.817,0,0,0-.865-.865H18.029a.817.817,0,0,0-.865.865V48.92H4.19Zm14.7,36.557v-8.65h5.19V48.92Zm6.92-8.649H31v8.649H25.81Z" transform="translate(1 -10.634)" fill="#fb6262" stroke="#fb6262" stroke-width="0.4"/>
          <path id="Trazado_65" data-name="Trazado 65" d="M90.719,133.295H83.8a.817.817,0,0,0-.865.865v5.19a.817.817,0,0,0,.865.865h6.92a.817.817,0,0,0,.865-.865v-5.19a.817.817,0,0,0-.866-.865Zm-.865,5.19h-5.19v-3.46h5.19Z" transform="translate(-74.286 -127.876)" fill="#fb6262" stroke="#fb6262" stroke-width="0.4"/>
          <path id="Trazado_66" data-name="Trazado 66" d="M209.7,140.215h6.92a.817.817,0,0,0,.865-.865v-5.19a.817.817,0,0,0-.865-.865H209.7a.817.817,0,0,0-.865.865v5.19a.817.817,0,0,0,.865.865Zm.865-5.19h5.19v3.46h-5.19Z" transform="translate(-187.212 -127.877)" fill="#fb6262" stroke="#fb6262" stroke-width="0.4"/>
          <path id="Trazado_67" data-name="Trazado 67" d="M335.6,140.215h6.92a.817.817,0,0,0,.865-.865v-5.19a.817.817,0,0,0-.865-.865H335.6a.817.817,0,0,0-.865.865v5.19a.817.817,0,0,0,.865.865Zm.865-5.19h5.19v3.46h-5.19Z" transform="translate(-300.14 -127.877)" fill="#fb6262" stroke="#fb6262" stroke-width="0.4"/>
          <path id="Trazado_68" data-name="Trazado 68" d="M209.7,232.543h6.92a.817.817,0,0,0,.865-.865v-5.19a.817.817,0,0,0-.865-.865H209.7a.817.817,0,0,0-.865.865v5.19a.817.817,0,0,0,.865.865Zm.865-5.19h5.19v3.46h-5.19Z" transform="translate(-187.212 -210.691)" fill="#fb6262" stroke="#fb6262" stroke-width="0.4"/>
          <path id="Trazado_69" data-name="Trazado 69" d="M335.6,232.543h6.92a.817.817,0,0,0,.865-.865v-5.19a.817.817,0,0,0-.865-.865H335.6a.817.817,0,0,0-.865.865v5.19a.817.817,0,0,0,.865.865Zm.865-5.19h5.19v3.46h-5.19Z" transform="translate(-300.14 -210.691)" fill="#fb6262" stroke="#fb6262" stroke-width="0.4"/>
          <path id="Trazado_70" data-name="Trazado 70" d="M90.719,225.623H83.8a.817.817,0,0,0-.865.865v5.19a.817.817,0,0,0,.865.865h6.92a.817.817,0,0,0,.865-.865v-5.19a.817.817,0,0,0-.866-.865Zm-.865,5.19h-5.19v-3.46h5.19Z" transform="translate(-74.286 -210.69)" fill="#fb6262" stroke="#fb6262" stroke-width="0.4"/>
        </g>
      </g>
    </g>
  </g>
</svg>
