<svg xmlns="http://www.w3.org/2000/svg" width="69.307" height="34.933" viewBox="0 0 69.307 34.933">
  <g id="empreses-06" transform="translate(-183.038 -1274.725)">
    <g id="placeholder_2_" transform="translate(235.577 1287.065)">
      <path id="Trazado_87" d="M3.805,7.535h0A3.791,3.791,0,0,1,.292,5.211,3.732,3.732,0,0,1,1.115,1.1,3.828,3.828,0,0,1,5.259.287,3.755,3.755,0,0,1,7.607,3.768,3.8,3.8,0,0,1,3.805,7.535Zm0-6.87A3.122,3.122,0,0,0,.911,2.58a3.075,3.075,0,0,0,.678,3.383A3.154,3.154,0,0,0,5,6.637,3.1,3.1,0,0,0,3.8.665h0Z" transform="translate(4.372 4.172)" fill="#fff" stroke="#fff" stroke-miterlimit="10" stroke-width="0.8"/>
      <g id="Grupo_78">
        <path id="Trazado_88" d="M8.192,22.191H8.177a.336.336,0,0,1-.255-.118C7.6,21.689,0,12.613,0,8.239A8.132,8.132,0,0,1,4.06,1.108a8.228,8.228,0,0,1,8.247,0,8.132,8.132,0,0,1,4.06,7.131c0,4.07-6.57,12.2-7.887,13.794l-.034.041A.337.337,0,0,1,8.192,22.191ZM8.177.771A7.51,7.51,0,0,0,.664,8.239c0,3.716,6.259,11.561,7.514,13.1,1.253-1.532,7.515-9.366,7.515-13.1A7.512,7.512,0,0,0,8.177.771Z" fill="#fff" stroke="#fff" stroke-miterlimit="10" stroke-width="0.8"/>
      </g>
    </g>
    <g id="placeholder_2_2" data-name="placeholder_2_" transform="translate(183.439 1287.065)">
      <path id="Trazado_87-2" data-name="Trazado_87" d="M3.805,7.535h0A3.791,3.791,0,0,1,.292,5.211,3.732,3.732,0,0,1,1.115,1.1,3.828,3.828,0,0,1,5.259.287,3.755,3.755,0,0,1,7.607,3.768,3.8,3.8,0,0,1,3.805,7.535Zm0-6.87A3.122,3.122,0,0,0,.911,2.58a3.075,3.075,0,0,0,.678,3.383A3.154,3.154,0,0,0,5,6.637,3.1,3.1,0,0,0,3.8.665h0Z" transform="translate(4.372 4.172)" fill="#fff" stroke="#fff" stroke-miterlimit="10" stroke-width="0.8"/>
      <g id="Grupo_78-2" data-name="Grupo_78">
        <path id="Trazado_88-2" data-name="Trazado_88" d="M8.192,22.191H8.177a.336.336,0,0,1-.255-.118C7.6,21.689,0,12.613,0,8.239A8.132,8.132,0,0,1,4.06,1.108a8.228,8.228,0,0,1,8.247,0,8.132,8.132,0,0,1,4.06,7.131c0,4.07-6.57,12.2-7.887,13.794l-.034.041A.337.337,0,0,1,8.192,22.191ZM8.177.771A7.51,7.51,0,0,0,.664,8.239c0,3.716,6.259,11.561,7.514,13.1,1.253-1.532,7.515-9.366,7.515-13.1A7.512,7.512,0,0,0,8.177.771Z" fill="#fff" stroke="#fff" stroke-miterlimit="10" stroke-width="0.8"/>
      </g>
    </g>
    <g id="placeholder_2_3" data-name="placeholder_2_" transform="translate(205.081 1275.258)">
      <path id="Trazado_87-3" data-name="Trazado_87" d="M5.83,11.544h0A5.808,5.808,0,0,1,.447,7.983,5.718,5.718,0,0,1,1.708,1.692,5.865,5.865,0,0,1,8.057.44a5.752,5.752,0,0,1,3.6,5.333A5.814,5.814,0,0,1,5.83,11.544Zm0-10.525A4.783,4.783,0,0,0,1.4,3.953,4.711,4.711,0,0,0,2.434,9.137a4.832,4.832,0,0,0,5.23,1.031,4.741,4.741,0,0,0,2.965-4.394,4.792,4.792,0,0,0-4.8-4.755h0Z" transform="translate(6.699 6.392)" fill="#fff" stroke="#fff" stroke-miterlimit="10" stroke-width="0.8"/>
      <g id="Grupo_78-3" data-name="Grupo_78">
        <path id="Trazado_88-3" data-name="Trazado_88" d="M12.55,34h-.022a.514.514,0,0,1-.391-.181C11.642,33.228,0,19.325,0,12.622A12.459,12.459,0,0,1,6.222,1.7a12.606,12.606,0,0,1,12.634,0,12.459,12.459,0,0,1,6.22,10.925c0,6.235-10.066,18.7-12.084,21.133l-.052.063a.517.517,0,0,1-.39.179ZM12.528,1.181A11.506,11.506,0,0,0,1.017,12.622c0,5.693,9.589,17.712,11.511,20.063,1.92-2.348,11.513-14.349,11.513-20.063A11.509,11.509,0,0,0,12.528,1.181Z" fill="#fff" stroke="#fff" stroke-miterlimit="10" stroke-width="0.8"/>
      </g>
    </g>
  </g>
</svg>
