<svg xmlns="http://www.w3.org/2000/svg" width="55.477" height="41.219" viewBox="0 0 55.477 41.219">
  <g id="empreses-07" transform="translate(-342.078 -1268.236)">
    <path id="users_1_" data-name="users (1)" d="M40.83,34.331l-7.09-3.545a1.952,1.952,0,0,1-1.084-1.755V26.522c.17-.208.349-.445.534-.706a16.985,16.985,0,0,0,2.192-4.3,2.945,2.945,0,0,0,1.727-2.684V15.859a2.96,2.96,0,0,0-.742-1.948V9.963A6.653,6.653,0,0,0,34.814,5.12c-1.524-1.739-4-2.621-7.353-2.621s-5.829.882-7.353,2.62a6.446,6.446,0,0,0-1.532,3.566A9.64,9.64,0,0,0,14.1,7.7c-7.71,0-8.159,6.572-8.164,6.68v3.4A2.584,2.584,0,0,0,5.2,19.5v2.563a2.648,2.648,0,0,0,.973,2.052,11.374,11.374,0,0,0,2.7,4.665v2.036A1.612,1.612,0,0,1,8,32.239l-4.938,3.1A5.881,5.881,0,0,0,0,40.5v2.818H44.53v-3a6.659,6.659,0,0,0-3.7-5.987ZM10.39,40.174v1.661H1.484V40.5a4.418,4.418,0,0,1,2.331-3.884l4.937-3.1a3.075,3.075,0,0,0,1.6-2.7V28.153l-.236-.22a9.886,9.886,0,0,1-2.574-4.42l-.068-.294-.254-.163a1.179,1.179,0,0,1-.545-.99V19.5a1.3,1.3,0,0,1,.5-.871l.244-.22V14.418c.013-.213.4-5.238,6.681-5.238a7.727,7.727,0,0,1,4.453,1.22v3.511a2.96,2.96,0,0,0-.742,1.948v2.969a2.985,2.985,0,0,0,.075.663,7.11,7.11,0,0,0,1.036,1.645c0,.014,4.621,3.076,4.635,5.551,0,0-.86,2.306-.86,2.345,0,.679-1.568,1.308-4.162,2.723l-.342-.03-.14.293L13.878,34.3a6.7,6.7,0,0,0-3.488,5.878Zm32.655,1.661H11.875V40.174A5.207,5.207,0,0,1,14.59,35.6l6.621-3.611a3.446,3.446,0,0,0,1.8-3.026V25.98h0l-.144-.172-.028-.033s-.047-.058-.122-.156L22.7,25.6q-.058-.077-.138-.186h0c-.111-.154-.249-.353-.4-.594l-.01-.016c-.073-.114-.15-.237-.229-.369L21.9,24.4c-.168-.281-.346-.6-.523-.952h0c-.094-.189-.189-.388-.281-.6h0l-.039-.086h0c-.041-.093-.082-.19-.123-.29l-.045-.111c-.039-.1-.078-.2-.119-.307-.076-.2-.147-.413-.215-.63l-.041-.132a.194.194,0,0,0-.014-.045c-.07-.235-.137-.474-.193-.721l-.068-.294-.253-.163a1.48,1.48,0,0,1-.687-1.245V15.859a1.465,1.465,0,0,1,.5-1.1l.245-.22V9.659l-.02-.016a5.137,5.137,0,0,1,1.2-3.545c1.23-1.4,3.329-2.114,6.237-2.114s4.993.706,6.224,2.1a5.224,5.224,0,0,1,1.2,3.741l-.007,4.719.245.221a1.462,1.462,0,0,1,.5,1.094v2.969c0,.648.27,1.05-.361,1.245l-.137.163-.35.108-.119.367a16.022,16.022,0,0,1-1.729,4.443l-.057.081-.564.72-.185.211-.145,2.594c0,1.314.247,2.376,1.422,2.964l6.767,3.934a5.182,5.182,0,0,1,2.88,4.661Z" transform="translate(342.278 1265.937)" fill="#fb6262" stroke="#fb6262" stroke-width="0.4"/>
    <path id="users_1_2" data-name="users (1)" d="M3.7,34.331l7.09-3.545a1.952,1.952,0,0,0,1.084-1.755V26.522c-.17-.208-.349-.445-.534-.706a16.985,16.985,0,0,1-2.192-4.3,2.945,2.945,0,0,1-1.727-2.684V15.859a2.96,2.96,0,0,1,.742-1.948V9.963A6.653,6.653,0,0,1,9.716,5.121c1.524-1.739,4-2.621,7.353-2.621s5.829.882,7.353,2.62a6.446,6.446,0,0,1,1.532,3.566A9.64,9.64,0,0,1,30.429,7.7c7.71,0,8.159,6.572,8.164,6.68v3.4a2.584,2.584,0,0,1,.742,1.729v2.563a2.648,2.648,0,0,1-.973,2.052,11.374,11.374,0,0,1-2.7,4.665v2.036a1.612,1.612,0,0,0,.869,1.421l4.938,3.1A5.881,5.881,0,0,1,44.53,40.5v2.818H0v-3a6.659,6.659,0,0,1,3.7-5.987Zm30.44,5.843v1.661h8.906V40.5a4.418,4.418,0,0,0-2.331-3.884l-4.937-3.1a3.075,3.075,0,0,1-1.6-2.7V28.153l.236-.22a9.886,9.886,0,0,0,2.574-4.42l.068-.294.254-.163a1.179,1.179,0,0,0,.545-.99V19.5a1.3,1.3,0,0,0-.5-.871l-.244-.22V14.418c-.013-.213-.4-5.238-6.681-5.238a7.727,7.727,0,0,0-4.453,1.22v3.511a2.96,2.96,0,0,1,.742,1.948v2.969a2.985,2.985,0,0,1-.075.663c-.02.086-.06.165-.088.248a2.932,2.932,0,0,1-.131.371h0a2.973,2.973,0,0,1-.816,1.022.142.142,0,0,1-.012.04c-.045.17-.091.339-.142.5l-.06.194c-.01.034-.023.069-.034.1-.026.08-.051.16-.078.238-.045.13-.091.264-.145.41-.023.061-.048.116-.072.176-.061.155-.122.305-.186.453-.016.036-.029.074-.045.109l-.042.094c-.019.043-.039.082-.059.124-.073.159-.144.312-.218.461-.012.024-.023.05-.035.073-.047.093-.094.18-.14.269-.08.153-.159.3-.237.436-.039.068-.076.135-.114.2-.107.183-.209.35-.307.506-.022.033-.042.068-.063.1-.18.278-.335.5-.465.68l-.093.126-.053.072v2.456a1.961,1.961,0,0,0,1.022,1.722L26,31.742l.342-.03.14.293,4.175,2.278a6.7,6.7,0,0,1,3.488,5.891ZM1.484,41.835H32.655V40.174A5.207,5.207,0,0,0,29.94,35.6l-6.621-3.611a3.446,3.446,0,0,1-1.8-3.026V25.98h0l.144-.172.028-.033s.047-.058.122-.156l.014-.018q.058-.077.138-.186h0c.111-.154.249-.353.4-.594l.01-.016c.073-.114.15-.237.229-.369l.018-.03c.168-.281.346-.6.523-.952h0c.094-.189.189-.388.281-.6h0l.039-.086h0c.041-.093.082-.19.123-.29l.045-.111c.039-.1.078-.2.119-.307.076-.2.147-.413.215-.63l.041-.132a.194.194,0,0,1,.014-.045c.07-.235.137-.474.193-.721l.068-.294.253-.163a1.48,1.48,0,0,0,.687-1.245V15.859a1.465,1.465,0,0,0-.5-1.1l-.245-.22V9.659l.02-.016A5.137,5.137,0,0,0,23.3,6.1c-1.23-1.4-3.329-2.114-6.237-2.114s-4.993.706-6.224,2.1a5.224,5.224,0,0,0-1.2,3.741l.007,4.719-.245.221a1.462,1.462,0,0,0-.5,1.094v2.969a1.476,1.476,0,0,0,1.055,1.409l.37.114.119.367a15.537,15.537,0,0,0,2.1,4.24,9.765,9.765,0,0,0,.621.8l.185.211V29.03a3.427,3.427,0,0,1-1.9,3.082l-7.09,3.545a5.182,5.182,0,0,0-2.88,4.661Z" transform="translate(352.825 1265.937)" fill="#fb6262" stroke="#fb6262" stroke-width="0.4"/>
  </g>
</svg>
