<svg xmlns="http://www.w3.org/2000/svg" width="14.948" height="14.151" viewBox="0 0 14.948 14.151">
  <g id="external-link" transform="translate(0.797 -0.173)">
    <path id="Trazado_80" data-name="Trazado 80" d="M13.492,14.533V4.686l-.964.9v8.057H.964V2.9H9.637L10.6,2H0V14.533Z" transform="translate(-0.797 -0.21)" fill="#fb6262"/>
    <path id="Trazado_81" data-name="Trazado 81" d="M12.606,0H9.3l1.189,1.189L6,5.681l.925.925,4.492-4.492L12.606,3.3Z" transform="translate(1.545 0.173)" fill="#fb6262"/>
  </g>
</svg>
