<svg xmlns="http://www.w3.org/2000/svg" width="15.367" height="7.85" viewBox="0 0 15.367 7.85">
  <g id="Group_178" data-name="Group 178" transform="translate(0.434 0.3)">
    <path id="Path_6" data-name="Path 6" d="M0,3.782,3.625,0,7.25,3.782" transform="translate(0 7.25) rotate(-90)" fill="none" stroke="#262626" stroke-linecap="round" stroke-width="0.6"/>
    <line id="Line_1" data-name="Line 1" x2="14.304" transform="translate(0.33 3.639)" fill="none" stroke="#262626" stroke-linecap="round" stroke-width="0.6"/>
  </g>
</svg>
