<svg xmlns="http://www.w3.org/2000/svg" width="53.112" height="56.849" viewBox="0 0 53.112 56.849">
  <g id="recursos-05" transform="translate(-1075.1 -397.138)">
    <g id="factory" transform="translate(1059.5 397.538)">
      <g id="Grupo_294" data-name="Grupo 294" transform="translate(16 0)">
        <g id="Grupo_293" data-name="Grupo 293" transform="translate(0 0)">
          <path id="Trazado_44" data-name="Trazado 44" d="M67.852,24.417a.934.934,0,0,0-.927-.011l-2.571,1.428L63.642.908A.934.934,0,0,0,62.708,0H56.168a.934.934,0,0,0-.934.908l-.871,30.479L51.5,32.976V25.222a.934.934,0,0,0-1.387-.816l-15.428,8.57V25.222a.934.934,0,0,0-1.387-.816L16.481,33.747a.934.934,0,0,0-.481.816V55.115a.934.934,0,0,0,.934.934H67.378a.934.934,0,0,0,.934-.934V25.222A.934.934,0,0,0,67.852,24.417ZM57.076,1.868H61.8l.054,1.868h-4.83ZM56.969,5.6h4.938l.607,21.251-6.252,3.472ZM41.222,54.181h-5.6V49.51h5.6Zm7.473,0h-5.6V49.51h5.6Zm17.749,0H50.564v-5.6a.934.934,0,0,0-.934-.934H34.683a.934.934,0,0,0-.934.934v5.6H17.868V35.114l14.946-8.3v7.753a.934.934,0,0,0,1.387.816l15.428-8.57v7.753a.934.934,0,0,0,1.387.816l8.81-4.894,4.1-2.275,2.522-1.4Z" transform="translate(-16 0)" fill="#393939" stroke="#f8f8f8" stroke-width="0.8"/>
        </g>
      </g>
      <g id="Grupo_296" data-name="Grupo 296" transform="translate(20.671 37.366)">
        <g id="Grupo_295" data-name="Grupo 295">
          <path id="Trazado_45" data-name="Trazado 45" d="M64.407,320H56.934a.934.934,0,0,0-.934.934v3.737a.934.934,0,0,0,.934.934h7.473a.934.934,0,0,0,.934-.934v-3.737A.934.934,0,0,0,64.407,320Zm-.934,3.737h-5.6v-1.868h5.6Z" transform="translate(-56 -320)" fill="#393939" stroke="#f8f8f8" stroke-width="0.8"/>
        </g>
      </g>
      <g id="Grupo_298" data-name="Grupo 298" transform="translate(37.485 37.366)">
        <g id="Grupo_297" data-name="Grupo 297">
          <path id="Trazado_46" data-name="Trazado 46" d="M208.407,320h-7.473a.934.934,0,0,0-.934.934v3.737a.934.934,0,0,0,.934.934h7.473a.934.934,0,0,0,.934-.934v-3.737A.934.934,0,0,0,208.407,320Zm-.934,3.737h-5.6v-1.868h5.6Z" transform="translate(-200 -320)" fill="#393939" stroke="#f8f8f8" stroke-width="0.8"/>
        </g>
      </g>
      <g id="Grupo_300" data-name="Grupo 300" transform="translate(54.3 37.366)">
        <g id="Grupo_299" data-name="Grupo 299">
          <path id="Trazado_47" data-name="Trazado 47" d="M352.407,320h-7.473a.934.934,0,0,0-.934.934v3.737a.934.934,0,0,0,.934.934h7.473a.934.934,0,0,0,.934-.934v-3.737A.934.934,0,0,0,352.407,320Zm-.934,3.737h-5.6v-1.868h5.6Z" transform="translate(-344 -320)" fill="#393939" stroke="#f8f8f8" stroke-width="0.8"/>
        </g>
      </g>
    </g>
  </g>
</svg>
