<?xml version="1.0" encoding="utf-8"?>
<!-- Generator: Adobe Illustrator 16.0.0, SVG Export Plug-In . SVG Version: 6.00 Build 0)  -->
<!DOCTYPE svg PUBLIC "-//W3C//DTD SVG 1.1//EN" "http://www.w3.org/Graphics/SVG/1.1/DTD/svg11.dtd">
<svg version="1.1" id="Layer_1" xmlns="http://www.w3.org/2000/svg" xmlns:xlink="http://www.w3.org/1999/xlink" x="0px" y="0px"
	 width="87.438px" height="49.791px" viewBox="0 0 87.438 49.791" enable-background="new 0 0 87.438 49.791" xml:space="preserve">
<g id="recursos-04" transform="translate(-845.5 -403.985)">
	<g id="Grupo_313" transform="translate(7 -1)">
		<path id="user_7_" fill="#FC6262" d="M861.181,441.884l-5.281-2.641c-0.496-0.246-0.81-0.754-0.808-1.308v-1.869
			c0.127-0.155,0.26-0.331,0.4-0.526c0.694-0.985,1.244-2.065,1.634-3.207c0.784-0.355,1.288-1.139,1.287-2v-2.213
			c-0.003-0.536-0.202-1.053-0.559-1.454v-2.939c0.108-1.308-0.308-2.606-1.154-3.608c-1.138-1.296-2.981-1.953-5.481-1.953
			s-4.343,0.657-5.479,1.952c-0.849,1.002-1.265,2.3-1.157,3.609v2.939c-0.354,0.401-0.551,0.917-0.554,1.452v2.212
			c0.001,0.668,0.306,1.301,0.828,1.719c0.382,1.445,1.04,2.804,1.938,4v1.83c0.002,0.535-0.291,1.029-0.761,1.287l-4.935,2.69
			c-1.604,0.874-2.601,2.555-2.6,4.381v1.791c0,2.625,8.319,3.318,12.719,3.318s12.719-0.693,12.719-3.318v-1.683
			C863.945,444.456,862.875,442.725,861.181,441.884z M862.832,448.029c0,0.75-4.101,2.212-11.613,2.212s-11.613-1.461-11.613-2.211
			v-1.791c-0.001-1.421,0.775-2.729,2.023-3.409l4.933-2.691c0.825-0.449,1.338-1.314,1.338-2.254v-2.217l-0.129-0.154
			c-0.896-1.156-1.538-2.487-1.886-3.907l-0.05-0.22l-0.189-0.121c-0.317-0.201-0.511-0.551-0.512-0.927v-2.217
			c0.001-0.313,0.136-0.609,0.371-0.816l0.182-0.164v-3.444v-0.072c-0.08-1.006,0.238-2.004,0.889-2.777
			c0.916-1.045,2.479-1.575,4.646-1.575s3.72,0.526,4.638,1.564c0.652,0.777,0.975,1.777,0.9,2.788v3.517l0.182,0.165
			c0.235,0.206,0.37,0.502,0.371,0.815v2.212c-0.002,0.485-0.321,0.912-0.786,1.05l-0.274,0.084l-0.088,0.274
			c-0.358,1.127-0.887,2.192-1.567,3.159c-0.144,0.208-0.298,0.408-0.463,0.6l-0.138,0.157v2.281
			c-0.005,0.975,0.546,1.866,1.419,2.3l5.283,2.641c1.318,0.654,2.15,2.002,2.146,3.474L862.832,448.029z"/>
		<path id="user_7_2" fill="#FC6262" d="M923.181,441.884l-5.281-2.641c-0.496-0.246-0.81-0.754-0.808-1.308v-1.869
			c0.127-0.155,0.26-0.331,0.4-0.526c0.694-0.985,1.244-2.065,1.634-3.207c0.784-0.355,1.288-1.139,1.287-2v-2.213
			c-0.003-0.536-0.201-1.053-0.559-1.454v-2.939c0.108-1.308-0.308-2.606-1.154-3.608c-1.138-1.296-2.981-1.953-5.481-1.953
			s-4.343,0.657-5.479,1.952c-0.849,1.002-1.265,2.3-1.157,3.609v2.939c-0.354,0.401-0.551,0.917-0.554,1.452v2.212
			c0.001,0.668,0.306,1.301,0.828,1.719c0.382,1.445,1.04,2.804,1.938,4v1.83c0.002,0.535-0.291,1.029-0.761,1.287l-4.935,2.69
			c-1.604,0.874-2.601,2.555-2.6,4.381v1.791c0,2.625,8.319,3.318,12.719,3.318s12.719-0.693,12.719-3.318v-1.683
			C925.945,444.456,924.875,442.725,923.181,441.884z M924.832,448.029c0,0.75-4.101,2.212-11.613,2.212s-11.613-1.461-11.613-2.211
			v-1.791c-0.001-1.421,0.775-2.729,2.023-3.409l4.933-2.691c0.825-0.449,1.338-1.314,1.338-2.254v-2.217l-0.129-0.154
			c-0.896-1.156-1.537-2.487-1.886-3.907l-0.05-0.22l-0.189-0.121c-0.317-0.201-0.511-0.551-0.512-0.927v-2.217
			c0.001-0.313,0.136-0.609,0.371-0.816l0.182-0.164v-3.444v-0.072c-0.08-1.006,0.238-2.004,0.889-2.777
			c0.916-1.045,2.479-1.575,4.646-1.575s3.72,0.526,4.638,1.564c0.652,0.777,0.975,1.777,0.9,2.788v3.517l0.182,0.165
			c0.235,0.206,0.37,0.502,0.371,0.815v2.212c-0.002,0.485-0.321,0.912-0.786,1.05l-0.274,0.084l-0.088,0.274
			c-0.358,1.127-0.887,2.192-1.567,3.159c-0.144,0.208-0.298,0.408-0.463,0.6l-0.138,0.157v2.281
			c-0.005,0.975,0.546,1.866,1.419,2.3l5.283,2.641c1.318,0.654,2.15,2.002,2.146,3.474L924.832,448.029z"/>
		<path id="Trazado_72" fill="none" stroke="#FC6262" d="M862.168,420.167v-14.682h28.768v11.9H865.99L862.168,420.167z"/>
		<g id="Rectángulo_659" transform="translate(873.5 427)">
			<rect x="0" y="0" fill="#FFFFFF" width="31" height="21"/>
			<rect x="0.5" y="0.5" fill="none" stroke="#FC6262" width="30" height="20"/>
		</g>
		<path id="Trazado_73" fill="#FFFFFF" stroke="#FC6262" d="M885.2,437.5v14.517h-4.142v2.26h16.029v-2.26h-4.3V437.5H885.2z"/>
		<line id="Línea_24" fill="none" stroke="#FC6262" stroke-width="0.8" x1="866" y1="409.06" x2="887.029" y2="409.06"/>
		<line id="Línea_25" fill="none" stroke="#FC6262" stroke-width="0.8" x1="866" y1="413.3" x2="887.029" y2="413.3"/>
	</g>
</g>
</svg>
