<svg xmlns="http://www.w3.org/2000/svg" width="87.438" height="49.791" viewBox="0 0 87.438 49.791">
  <g id="recursos-04" transform="translate(-845.5 -403.985)">
    <g id="Grupo_313" data-name="Grupo 313" transform="translate(7 -1)">
      <path id="user_7_" data-name="user (7)" d="M29.681,23.718,24.4,21.077a1.455,1.455,0,0,1-.808-1.308V17.9c.127-.155.26-.331.4-.526a12.656,12.656,0,0,0,1.634-3.207,2.194,2.194,0,0,0,1.287-2V9.954A2.205,2.205,0,0,0,26.355,8.5V5.561A4.957,4.957,0,0,0,25.2,1.953C24.063.657,22.219,0,19.719,0S15.376.657,14.24,1.952a4.959,4.959,0,0,0-1.157,3.609V8.5a2.205,2.205,0,0,0-.553,1.452v2.212a2.2,2.2,0,0,0,.828,1.719,11.606,11.606,0,0,0,1.937,4v1.83A1.461,1.461,0,0,1,14.534,21L9.6,23.691A4.987,4.987,0,0,0,7,28.072v1.791c0,2.625,8.32,3.318,12.719,3.318s12.719-.693,12.719-3.318V28.18A4.962,4.962,0,0,0,29.681,23.718Zm1.651,6.144c0,.75-4.1,2.212-11.613,2.212S8.106,30.613,8.106,29.863V28.072a3.88,3.88,0,0,1,2.023-3.409l4.933-2.691A2.568,2.568,0,0,0,16.4,19.718V17.5l-.129-.154a10.44,10.44,0,0,1-1.886-3.907l-.05-.219-.189-.122a1.1,1.1,0,0,1-.512-.927V9.954a1.091,1.091,0,0,1,.371-.816l.182-.164V5.53l0-.072a3.84,3.84,0,0,1,.888-2.777c.916-1.045,2.48-1.575,4.647-1.575s3.72.526,4.638,1.564a3.892,3.892,0,0,1,.9,2.788l0,3.517.182.165a1.089,1.089,0,0,1,.371.815v2.212a1.1,1.1,0,0,1-.786,1.05l-.275.085-.088.274a11.577,11.577,0,0,1-1.567,3.159,7.276,7.276,0,0,1-.463.6l-.138.157v2.281a2.554,2.554,0,0,0,1.419,2.3l5.283,2.641a3.861,3.861,0,0,1,2.146,3.473Z" transform="translate(831.5 418.167)" fill="#393939"/>
      <path id="user_7_2" data-name="user (7)" d="M29.681,23.718,24.4,21.077a1.455,1.455,0,0,1-.808-1.308V17.9c.127-.155.26-.331.4-.526a12.656,12.656,0,0,0,1.634-3.207,2.194,2.194,0,0,0,1.287-2V9.954A2.205,2.205,0,0,0,26.355,8.5V5.561A4.957,4.957,0,0,0,25.2,1.953C24.063.657,22.219,0,19.719,0S15.376.657,14.24,1.952a4.959,4.959,0,0,0-1.157,3.609V8.5a2.205,2.205,0,0,0-.553,1.452v2.212a2.2,2.2,0,0,0,.828,1.719,11.606,11.606,0,0,0,1.937,4v1.83A1.461,1.461,0,0,1,14.534,21L9.6,23.691A4.987,4.987,0,0,0,7,28.072v1.791c0,2.625,8.32,3.318,12.719,3.318s12.719-.693,12.719-3.318V28.18A4.962,4.962,0,0,0,29.681,23.718Zm1.651,6.144c0,.75-4.1,2.212-11.613,2.212S8.106,30.613,8.106,29.863V28.072a3.88,3.88,0,0,1,2.023-3.409l4.933-2.691A2.568,2.568,0,0,0,16.4,19.718V17.5l-.129-.154a10.44,10.44,0,0,1-1.886-3.907l-.05-.219-.189-.122a1.1,1.1,0,0,1-.512-.927V9.954a1.091,1.091,0,0,1,.371-.816l.182-.164V5.53l0-.072a3.84,3.84,0,0,1,.888-2.777c.916-1.045,2.48-1.575,4.647-1.575s3.72.526,4.638,1.564a3.892,3.892,0,0,1,.9,2.788l0,3.517.182.165a1.089,1.089,0,0,1,.371.815v2.212a1.1,1.1,0,0,1-.786,1.05l-.275.085-.088.274a11.577,11.577,0,0,1-1.567,3.159,7.276,7.276,0,0,1-.463.6l-.138.157v2.281a2.554,2.554,0,0,0,1.419,2.3l5.283,2.641a3.861,3.861,0,0,1,2.146,3.473Z" transform="translate(893.5 418.167)" fill="#393939"/>
      <path id="Trazado_72" data-name="Trazado 72" d="M-453.332-2601.833v-14.682h28.768v11.9h-24.946Z" transform="translate(1315.5 3022)" fill="none" stroke="#393939" stroke-width="1"/>
      <g id="Rectángulo_659" data-name="Rectángulo 659" transform="translate(873.5 427)" fill="#fff" stroke="#393939" stroke-width="1">
        <rect width="31" height="21" stroke="none"/>
        <rect x="0.5" y="0.5" width="30" height="20" fill="none"/>
      </g>
      <path id="Trazado_73" data-name="Trazado 73" d="M-430.3-2584.5v14.516h-4.141v2.26h16.029v-2.26h-4.3V-2584.5Z" transform="translate(1315.5 3022)" fill="#fff" stroke="#393939" stroke-width="1"/>
      <line id="Línea_24" data-name="Línea 24" x2="21.029" transform="translate(866 409.06)" fill="none" stroke="#393939" stroke-width="0.8"/>
      <line id="Línea_25" data-name="Línea 25" x2="21.029" transform="translate(866 413.3)" fill="none" stroke="#393939" stroke-width="0.8"/>
    </g>
  </g>
</svg>
