<svg xmlns="http://www.w3.org/2000/svg" width="76" height="49" viewBox="0 0 76 49">
  <g id="icon-10" transform="translate(0.5 0.5)">
    <path id="Shape" d="M31.892,48a1.1,1.1,0,0,1-1.108-1.1V32.338a3.482,3.482,0,0,0-.022-.378L27.8,34.9a2.4,2.4,0,0,0-.715,1.715V46.9a1.108,1.108,0,0,1-2.216,0V36.617a4.574,4.574,0,0,1,1.365-3.269l3.536-3.507a3.6,3.6,0,0,0-1.136-.791L22.3,26.259l-4.693,4.655V46.9a1.107,1.107,0,0,1-2.215,0V30.914L10.7,26.259,4.37,29.049a3.608,3.608,0,0,0-1.136.791l3.536,3.507a4.574,4.574,0,0,1,1.365,3.269V46.9a1.108,1.108,0,0,1-2.216,0V36.617A2.4,2.4,0,0,0,5.2,34.9L2.238,31.96a3.561,3.561,0,0,0-.022.378V46.9A1.108,1.108,0,0,1,0,46.9V32.338a5.8,5.8,0,0,1,3.47-5.3L9.908,24.2a1.249,1.249,0,0,0,.748-1.142V21.307A9.254,9.254,0,0,1,7.1,14.017v-.485a2.187,2.187,0,0,1-.3-.193,2.3,2.3,0,0,1-.884-1.847V9.319A9.369,9.369,0,0,1,15.316,0h2.368a9.369,9.369,0,0,1,9.4,9.319v.239A2.272,2.272,0,0,1,25.9,11.55v2.468a9.251,9.251,0,0,1-3.552,7.29v1.753a1.25,1.25,0,0,0,.749,1.142l6.437,2.839A5.8,5.8,0,0,1,33,32.338V46.9A1.1,1.1,0,0,1,31.892,48ZM12.872,22.613v.447a3.417,3.417,0,0,1-.49,1.76L16.5,28.905l4.118-4.084a3.425,3.425,0,0,1-.49-1.76v-.447a9.456,9.456,0,0,1-7.256,0ZM10.58,10.322h0a1.116,1.116,0,0,1,.814.353,1.093,1.093,0,0,1-.063,1.553,6.572,6.572,0,0,1-2.011,1.3v.494a7.18,7.18,0,0,0,14.36,0V12.032a20.8,20.8,0,0,1-2.446.148,15.681,15.681,0,0,1-4.634-.651,10.708,10.708,0,0,1-4.436-2.606,1.092,1.092,0,0,1,0-1.554,1.114,1.114,0,0,1,1.567,0A8.33,8.33,0,0,0,16.2,9.019,12.2,12.2,0,0,0,21.212,10a18.837,18.837,0,0,0,3.6-.371.07.07,0,0,0,.05-.072v-.24A7.159,7.159,0,0,0,17.684,2.2H15.316A7.16,7.16,0,0,0,8.135,9.319v2.174a.217.217,0,0,0,.019.1l.03-.005a3.992,3.992,0,0,0,1.645-.975A1.108,1.108,0,0,1,10.58,10.322Z" transform="translate(21)" fill="#fff" stroke="#fb6262" stroke-width="1"/>
    <path id="Shape-2" data-name="Shape" d="M11.778,42a1.1,1.1,0,0,1-1.11-1.1V29.65L7.957,26.971a3.469,3.469,0,0,1-.55.339L3.571,29.2a2.511,2.511,0,0,0-.53.354l.009.008a.382.382,0,0,1,.029.025l2.515,2.484A4.549,4.549,0,0,1,6.96,35.334V40.9a1.109,1.109,0,0,1-2.218,0v-5.57a2.388,2.388,0,0,0-.717-1.709L2.218,31.84V40.9A1.109,1.109,0,0,1,0,40.9V31.367a4.578,4.578,0,0,1,2.578-4.122L6.415,25.35a1.237,1.237,0,0,0,.7-1.114V21.827a8.1,8.1,0,0,1-3.557-6.682V12.8A8.075,8.075,0,0,1,7.325,5.983a4.553,4.553,0,0,1-.212-1.375,4.666,4.666,0,0,1,9.331,0,4.593,4.593,0,0,1-.213,1.374A8.078,8.078,0,0,1,20,12.8v2.342a8.1,8.1,0,0,1-3.556,6.682v2.408l.328,1.478L15.6,26.971,12.887,29.65V40.9A1.1,1.1,0,0,1,11.778,42ZM9.331,22.9v1.337a3.43,3.43,0,0,1-.116.879l2.563,2.531,2.563-2.531a3.391,3.391,0,0,1-.116-.879V22.9a8.338,8.338,0,0,1-4.894,0Zm.022-9.654a.022.022,0,0,0-.012,0,24.213,24.213,0,0,1-3.568,1.67v.227a6.006,6.006,0,0,0,12,.326,9.424,9.424,0,0,1-2.138.253,8.86,8.86,0,0,1-4.239-1.08,12,12,0,0,1-1.422-.977A2.8,2.8,0,0,0,9.354,13.245Zm.054-2.707.078,0a1.111,1.111,0,0,1,.808.435,7.15,7.15,0,0,0,5.336,2.556,7.416,7.416,0,0,0,2.152-.33v-.4a6.016,6.016,0,0,0-10.2-4.241,5.865,5.865,0,0,0-1.808,4.089,7.3,7.3,0,0,0,2.844-1.794A1.128,1.128,0,0,1,9.408,10.538Zm2.371-5.854a8.263,8.263,0,0,1,2.408.356,2.472,2.472,0,0,0,.039-.432,2.447,2.447,0,0,0-4.894,0,2.249,2.249,0,0,0,.042.43A8.264,8.264,0,0,1,11.778,4.684Z" transform="translate(0 6)" fill="#fff" stroke="#fb6262" stroke-width="1"/>
    <path id="Shape-3" data-name="Shape" d="M20.91,40a1.1,1.1,0,0,1-1.091-1.105V26.913a2.506,2.506,0,0,0-.08-.622l-1.7,1.719a2.44,2.44,0,0,0-.7,1.724v9.16a1.091,1.091,0,1,1-2.182,0v-9.16A4.65,4.65,0,0,1,16.5,26.447l1.792-1.814L12.384,21.64a3.449,3.449,0,0,1-.541-.342L9.176,24V38.9a1.091,1.091,0,1,1-2.182,0V24L4.328,21.3a2.442,2.442,0,0,1-.866-2.448A2.163,2.163,0,0,0,3.5,18.54V16.974a7.056,7.056,0,0,1-2.332-5.241V10.474l-.075,0A1.1,1.1,0,0,1,0,9.372V7.01A6.973,6.973,0,0,1,6.92,0H9.251a6.973,6.973,0,0,1,6.92,7.01V9.372a1.1,1.1,0,0,1-1.091,1.1h-.075v1.257a7.056,7.056,0,0,1-2.332,5.241V18.54a1.252,1.252,0,0,0,.686,1.124l6.1,3.092A4.624,4.624,0,0,1,22,26.913V38.894A1.1,1.1,0,0,1,20.91,40ZM5.679,18.305v.235a3.547,3.547,0,0,1-.114.887L8.086,21.98l2.521-2.553a3.548,3.548,0,0,1-.114-.887v-.235a6.839,6.839,0,0,1-4.813,0ZM5.907,8.37a9.234,9.234,0,0,1-2.56,1.582v1.781a4.739,4.739,0,1,0,9.477,0V10.362A19.236,19.236,0,0,1,5.907,8.37ZM5.755,5.9a1.073,1.073,0,0,1,.6.185A11.573,11.573,0,0,0,8.4,7.073,18.563,18.563,0,0,0,13.99,8.237V7.009a4.775,4.775,0,0,0-4.739-4.8H6.92a4.775,4.775,0,0,0-4.738,4.8V8.04a7.155,7.155,0,0,0,2.8-1.812A1.08,1.08,0,0,1,5.755,5.9Z" transform="translate(53 8)" fill="#fff" stroke="#fb6262" stroke-width="1"/>
  </g>
</svg>
