<svg xmlns="http://www.w3.org/2000/svg" width="68.399" height="68.4" viewBox="0 0 68.399 68.4">
  <g id="football" transform="translate(0.7 0.7)">
    <g id="Group_4" data-name="Group 4" transform="translate(0 0)">
      <path id="Shape" d="M22.871,61.721a1.3,1.3,0,0,1-.926-.384,1.316,1.316,0,0,1,0-1.856l9.228-9.244a25.318,25.318,0,0,1-8.433-4.4,25.7,25.7,0,0,1-6.222-7.093,1.106,1.106,0,0,1-.149-.253,25.952,25.952,0,0,1-1.2-2.336L2.236,49.115a1.306,1.306,0,0,1-1.852,0,1.315,1.315,0,0,1,0-1.856l13.76-13.784a25.351,25.351,0,0,1-1.053-4.929l0-.015,0-.02a27.055,27.055,0,0,1-.159-2.849,25.58,25.58,0,0,1,6.28-16.814,1.354,1.354,0,0,1,.221-.25,25.868,25.868,0,0,1,9.381-6.671,1.225,1.225,0,0,1,.23-.094,25.571,25.571,0,0,1,18.083-.349,1.111,1.111,0,0,1,.212.075A25.8,25.8,0,0,1,57.2,8.1a1.291,1.291,0,0,1,.234.252,25.6,25.6,0,0,1,6.723,17.311,26.269,26.269,0,0,1-.174,2.984c0,.012,0,.022,0,.034A25.484,25.484,0,0,1,60.7,38.53a1.309,1.309,0,0,1-.164.276,25.867,25.867,0,0,1-9.175,9.066A25.558,25.558,0,0,1,34.17,50.945L23.8,61.337A1.3,1.3,0,0,1,22.871,61.721Zm11.623-29-4.614,7.354,4.774,8.291a23,23,0,0,0,7.778,0l4.774-8.291L42.55,32.9Zm22.553,7.073-7.472,1.418-3.6,6.248A24.417,24.417,0,0,0,57.047,39.793ZM20.44,39.85a21.879,21.879,0,0,0,10.668,7.61l-3.6-6.25Zm34.1-18.031-7.366,1.937L44.7,31.4l4.661,7.185,9.283-1.747A22.808,22.808,0,0,0,61.3,28.976Zm-32.3.173h0L15.77,28.86a22.84,22.84,0,0,0,2.644,7.928l9.311,1.79L32.384,31.4l-.827-2.549-1.651-5.092-7.661-1.764Zm16.274-3.26L32.46,23.141l2.314,7.134h7.487l2.314-7.133Zm18.791-6.369L56.4,20.178l5.133,5.279A22.907,22.907,0,0,0,57.309,12.363ZM19.475,12.8a22.962,22.962,0,0,0-3.924,12.558l5.106-5.16ZM46.72,4.323,39.876,9.337v7.1l6.578,4.787L51.017,20.2l2.818-.634L55,9.585a27.792,27.792,0,0,0-5.841-4.17,16.561,16.561,0,0,0-2.112-.966l-.006,0-.007,0-.008,0C46.891,4.392,46.8,4.356,46.72,4.323Zm-17.4.239a22.943,22.943,0,0,0-7.633,5.45l1.525,9.548,7.421,1.669,1.938-1.41,4.64-3.377V9.4Zm9.225-1.938a23,23,0,0,0-6.046.81l5.991,3.672,5.374-3.858A23.019,23.019,0,0,0,38.542,2.624Z" transform="translate(2.843)" fill="#fff" stroke="#fb6262" stroke-width="1.4"/>
      <path id="Path" d="M18.064.384.384,18.064a1.311,1.311,0,1,0,1.855,1.855l17.68-17.68A1.312,1.312,0,0,0,18.064.384Z" transform="translate(0 46.697)" fill="#fff" stroke="#fb6262" stroke-width="1.4"/>
    </g>
  </g>
</svg>
