<svg xmlns="http://www.w3.org/2000/svg" width="61.934" height="61.908" viewBox="0 0 61.934 61.908">
  <g id="red-icon-07" transform="translate(0.624 0.6)">
    <path id="Path" d="M1.884.323A1.1,1.1,0,0,0,0,1.1a1.1,1.1,0,0,0,1.1,1.1,1.1,1.1,0,0,0,1.1-1.1A1.112,1.112,0,0,0,1.884.323Z" transform="translate(43.048 16.557)" fill="#fb6262" stroke="#fff" stroke-width="1.2"/>
    <path id="Shape" d="M10.927,12.141H1.214A1.215,1.215,0,0,1,0,10.927V1.214A1.215,1.215,0,0,1,1.214,0h9.713a1.215,1.215,0,0,1,1.214,1.214v9.713A1.215,1.215,0,0,1,10.927,12.141Zm-8.5-9.713V9.713H9.713V2.428Z" transform="translate(7.727 33.113)" fill="#fb6262" stroke="#fff" stroke-width="1.2"/>
    <path id="Shape-2" data-name="Shape" d="M34.156,35.321H1.166a1.166,1.166,0,0,1-.824-1.991L7.6,26.069,21.452,12.221,33.331.342a1.166,1.166,0,0,1,1.991.825V34.155A1.168,1.168,0,0,1,34.156,35.321ZM8.43,28.541h0L3.98,32.99h29.01V3.98L28.541,8.428l1.113,1.113a1.166,1.166,0,1,1-1.648,1.649l-1.113-1.113-2.967,2.967,1.113,1.113a1.166,1.166,0,0,1-1.649,1.649l-1.113-1.113-2.967,2.967,1.113,1.113a1.165,1.165,0,1,1-1.648,1.648l-1.113-1.113-2.967,2.967,1.113,1.113a1.166,1.166,0,1,1-1.649,1.649l-1.113-1.113-2.967,2.967,1.113,1.113a1.166,1.166,0,1,1-1.648,1.649L8.43,28.541Z" transform="translate(25.387 25.387)" fill="#fb6262" stroke="#fff" stroke-width="1.2"/>
    <path id="Shape-3" data-name="Shape" d="M14.286,15.454H1.169a1.169,1.169,0,0,1-.827-1.995L13.459.342a1.169,1.169,0,0,1,1.995.827V14.285A1.17,1.17,0,0,1,14.286,15.454ZM13.117,3.989h0L3.989,13.117h9.128V3.989Z" transform="translate(39.736 39.736)" fill="#fb6262" stroke="#fff" stroke-width="1.2"/>
    <path id="Shape-4" data-name="Shape" d="M22.383,60.708H3.554a1.186,1.186,0,0,1-1.185-1.185V28.339H1.185a1.186,1.186,0,0,1-.837-2.025L26.285.348a1.182,1.182,0,0,1,1.675,0l13.5,13.516a1.19,1.19,0,0,1,0,1.677,1.185,1.185,0,0,1-1.675,0L27.123,2.863,4.045,25.967H8.413L26.285,8.074a1.182,1.182,0,0,1,1.675,0L42.808,22.939l2.274-2.276a1.174,1.174,0,0,1,.43-.275L53.6,17.423a1.191,1.191,0,0,1,.408-.073,1.175,1.175,0,0,1,.836.347,1.194,1.194,0,0,1,.275,1.247l-2.961,8.1a1.191,1.191,0,0,1-.275.43L42.8,36.563a1.186,1.186,0,0,1-1.676,0,1.189,1.189,0,0,1,0-1.677l8.269-8.278-3.45-3.454L24.3,44.817l3.45,3.455L35.321,40.7A1.185,1.185,0,1,1,37,42.374l-9.988,10a4.811,4.811,0,0,1-6.8,0,4.823,4.823,0,0,1,0-6.808L21.269,44.5a1.214,1.214,0,0,1-.068-.394V30.354a1.186,1.186,0,0,1,1.184-1.186h9.474a1.186,1.186,0,0,1,0,2.371h-8.29V42.2L41.133,24.616,27.123,10.59,9.741,27.991a1.177,1.177,0,0,1-.837.348H4.738v30H22.383a1.186,1.186,0,0,1,0,2.371Zm.245-14.214-.746.747A2.441,2.441,0,1,0,25.334,50.7l.745-.747ZM52.015,20.529,48.1,21.963l2.481,2.483,1.432-3.917Z" transform="translate(0 0)" fill="#fb6262" stroke="#fff" stroke-width="1.2"/>
    <path id="Path-2" data-name="Path" d="M1.884.323a1.1,1.1,0,0,0-1.561,0A1.1,1.1,0,0,0,1.1,2.208a1.1,1.1,0,0,0,1.1-1.1A1.114,1.114,0,0,0,1.884.323Z" transform="translate(38.633 37.529)" fill="#fb6262" stroke="#fff" stroke-width="1.2"/>
    <path id="Shape-5" data-name="Shape" d="M4.415,8.83A4.415,4.415,0,1,1,8.83,4.415,4.42,4.42,0,0,1,4.415,8.83Zm0-6.507A2.092,2.092,0,1,0,6.507,4.415,2.093,2.093,0,0,0,4.415,2.324Z" transform="translate(22.076 18.764)" fill="#fb6262" stroke="#fff" stroke-width="1.2"/>
  </g>
</svg>
