<?xml version="1.0" encoding="utf-8"?>
<!-- Generator: Adobe Illustrator 16.0.0, SVG Export Plug-In . SVG Version: 6.00 Build 0)  -->
<!DOCTYPE svg PUBLIC "-//W3C//DTD SVG 1.1//EN" "http://www.w3.org/Graphics/SVG/1.1/DTD/svg11.dtd">
<svg version="1.1" id="Layer_1" xmlns="http://www.w3.org/2000/svg" xmlns:xlink="http://www.w3.org/1999/xlink" x="0px" y="0px"
	 width="24px" height="24px" viewBox="-6.135 -5.779 24 24" enable-background="new -6.135 -5.779 24 24" xml:space="preserve">
<g id="share" transform="translate(-0.803)">
	<path id="Trazado_67-4" fill="#FB6262" d="M13.59,18.067L13.59,18.067c-2.339,0.004-4.237-1.891-4.239-4.229
		c-0.002-0.483,0.08-0.963,0.241-1.416L3.103,8.785c-1.419,1.857-4.076,2.211-5.934,0.792c-1.857-1.42-2.21-4.076-0.792-5.933
		c1.419-1.857,4.076-2.212,5.934-0.792c0.297,0.227,0.565,0.495,0.792,0.792l6.489-3.631c-0.161-0.448-0.243-0.924-0.241-1.4
		c-0.01-2.07,1.485-3.84,3.527-4.178c0.23-0.039,0.465-0.06,0.699-0.06c2.337,0.004,4.229,1.9,4.225,4.238
		c-0.004,2.335-1.9,4.228-4.236,4.224c-1.313-0.001-2.549-0.611-3.349-1.653L3.715,4.815c0.16,0.45,0.242,0.924,0.242,1.4
		S3.876,7.164,3.72,7.614l6.51,3.637c0.805-1.039,2.045-1.649,3.359-1.653l0,0c2.339,0,4.235,1.896,4.235,4.236
		c0,2.339-1.896,4.235-4.235,4.235V18.067z M13.59,10.927c-1.604,0-2.906,1.301-2.906,2.906c0,1.606,1.302,2.908,2.906,2.908
		c1.606,0,2.908-1.302,2.908-2.908C16.496,12.228,15.194,10.929,13.59,10.927z M-0.263,3.311c-1.608-0.002-2.914,1.299-2.916,2.908
		C-3.18,7.828-1.876,9.131-0.27,9.133c1.608,0.002,2.914-1.3,2.916-2.908c0-1.177-0.708-2.239-1.794-2.691
		C0.498,3.385,0.119,3.311-0.265,3.311H-0.263z M13.59-4.292c-1.604-0.001-2.908,1.3-2.908,2.906
		c-0.002,1.605,1.3,2.908,2.904,2.908c1.606,0.002,2.908-1.3,2.91-2.904c0-0.002,0-0.004,0-0.004
		C16.492-2.989,15.192-4.288,13.59-4.292z"/>
</g>
</svg>
