<svg xmlns="http://www.w3.org/2000/svg" width="11.73" height="12.443" viewBox="0 0 11.73 12.443">
  <g id="share" transform="translate(-0.803)">
    <path id="Trazado_67-4" d="M9.5,12.443h0a2.224,2.224,0,0,1-2.1-2.965L3.992,7.568a2.223,2.223,0,1,1,0-2.7L7.4,2.961a2.16,2.16,0,0,1-.127-.736A2.215,2.215,0,0,1,9.126.031,2.241,2.241,0,0,1,9.493,0,2.222,2.222,0,1,1,7.728,3.576L4.313,5.483a2.191,2.191,0,0,1,.127.736,2.227,2.227,0,0,1-.124.734l3.419,1.91A2.242,2.242,0,0,1,9.5,7.995H9.5a2.224,2.224,0,0,1,0,4.449ZM9.5,8.693a1.527,1.527,0,1,0,1.527,1.527A1.529,1.529,0,0,0,9.5,8.693Zm-7.276-4a1.529,1.529,0,1,0,.585.117A1.516,1.516,0,0,0,2.223,4.693ZM9.5.7a1.527,1.527,0,1,0,1.526,1.526A1.53,1.53,0,0,0,9.5.7Z" transform="translate(0.803 0)" fill="#fb6262"/>
  </g>
</svg>
