<svg xmlns="http://www.w3.org/2000/svg" width="37.591" height="47.418" viewBox="0 0 37.591 47.418">
  <g id="document" transform="translate(-37.85 0.35)">
    <g id="Grupo_417" data-name="Grupo 417" transform="translate(38.2 0)">
      <path id="Trazado_125" data-name="Trazado 125" d="M74.936,10.29c-.051-.051-.051-.1-.1-.154L66.087.309h0c-.051-.051-.154-.1-.206-.154-.051,0-.051-.051-.1-.051a.954.954,0,0,0-.36-.1H43.963A5.753,5.753,0,0,0,38.2,5.763V40.955a5.753,5.753,0,0,0,5.763,5.763H69.328a5.753,5.753,0,0,0,5.763-5.763v-30.2c0-.1-.051-.257-.051-.36C74.988,10.342,74.988,10.29,74.936,10.29ZM66.344,3.447,72,9.776h-5.66ZM73.187,40.9a3.8,3.8,0,0,1-3.807,3.807H43.963A3.8,3.8,0,0,1,40.155,40.9V5.711A3.8,3.8,0,0,1,43.963,1.9H64.44v8.85a.977.977,0,0,0,.978.978h7.769Z" transform="translate(-38.2 0)" fill="#fb6262" stroke="#fff" stroke-width="0.7"/>
      <path id="Trazado_126" data-name="Trazado 126" d="M93.667,76h-8.49a.977.977,0,0,0-.978.978.946.946,0,0,0,.978.978h8.49a.978.978,0,1,0,0-1.955Z" transform="translate(-78.283 -66.224)" fill="#fb6262" stroke="#fff" stroke-width="0.7"/>
      <path id="Trazado_129" data-name="Trazado 129" d="M108.216,162.4H85.578a.978.978,0,0,0,0,1.955h22.639a.977.977,0,0,0,.978-.978A1.051,1.051,0,0,0,108.216,162.4Z" transform="translate(-78.632 -146.081)" fill="#fb6262" stroke="#fff" stroke-width="0.7"/>
      <path id="Trazado_131" data-name="Trazado 131" d="M108.216,236H85.578a.978.978,0,0,0,0,1.955h22.639a.977.977,0,0,0,.978-.978A1.051,1.051,0,0,0,108.216,236Z" transform="translate(-78.632 -213.641)" fill="#fb6262" stroke="#fff" stroke-width="0.7"/>
      <path id="Trazado_132" data-name="Trazado 132" d="M108.216,236H85.578a.978.978,0,0,0,0,1.955h22.639a.977.977,0,0,0,.978-.978A1.051,1.051,0,0,0,108.216,236Z" transform="translate(-78.632 -207.357)" fill="#fb6262" stroke="#fff" stroke-width="0.7"/>
    </g>
  </g>
</svg>
