<svg xmlns="http://www.w3.org/2000/svg" xmlns:xlink="http://www.w3.org/1999/xlink" width="38" height="11" viewBox="0 0 38 11">
  <image id="Layer_0" data-name="Layer 0" width="38" height="11" xlink:href="data:image/png;base64,iVBORw0KGgoAAAANSUhEUgAAACYAAAALCAYAAAATD/9GAAAABHNCSVQICAgIfAhkiAAAAIxJREFUOI3N0zEOAUEARuFvN0MioXIApStIdA7hOk7iBNvSqvUOoBJahEoyio1kzR5g5pWvesX/VzFGmZlgi3VX1nla/niiwa4rQ56WHg3eOGBFOWGw18YdsQjY5O3pccI5oMpdknDBuCrglSlXLEvaGNwxx62UsIF2+FM8KOOVNV4Y4fOTJYTNMEzlF8ZaGSN6MnrJAAAAAElFTkSuQmCC"/>
</svg>
