<svg xmlns="http://www.w3.org/2000/svg" width="4.647" height="9.168" viewBox="0 0 4.647 9.168">
  <path id="Path_147" data-name="Path 147" d="M-8653.32,4450.5l3.49,4.084-3.49,4.084" transform="translate(8653.82 -4450)" fill="none" stroke="#373737" stroke-linecap="round" stroke-width="1"/>
</svg>
