<svg xmlns="http://www.w3.org/2000/svg" width="7.979" height="4.698" viewBox="0 0 7.979 4.698">
  <path id="Path_139" data-name="Path 139" d="M0,0,3.49,3.49,0,6.979" transform="translate(7.479 0.5) rotate(90)" fill="none" stroke="#373737" stroke-linecap="round" stroke-width="1"/>
</svg>
