<svg xmlns="http://www.w3.org/2000/svg" width="70.978" height="70.275" viewBox="0 0 70.978 70.275">
  <g id="save-money" transform="translate(-0.16 -3.842)">
    <path id="Trazado_14" data-name="Trazado 14" d="M191.754,166.557a1.249,1.249,0,0,0-.45-.015,2.985,2.985,0,0,1-2.64-2.96,1.313,1.313,0,1,0-2.626,0,5.616,5.616,0,0,0,4.13,5.408V170.3a1.313,1.313,0,0,0,2.626,0V169.07a5.606,5.606,0,0,0-1.149-11.093A2.981,2.981,0,1,1,194.626,155a1.313,1.313,0,0,0,2.626,0,5.616,5.616,0,0,0-4.458-5.488v-1.195a1.313,1.313,0,0,0-2.626,0v1.275a5.606,5.606,0,0,0,1.477,11.014,2.979,2.979,0,0,1,.109,5.956Zm0,0" transform="translate(-155.207 -136.311)" fill="#29473d" stroke="#fff" stroke-width="0.4"/>
    <path id="Trazado_15" data-name="Trazado 15" d="M104.2,125.53a19.037,19.037,0,1,0,19.037-19.037A19.037,19.037,0,0,0,104.2,125.53Zm19.037-16.412a16.412,16.412,0,1,1-16.412,16.412A16.411,16.411,0,0,1,123.233,109.118Zm0,0" transform="translate(-86.795 -102.45)" fill="#29473d" stroke="#fff" stroke-width="0.4"/>
    <path id="Trazado_16" data-name="Trazado 16" d="M61.947,331.587l-10.284,4.859a8.376,8.376,0,0,0-7.141-4.406l-9.494-.261a10.027,10.027,0,0,1-4.315-1.114l-.966-.5a17.039,17.039,0,0,0-15.783.017l.06-2.189a1.313,1.313,0,0,0-1.276-1.349l-10.41-.287A1.312,1.312,0,0,0,.99,327.633L.361,350.478a1.313,1.313,0,0,0,1.276,1.349l10.41.286h.036a1.313,1.313,0,0,0,1.313-1.277l.03-1.093,2.7-1.448a4.639,4.639,0,0,1,3.462-.379l16.15,4.533c.028.008.056.015.085.021a17.284,17.284,0,0,0,3.549.366,17.517,17.517,0,0,0,7.317-1.6,1.23,1.23,0,0,0,.163-.09L70.274,336a1.313,1.313,0,0,0,.43-1.749A6.632,6.632,0,0,0,61.947,331.587ZM3.022,349.239l.556-20.221,7.785.214-.556,20.221Zm42.491-.344a14.884,14.884,0,0,1-9.1,1.016L20.3,345.39a7.259,7.259,0,0,0-5.412.592l-1.382.74.37-13.444a14.431,14.431,0,0,1,14.66-.782l.966.5a12.679,12.679,0,0,0,5.45,1.408l9.494.261a5.758,5.758,0,0,1,5.472,4.589l-14.142-.39a1.313,1.313,0,1,0-.072,2.625l15.607.43h.037a1.313,1.313,0,0,0,1.312-1.277,8.331,8.331,0,0,0-.127-1.7l10.548-4.984.031-.015a4.011,4.011,0,0,1,4.536.635Zm0,0" transform="translate(0 -278.92)" fill="#29473d" stroke="#fff" stroke-width="0.4"/>
  </g>
</svg>
