<svg xmlns="http://www.w3.org/2000/svg" width="63.179" height="77.936" viewBox="0 0 63.179 77.936">
  <g id="cutlery_1_" data-name="cutlery (1)" transform="translate(-53.801 0.201)">
    <g id="Grupo_5" data-name="Grupo 5" transform="translate(56.001 0)">
      <g id="Grupo_4" data-name="Grupo 4" transform="translate(0 0)">
        <path id="Trazado_4" data-name="Trazado 4" d="M332.009,0H332a4.143,4.143,0,0,0-4.082,3.54l-6.005,42.036a3.926,3.926,0,0,0,2.941,4.374l2.013.5L325.789,72.1a5.175,5.175,0,0,0,5.168,5.433,5.18,5.18,0,0,0,5.175-5.175V4.123A4.127,4.127,0,0,0,332.009,0Zm1.611,72.36h0a2.663,2.663,0,0,1-4.592,1.835,2.638,2.638,0,0,1-.73-1.968l1.134-22.679a1.256,1.256,0,0,0-.95-1.281l-3.014-.754a1.42,1.42,0,0,1-1.064-1.582l6.005-42.036A1.619,1.619,0,0,1,332,2.512h.005a1.613,1.613,0,0,1,1.611,1.611Z" transform="translate(-275.353 0)" fill="#29473d" stroke="#fff" stroke-width="0.4"/>
        <path id="Trazado_5" data-name="Trazado 5" d="M214.929,1.193a1.256,1.256,0,1,0-2.509.125l1.073,21.456h-3.921V1.256a1.256,1.256,0,1,0-2.512,0V22.775h-3.921l1.073-21.456a1.256,1.256,0,1,0-2.509-.125l-1.264,25.274a3.954,3.954,0,0,0,1.748,3.471L203.7,30.95a1.415,1.415,0,0,1,.633,1.226l-1.184,40.05a5.165,5.165,0,1,0,10.326,0l-1.184-40.047a1.416,1.416,0,0,1,.633-1.226l1.518-1.012a3.954,3.954,0,0,0,1.747-3.471Zm-1.877,26.655-1.518,1.012a3.913,3.913,0,0,0-1.751,3.391L210.968,72.3a2.653,2.653,0,1,1-5.3,0l1.184-40.047A3.913,3.913,0,0,0,205.1,28.86l-1.518-1.012a1.43,1.43,0,0,1-.632-1.255l.065-1.307h10.605l.065,1.307A1.431,1.431,0,0,1,213.052,27.849Z" transform="translate(-176.247 0)" fill="#29473d" stroke="#fff" stroke-width="0.4"/>
        <path id="Trazado_6" data-name="Trazado 6" d="M66.635,0C64.018,0,60.4,1.314,58,7.573a33.869,33.869,0,0,0-2,11.1,10.565,10.565,0,0,0,5.1,9.081A2.786,2.786,0,0,1,62.483,30.2L61.458,72.23a5.178,5.178,0,1,0,10.353,0L70.786,30.2a2.786,2.786,0,0,1,1.381-2.451,10.565,10.565,0,0,0,5.1-9.081,33.87,33.87,0,0,0-2-11.1C72.874,1.314,69.252,0,66.635,0Zm4.224,25.608a5.34,5.34,0,0,0-2.583,4.656L69.3,72.291a2.666,2.666,0,1,1-5.331,0l1.025-42.027a5.34,5.34,0,0,0-2.583-4.656,8.071,8.071,0,0,1-3.9-6.936c0-5.273,1.985-16.16,8.122-16.16s8.122,10.888,8.122,16.16A8.069,8.069,0,0,1,70.858,25.608Z" transform="translate(-58.001 0)" fill="#29473d" stroke="#fff" stroke-width="0.4"/>
      </g>
    </g>
  </g>
</svg>
