<svg id="logout_1_" data-name="logout (1)" xmlns="http://www.w3.org/2000/svg" width="14.405" height="14.406" viewBox="0 0 14.405 14.406">
  <g id="Sign_Out" transform="translate(0 0)">
    <path id="Trazado_47" data-name="Trazado 47" d="M6.753,13.506H.9V.9H6.753a.45.45,0,0,0,0-.9H.45A.45.45,0,0,0,0,.451V13.957a.45.45,0,0,0,.45.45h6.3a.45.45,0,0,0,0-.9Z" transform="translate(0 -0.001)" fill="#fff"/>
    <path id="Trazado_48" data-name="Trazado 48" d="M95.371,99.613l-3.106-3.151a.447.447,0,0,0-.637,0,.457.457,0,0,0,0,.643l2.341,2.375H84.7a.455.455,0,0,0,0,.909h9.27l-2.341,2.375a.457.457,0,0,0,0,.643.446.446,0,0,0,.637,0l3.106-3.151A.46.46,0,0,0,95.371,99.613Z" transform="translate(-81.096 -92.724)" fill="#fff"/>
  </g>
</svg>
