<svg xmlns="http://www.w3.org/2000/svg" width="19.86" height="22.174" viewBox="0 0 19.86 22.174">
  <g id="golf_2_" data-name="golf (2)" transform="translate(0.103 0.124)">
    <g id="Grupo_3" data-name="Grupo 3" transform="translate(0 0)">
      <path id="Trazado_2" data-name="Trazado 2" d="M32.668,15.054c-1.416-.457-3.79,1.735-4.795,2.786l-2.329-3.562,3.744-5.754.228.137a.77.77,0,0,0,.228.091h.091a.42.42,0,0,0,.274-.183l4.612-7.078a.485.485,0,0,0,.046-.365.42.42,0,0,0-.183-.274L33.4.077a.449.449,0,0,0-.639.137L28.147,7.292a.449.449,0,0,0,.137.639l.228.137L25,13.456,21.48,8.068l.228-.137a.449.449,0,0,0,.137-.639L17.234.213a.449.449,0,0,0-.639-.137L15.407.853a.375.375,0,0,0-.183.274.515.515,0,0,0,.046.365L19.882,8.57a.375.375,0,0,0,.274.183h.091a.349.349,0,0,0,.228-.091l.228-.137,3.744,5.754L22.12,17.84c-1-1.05-3.379-3.2-4.795-2.786a4.225,4.225,0,0,0-2.146,3.333c.228,1.735,4.247,3.2,5.023,3.47h0c.046,0,.091.046.137.046h.228c.046-.046.137-.091.183-.137l1.827-2.831h0L25,15.191l4.247,6.576c0,.046.046.046.091.091l.046.046h.046a.045.045,0,0,1,.046.046h.183a.168.168,0,0,0,.137-.046h0c.822-.274,4.84-1.735,5.023-3.47A4.3,4.3,0,0,0,32.668,15.054Zm.639-14.019.457.274-4.11,6.347-.228-.137h0L29.2,7.383Zm-17.079.274.457-.274L20.8,7.383l-.457.274Zm-.137,16.942A3.881,3.881,0,0,1,17.6,15.922c.046,0,.091-.046.183-.046.868,0,2.649,1.461,3.836,2.694l-1.461,2.238C18.467,20.215,16.183,19.073,16.092,18.251Zm13.745,2.6-1.461-2.238c1.233-1.324,3.242-2.923,4.018-2.694A3.626,3.626,0,0,1,33.9,18.251C33.81,19.073,31.572,20.215,29.837,20.854Z" transform="translate(-15.169 0.001)" fill="#fff" stroke="#29473d" stroke-width="0.2"/>
      <path id="Trazado_3" data-name="Trazado 3" d="M112.157,11.235a2.694,2.694,0,1,0,0-5.388,2.67,2.67,0,0,0-2.694,2.694A2.7,2.7,0,0,0,112.157,11.235Zm0-4.429a1.781,1.781,0,1,1-1.781,1.781A1.783,1.783,0,0,1,112.157,6.806Z" transform="translate(-102.33 -5.405)" fill="#fff" stroke="#29473d" stroke-width="0.2"/>
    </g>
  </g>
</svg>
