<svg xmlns="http://www.w3.org/2000/svg" width="15.534" height="20.491" viewBox="0 0 15.534 20.491">
  <g id="cutlery_1_" data-name="cutlery (1)" transform="translate(-56.001)">
    <g id="Group_5" data-name="Group 5" transform="translate(56.001 0)">
      <g id="Group_4" data-name="Group 4" transform="translate(0 0)">
        <path id="Path_4" data-name="Path 4" d="M324.555,0h0a1.1,1.1,0,0,0-1.079.935l-1.587,11.109a1.037,1.037,0,0,0,.777,1.156l.532.133-.286,5.721a1.368,1.368,0,0,0,1.366,1.436,1.369,1.369,0,0,0,1.367-1.368V1.09A1.091,1.091,0,0,0,324.555,0Zm.426,19.123h0a.7.7,0,0,1-1.214.485.7.7,0,0,1-.193-.52l.3-5.994a.332.332,0,0,0-.251-.339l-.8-.2a.375.375,0,0,1-.281-.418l1.587-11.109a.428.428,0,0,1,.421-.366h0a.426.426,0,0,1,.426.426Z" transform="translate(-310.111 0)" fill="#29473d"/>
        <path id="Path_5" data-name="Path 5" d="M204.265.315a.332.332,0,0,0-.663.033l.284,5.67h-1.036V.332a.332.332,0,0,0-.664,0V6.019h-1.036l.283-5.67a.332.332,0,0,0-.663-.033l-.334,6.679a1.045,1.045,0,0,0,.462.917l.4.267a.374.374,0,0,1,.167.324l-.313,10.584a1.365,1.365,0,1,0,2.729,0L203.569,8.5a.374.374,0,0,1,.167-.324l.4-.267a1.045,1.045,0,0,0,.462-.917Zm-.5,7.044-.4.267a1.034,1.034,0,0,0-.463.9l.313,10.583a.7.7,0,1,1-1.4,0l.313-10.584a1.034,1.034,0,0,0-.463-.9l-.4-.267a.378.378,0,0,1-.167-.332l.017-.345h2.8l.017.345A.378.378,0,0,1,203.769,7.36Z" transform="translate(-194.042 0)" fill="#29473d"/>
        <path id="Path_6" data-name="Path 6" d="M58.811,0c-.692,0-1.649.347-2.282,2A8.951,8.951,0,0,0,56,4.935a2.792,2.792,0,0,0,1.348,2.4.736.736,0,0,1,.365.648l-.271,11.107a1.368,1.368,0,1,0,2.736,0L59.908,7.982a.736.736,0,0,1,.365-.648,2.792,2.792,0,0,0,1.348-2.4A8.951,8.951,0,0,0,61.094,2C60.46.347,59.5,0,58.811,0Zm1.116,6.768A1.411,1.411,0,0,0,59.245,8l.271,11.107a.7.7,0,1,1-1.409,0L58.378,8A1.411,1.411,0,0,0,57.7,6.768a2.133,2.133,0,0,1-1.03-1.833c0-1.393.525-4.271,2.146-4.271s2.146,2.877,2.146,4.271A2.133,2.133,0,0,1,59.927,6.768Z" transform="translate(-56.001 0)" fill="#29473d"/>
      </g>
    </g>
  </g>
</svg>
