<svg xmlns="http://www.w3.org/2000/svg" xmlns:xlink="http://www.w3.org/1999/xlink" width="51.009" height="51.01" viewBox="0 0 51.009 51.01">
  <defs>
    <clipPath id="clip-path">
      <rect width="51.009" height="51.009" fill="none"/>
    </clipPath>
  </defs>
  <g id="Component_63_1" data-name="Component 63 – 1" transform="translate(0 0)" clip-path="url(#clip-path)">
    <circle id="Ellipse_131" data-name="Ellipse 131" cx="25.505" cy="25.505" r="25.505" fill="#29473d"/>
    <g id="Group_5" data-name="Group 5" transform="translate(14.58 10.679)">
      <path id="Stroke_1" data-name="Stroke 1" d="M0,5.7A5.739,5.739,0,0,1,5.777,0a5.739,5.739,0,0,1,5.777,5.7V8.379a5.739,5.739,0,0,1-5.777,5.7A5.739,5.739,0,0,1,0,8.379Z" transform="translate(5.842 0)" fill="none" stroke="#fff" stroke-linecap="round" stroke-linejoin="round" stroke-miterlimit="10" stroke-width="1"/>
      <path id="Stroke_3" data-name="Stroke 3" d="M23.238,11.041V4.764C23.238.154,11.618,0,11.618,0S0,.154,0,4.764v6.277" transform="translate(0 14.537)" fill="none" stroke="#fff" stroke-linecap="round" stroke-linejoin="round" stroke-miterlimit="10" stroke-width="1"/>
    </g>
  </g>
</svg>
