<svg xmlns="http://www.w3.org/2000/svg" xmlns:xlink="http://www.w3.org/1999/xlink" width="12.5" height="12.312" viewBox="0 0 12.5 12.312">
  <defs>
    <clipPath id="clip-path">
      <rect id="Rectangle_6" data-name="Rectangle 6" width="12.5" height="12.312" fill="#979797"/>
    </clipPath>
  </defs>
  <g id="calendar-mini" transform="translate(0 -0.01)">
    <g id="Group_66" data-name="Group 66" transform="translate(0 0.01)">
      <g id="Group_65" data-name="Group 65" transform="translate(0 0)" clip-path="url(#clip-path)">
        <path id="Path_99" data-name="Path 99" d="M10.443.817H9.1V.409a.409.409,0,1,0-.817,0V.817H4.2V.409A.386.386,0,0,0,3.792,0a.386.386,0,0,0-.409.409V.817H2.043A2.023,2.023,0,0,0,0,2.86v7.354a2.023,2.023,0,0,0,2.043,2.043h8.4a2.023,2.023,0,0,0,2.043-2.043V2.86A2.023,2.023,0,0,0,10.443.817ZM.817,2.86A1.256,1.256,0,0,1,2.043,1.634H3.383v.409a.386.386,0,0,0,.409.409A.386.386,0,0,0,4.2,2.043V1.634H8.286v.409a.409.409,0,0,0,.817,0V1.634h1.341A1.256,1.256,0,0,1,11.669,2.86V4.085H.817Zm10.852,7.354" transform="translate(0 -0.001)" fill="#979797"/>
      </g>
    </g>
  </g>
</svg>
