<svg xmlns="http://www.w3.org/2000/svg" width="19.038" height="19.439" viewBox="0 0 19.038 19.439">
  <g id="descanso" transform="translate(-261 -585.059)">
    <g id="Ellipse_65" data-name="Ellipse 65" transform="translate(261 596.158)" fill="#fff" stroke="#d581b5" stroke-width="1">
      <ellipse cx="9.519" cy="4.169" rx="9.519" ry="4.169" stroke="none"/>
      <ellipse cx="9.519" cy="4.169" rx="9.019" ry="3.669" fill="none"/>
    </g>
    <g id="Ellipse_66" data-name="Ellipse 66" transform="translate(262.586 590.049)" fill="#fff" stroke="#d581b5" stroke-width="1">
      <ellipse cx="7.932" cy="3.508" rx="7.932" ry="3.508" stroke="none"/>
      <ellipse cx="7.932" cy="3.508" rx="7.432" ry="3.008" fill="none"/>
    </g>
    <g id="Ellipse_67" data-name="Ellipse 67" transform="translate(265.022 585.059)" fill="#fff" stroke="#d581b5" stroke-width="1">
      <ellipse cx="5.496" cy="2.692" rx="5.496" ry="2.692" stroke="none"/>
      <ellipse cx="5.496" cy="2.692" rx="4.996" ry="2.192" fill="none"/>
    </g>
  </g>
</svg>
