<svg xmlns="http://www.w3.org/2000/svg" width="14.792" height="20.258" viewBox="0 0 14.792 20.258">
  <g id="detox" transform="translate(-7.963 -0.002)">
    <path id="Path_5507" data-name="Path 5507" d="M21.723,5.676l.1-.029a.382.382,0,0,0,.2-.536,4.847,4.847,0,0,0-3.346-2.088,2.871,2.871,0,0,0,.432-.866.341.341,0,0,0,.011-.137.34.34,0,0,0-.22-.311,2.794,2.794,0,0,0-2.446-.028,1,1,0,0,0-.472-.286L15.886.315a.343.343,0,0,0-.438-.3l-1.717.5a.343.343,0,0,0-.23.439l.239.712a2.823,2.823,0,0,0-2.416.044.34.34,0,0,0-.22.311.341.341,0,0,0,.011.137,2.914,2.914,0,0,0,.452.9A4.4,4.4,0,0,0,8.375,5.125a.45.45,0,0,0-.016.324.344.344,0,0,0,.219.2q.183.055.365.1a6.55,6.55,0,0,0-.98,3.886c0,4.69,4.585,10.627,7.4,10.627s7.4-5.937,7.4-10.627A6.452,6.452,0,0,0,21.723,5.676ZM9.241,5.087a4.537,4.537,0,0,1,3.071-1.435.343.343,0,0,0,.281-.241A.338.338,0,0,0,12.6,3.3a.343.343,0,0,0-.114-.273,2.444,2.444,0,0,1-.586-.758c1.285-.371,1.694.166,1.707.184a.343.343,0,0,0,.373.146.316.316,0,0,0,.06-.021l.052.153.388,1.157a.344.344,0,0,0,.132.173l0,0c.006,0,.014,0,.02.008a.341.341,0,0,0,.088.036c.006,0,.011.005.016.007s.016,0,.024,0a.3.3,0,0,0,.039.007.35.35,0,0,0,.07-.007L15.889,3.9a.344.344,0,0,0,.272-.365h0L16.073,2.5a.356.356,0,0,0,.155.091.352.352,0,0,0,.375-.133c.018-.025.427-.562,1.711-.192A2.481,2.481,0,0,1,17.752,3a.342.342,0,0,0-.11.272.332.332,0,0,0,.013.113.343.343,0,0,0,.281.239,4.89,4.89,0,0,1,3.2,1.473,3.54,3.54,0,0,1-2.54-.037.917.917,0,0,1-.456-.489.34.34,0,0,0-.357-.266.344.344,0,0,0-.319.311,3.176,3.176,0,0,1-1.935,2.755A3.176,3.176,0,0,1,13.6,4.612a.343.343,0,0,0-.261-.3.33.33,0,0,0-.081-.01.347.347,0,0,0-.29.158C12.928,4.516,12.064,5.778,9.241,5.087Zm6-4.3.078.916h0l.136,1.586-.412.086L14.533,1.87h0l-.267-.8Zm.122,18.783c-2.429,0-6.709-5.747-6.709-9.941A5.453,5.453,0,0,1,9.72,5.885a4.272,4.272,0,0,0,3.3-.539,3.819,3.819,0,0,0,2.4,2.712.341.341,0,0,0,.226,0A3.816,3.816,0,0,0,18,5.483a1.935,1.935,0,0,0,.224.152,3.891,3.891,0,0,0,2.724.2,5.378,5.378,0,0,1,1.116,3.8C22.068,13.827,17.788,19.574,15.358,19.574Z" transform="translate(0)" fill="#ad0000"/>
    <path id="Path_5508" data-name="Path 5508" d="M16.5,21.479s-.521,1.818-.521,1.993a.657.657,0,1,0,1.314,0c0-.175-.521-1.993-.521-1.993A.143.143,0,0,0,16.5,21.479Z" transform="translate(-5.266 -14.037)" fill="#ad0000"/>
    <path id="Path_5509" data-name="Path 5509" d="M28.332,25.479s-.521,1.818-.521,1.993a.657.657,0,1,0,1.314,0c0-.175-.521-1.993-.521-1.993A.143.143,0,0,0,28.332,25.479Z" transform="translate(-13.033 -16.663)" fill="#ad0000"/>
    <path id="Path_5510" data-name="Path 5510" d="M39.777,21.467a.143.143,0,0,0-.273,0s-.521,1.818-.521,1.993a.657.657,0,1,0,1.314,0C40.3,23.285,39.777,21.467,39.777,21.467Z" transform="translate(-20.368 -14.029)" fill="#ad0000"/>
    <path id="Path_5511" data-name="Path 5511" d="M21.332,34.491s-.521,1.818-.521,1.993a.657.657,0,1,0,1.314,0c0-.175-.521-1.993-.521-1.993A.143.143,0,0,0,21.332,34.491Z" transform="translate(-8.436 -22.581)" fill="#ad0000"/>
    <path id="Path_5512" data-name="Path 5512" d="M28.332,43.467s-.521,1.818-.521,1.993a.657.657,0,1,0,1.314,0c0-.175-.521-1.993-.521-1.993A.143.143,0,0,0,28.332,43.467Z" transform="translate(-13.033 -28.475)" fill="#ad0000"/>
    <path id="Path_5513" data-name="Path 5513" d="M35.332,34.479s-.521,1.818-.521,1.993a.657.657,0,1,0,1.314,0c0-.175-.521-1.993-.521-1.993A.143.143,0,0,0,35.332,34.479Z" transform="translate(-17.629 -22.573)" fill="#ad0000"/>
  </g>
</svg>
