<svg id="duracion" xmlns="http://www.w3.org/2000/svg" width="14" height="14" viewBox="0 0 14 14">
  <path id="Path_286" data-name="Path 286" d="M7,0a7,7,0,1,0,7,7A7,7,0,0,0,7,0ZM7,13.114A6.114,6.114,0,1,1,13.114,7,6.114,6.114,0,0,1,7,13.114ZM7.438,2.652H6.573l.016,4.8,3.019,2.587.536-.755L7.438,7.011Zm0,0" transform="translate(0 0)" fill="#373737" fill-rule="evenodd"/>
</svg>
