<?xml version="1.0" encoding="UTF-8"?>
<svg width="42px" height="42px" viewBox="0 0 42 42" version="1.1" xmlns="http://www.w3.org/2000/svg" xmlns:xlink="http://www.w3.org/1999/xlink">
    <!-- Generator: Sketch 55 (78076) - https://sketchapp.com -->
    <title>facebook-logo-in-circular-button-outlined-social-symbol</title>
    <desc>Created with Sketch.</desc>
    <g id="-" stroke="none" stroke-width="1" fill="none" fill-rule="evenodd">
        <g id="03-Footer_v3" transform="translate(-615.000000, -710.000000)" fill="#F9AF02" fill-rule="nonzero">
            <g id="Group-4" transform="translate(615.000000, 710.000000)">
                <g id="facebook-logo-in-circular-button-outlined-social-symbol">
                    <path d="M42,21 C42,9.40223529 32.5976961,0 21,0 C9.40223529,0 0,9.40223529 0,21 C0,32.5976961 9.40223529,42 21,42 C32.5976961,42 42,32.5976961 42,21 Z M1.90907843,21 C1.90907843,10.4560784 10.4560784,1.90907843 21,1.90907843 C31.5439216,1.90907843 40.0909216,10.4560784 40.0909216,21 C40.0909216,31.5439216 31.5439216,40.0909216 21,40.0909216 C10.4560784,40.0909216 1.90907843,31.5439216 1.90907843,21 Z" id="Shape"></path>
                    <path d="M22.2740518,33 L22.2740518,21.4845802 L26.1674592,21.4845802 L26.7826121,17.6684923 L22.2740518,17.6684923 L22.2740518,15.7550041 C22.2740518,14.7592704 22.6085512,13.8088508 24.0730133,13.8088508 L27,13.8088508 L27,10 L22.8445781,10 C19.3507394,10 18.397346,12.2453559 18.397346,15.357806 L18.397346,17.6667319 L16,17.6667319 L16,21.4845802 L18.397346,21.4845802 L18.397346,33 L22.2740518,33 L22.2740518,33 Z" id="Path"></path>
                </g>
            </g>
        </g>
    </g>
</svg>