<svg id="face-log-in" xmlns="http://www.w3.org/2000/svg" width="8.371" height="18" viewBox="0 0 8.371 18">
  <g id="Group_1000" data-name="Group 1000">
    <path id="Path_5132" data-name="Path 5132" d="M8.037,9.006H5.516V18H1.776V9.006H0V5.827H1.776V3.774A3.509,3.509,0,0,1,5.549,0L8.321.011V3.095H6.312a.76.76,0,0,0-.79.863v1.87h2.85Zm0,0" fill="#fff"/>
  </g>
</svg>
