<svg id="heart-empty" xmlns="http://www.w3.org/2000/svg" width="16.162" height="14" viewBox="0 0 16.162 14">
  <path id="Path_5098" data-name="Path 5098" d="M16.162,4.365A4.361,4.361,0,0,0,8.081,2.085,4.361,4.361,0,1,0,1.5,7.65l6.185,6.185a.564.564,0,0,0,.8,0L14.664,7.65a4.349,4.349,0,0,0,1.5-3.286Zm0,0" fill="#ddd"/>
</svg>
