<?xml version="1.0" encoding="UTF-8"?>
<svg width="26px" height="26px" viewBox="0 0 26 26" version="1.1" xmlns="http://www.w3.org/2000/svg" xmlns:xlink="http://www.w3.org/1999/xlink">
    <!-- Generator: Sketch 55 (78076) - https://sketchapp.com -->
    <title>icons8-logo-de-google</title>
    <desc>Created with Sketch.</desc>
    <g id="-" stroke="none" stroke-width="1" fill="none" fill-rule="evenodd">
        <g id="Registro-Modal-ETR" transform="translate(-299.000000, -948.000000)" fill-rule="nonzero">
            <g id="Group-15" transform="translate(233.000000, 936.000000)">
                <g id="Group-10" transform="translate(66.000000, 12.000000)">
                    <g id="icons8-logo-de-google">
                        <path d="M25.7460938,10.4533202 L24.7,10.4533202 L24.7,10.4 L13,10.4 L13,15.6 L20.3480472,15.6 C19.2740236,18.6265625 16.3947264,20.8 13,20.8 C8.6912111,20.8 5.2,17.3087889 5.2,13 C5.2,8.6912111 8.6912111,5.2 13,5.2 C14.9880861,5.2 16.7984375,5.9490236 18.1746097,7.17539095 L21.8511722,3.49882845 C19.5304688,1.3355472 16.4251952,0 13,0 C5.81953125,0 0,5.81953125 0,13 C0,20.1804687 5.81953125,26 13,26 C20.1804687,26 26,20.1804687 26,13 C26,12.1291014 25.9111327,11.2785159 25.7460938,10.4533202 Z" id="Path" fill="#FFC107"></path>
                        <path d="M1.4980472,6.9494139 L5.7712889,10.0826173 C6.9265625,7.22109375 9.7246097,5.2 13,5.2 C14.9880861,5.2 16.7984375,5.9490236 18.1746097,7.17539095 L21.8511722,3.49882845 C19.5304688,1.3355472 16.4251952,0 13,0 C8.0056639,0 3.6765625,2.8183597 1.4980472,6.9494139 Z" id="Path" fill="#FF3D00"></path>
                        <path d="M13,26 C16.3566409,26 19.4085938,24.7152347 21.7166014,22.6255861 L17.6921875,19.2207034 C16.3871097,20.2083986 14.7646486,20.8 13,20.8 C9.61796875,20.8 6.74882845,18.6443361 5.6671875,15.6355472 L1.42695345,18.9007813 C3.5775389,23.1105472 7.94726595,26 13,26 Z" id="Path" fill="#4CAF50"></path>
                        <path d="M25.7460938,10.4533202 L24.7,10.4533202 L24.7,10.4 L13,10.4 L13,15.6 L20.3480472,15.6 C19.8326173,17.0548827 18.8957034,18.306641 17.6896486,19.2207035 C17.6921875,19.2207035 17.6921875,19.2207035 17.6921875,19.2207035 L21.7166014,22.6255861 C21.4322264,22.8820313 26,19.5 26,13 C26,12.1291014 25.9111326,11.2785159 25.7460938,10.4533202 Z" id="Path" fill="#1976D2"></path>
                    </g>
                </g>
            </g>
        </g>
    </g>
</svg>