<?xml version="1.0" encoding="UTF-8"?>
<svg width="43px" height="42px" viewBox="0 0 43 42" version="1.1" xmlns="http://www.w3.org/2000/svg" xmlns:xlink="http://www.w3.org/1999/xlink">
    <!-- Generator: Sketch 55 (78076) - https://sketchapp.com -->
    <title>Group 2</title>
    <desc>Created with Sketch.</desc>
    <g id="-" stroke="none" stroke-width="1" fill="none" fill-rule="evenodd">
        <g id="03-Footer_v3" transform="translate(-709.000000, -710.000000)" fill="#F9AF02" fill-rule="nonzero">
            <g id="Group-4" transform="translate(615.000000, 710.000000)">
                <g id="Group-2" transform="translate(94.000000, 0.000000)">
                    <g id="instagram-(2)" transform="translate(12.000000, 11.000000)">
                        <path d="M13.8568726,0 L5.14312744,0 C2.30715942,0 0,2.30715942 0,5.14312744 L0,13.8570175 C0,16.6928406 2.30715942,19 5.14312744,19 L13.8570175,19 C16.6928406,19 19,16.6928406 19,13.8570175 L19,5.14312744 C19,2.30715942 16.6928406,1.05471187e-15 13.8568726,0 Z M9.5,14.7777778 C6.58977807,14.7777778 4.22222222,12.4102219 4.22222222,9.5 C4.22222222,6.58977807 6.58977807,4.22222222 9.5,4.22222222 C12.4102219,4.22222222 14.7777778,6.58977807 14.7777778,9.5 C14.7777778,12.4102219 12.4102219,14.7777778 9.5,14.7777778 L9.5,14.7777778 Z M15.3054808,5.27777778 C14.4323713,5.27777778 13.7222222,4.56762876 13.7222222,3.69451921 C13.7222222,2.82140966 14.4323713,2.11111111 15.3054808,2.11111111 C16.1785903,2.11111111 16.8888889,2.82140966 16.8888889,3.69451921 C16.8888889,4.56762876 16.1785903,5.27777778 15.3054808,5.27777778 Z" id="Shape"></path>
                        <path d="M9.5,5.27777778 C7.1719667,5.27777778 5.27777778,7.17181674 5.27777778,9.5 C5.27777778,11.8280333 7.1719667,13.7222222 9.5,13.7222222 C11.8281833,13.7222222 13.7222222,11.8280333 13.7222222,9.5 C13.7222222,7.17181674 11.8281833,5.27777778 9.5,5.27777778 Z" id="Path"></path>
                    </g>
                    <path d="M43,21 C43,9.40223529 33.3738317,0 21.5,0 C9.62609804,0 0,9.40223529 0,21 C0,32.5976961 9.62609804,42 21.5,42 C33.3738317,42 43,32.5976961 43,21 Z M2.15,21 C2.15,10.5912637 10.8129893,2.15384615 21.5,2.15384615 C32.1870107,2.15384615 40.85,10.5912637 40.85,21 C40.85,31.4087363 32.1870107,39.8461538 21.5,39.8461538 C10.8129893,39.8461538 2.15,31.4087363 2.15,21 Z" id="Shape"></path>
                </g>
            </g>
        </g>
    </g>
</svg>