<svg id="localizacion" xmlns="http://www.w3.org/2000/svg" width="9.922" height="13.474" viewBox="0 0 9.922 13.474">
  <path id="Path_98" data-name="Path 98" d="M4.96,0A4.966,4.966,0,0,0,0,4.96,4.842,4.842,0,0,0,.434,6.985a31.323,31.323,0,0,0,4.317,6.392.275.275,0,0,0,.419,0A31.343,31.343,0,0,0,9.488,6.985,4.842,4.842,0,0,0,9.922,4.96,4.97,4.97,0,0,0,4.96,0Zm0,7.537A2.577,2.577,0,1,1,7.537,4.96,2.58,2.58,0,0,1,4.96,7.537Zm0,0" transform="translate(0 0)" fill="#373737"/>
</svg>
