<svg xmlns="http://www.w3.org/2000/svg" width="15.503" height="23.166" viewBox="0 0 15.503 23.166">
  <g id="meditacion" transform="translate(-4.5 -4.5)">
    <path id="Path_5520" data-name="Path 5520" d="M17.328,507.363H7.175A2.176,2.176,0,0,1,5,505.188V500.45H19.5v4.738A2.176,2.176,0,0,1,17.328,507.363Z" transform="translate(0 -480.197)" fill="none" stroke="#6f1bb7" stroke-linecap="round" stroke-linejoin="round" stroke-miterlimit="10" stroke-width="1"/>
    <g id="Group_1747" data-name="Group 1747" transform="translate(8.838 5)">
      <line id="Line_167" data-name="Line 167" y1="4.391" transform="translate(3.297 10.863)" fill="none" stroke="#6f1bb7" stroke-linecap="round" stroke-linejoin="round" stroke-miterlimit="10" stroke-width="1"/>
      <path id="Path_5521" data-name="Path 5521" d="M132.957,18.229a3.3,3.3,0,0,1-3.3-3.3c0-3.348,3.3-6.326,3.3-9.932,0,0,3.3,5.655,3.3,9.932A3.3,3.3,0,0,1,132.957,18.229Z" transform="translate(-129.66 -5)" fill="none" stroke="#6f1bb7" stroke-linecap="round" stroke-linejoin="round" stroke-miterlimit="10" stroke-width="1"/>
    </g>
  </g>
</svg>
