<?xml version="1.0" encoding="utf-8"?>
<!-- Generator: Adobe Illustrator 16.0.0, SVG Export Plug-In . SVG Version: 6.00 Build 0)  -->
<!DOCTYPE svg PUBLIC "-//W3C//DTD SVG 1.1//EN" "http://www.w3.org/Graphics/SVG/1.1/DTD/svg11.dtd">
<svg version="1.1" id="Layer_1" xmlns="http://www.w3.org/2000/svg" xmlns:xlink="http://www.w3.org/1999/xlink" x="0px" y="0px"
	 width="75.5px" height="75.5px" viewBox="0 -41.5 75.5 75.5" enable-background="new 0 -41.5 75.5 75.5" xml:space="preserve">
<g>
	<path fill="#FFFFFF" d="M37.75-40.5C17.454-40.5,1-24.047,1-3.75C1,16.546,17.454,33,37.75,33S74.5,16.546,74.5-3.75
		C74.5-24.047,58.046-40.5,37.75-40.5z M37.75,26.515c-16.716,0-30.265-13.549-30.265-30.265c0-16.715,13.549-30.265,30.265-30.265
		S68.015-20.465,68.015-3.75C68.015,12.966,54.466,26.515,37.75,26.515z"/>
	<polygon fill="#FFFFFF" points="31.096,10.762 50.552,-3.75 31.096,-18.262 	"/>
</g>
</svg>
