<svg xmlns="http://www.w3.org/2000/svg" width="81.873" height="76.359" viewBox="0 0 81.873 76.359">
  <path id="Trazado_5683" data-name="Trazado 5683" d="M330.387,341.885v12.889a3.541,3.541,0,0,1-3.356,3.568,5.241,5.241,0,0,0-1.743.343v2.855c0,8.634.041,17.268-.022,25.9-.032,4.417-1.865,6.312-6.021,6.317q-29.856.036-59.711.008a11.308,11.308,0,0,1-1.361-.061,4.656,4.656,0,0,1-4.266-4.233,22.615,22.615,0,0,1-.076-2.723c-.005-8.361,0-16.723-.015-25.084,0-1.144-.144-2.288-.193-3.019a5.09,5.09,0,0,0-1.747-.322,3.489,3.489,0,0,1-3.363-3.519V342.591a4.9,4.9,0,0,1,4.581-4.916,24,24,0,0,1,2.645.022c4.288.236,8.6-.049,12.9.076l.2-.3a6.735,6.735,0,0,0-1.458-1.867c-2.6-2.72-3.957-5.889-3.159-9.682.9-4.3,3.482-7.238,7.8-8.18a10.156,10.156,0,0,1,10.732,3.7,33.262,33.262,0,0,1,5.987,11.539c.137.47.337.922.705,1.912.37-.987.573-1.438.708-1.907a32.2,32.2,0,0,1,5.987-11.535,10.486,10.486,0,1,1,15.374,14.153c-.557.546-1.135,1.071-2.085,1.966,1.368.075,2.228.159,3.089.163,3.548.015,7.1.153,10.641-.037.995-.053,2.06-.058,3.059-.039A4.234,4.234,0,0,1,330.387,341.885Zm-71.5,16.259V388.95c9.376,0,18.566.066,27.853-.046V358.144Zm33.283.036v30.545h27.878V358.18Zm-5.4-5.254v-9.765l-32.91-.533v10.3Zm5.386-.089,33.188-.336v-9.324l-33.188.108Zm-7.738-15.028c-.717-6.116-2.739-10.961-7.024-14.677a4.473,4.473,0,0,0-4.38-.712,5.61,5.61,0,0,0-2.078,9.73,24.058,24.058,0,0,0,10,5.237A27.906,27.906,0,0,0,284.413,337.81Zm10.385.053c5.792-.67,10.493-2.81,14.145-6.855,1.842-2.04,1.207-5.619-.865-7.392a5.386,5.386,0,0,0-7.633.378,22.945,22.945,0,0,0-5.735,11.555A12.131,12.131,0,0,0,294.8,337.863Z" transform="translate(-248.514 -317.414)" fill="#f8af02"/>
</svg>
