<svg id="Group_1632" data-name="Group 1632" xmlns="http://www.w3.org/2000/svg" xmlns:xlink="http://www.w3.org/1999/xlink" width="12.304" height="12.304" viewBox="0 0 12.304 12.304">
  <defs>
    <clipPath id="clip-path">
      <rect id="Rectangle_147" data-name="Rectangle 147" width="12.304" height="12.304" fill="#bababa"/>
    </clipPath>
  </defs>
  <g id="Group_232" data-name="Group 232">
    <g id="Group_231" data-name="Group 231" clip-path="url(#clip-path)">
      <path id="Path_285" data-name="Path 285" d="M12.078,5.958a.887.887,0,0,0-.491-1.51L8.6,4.013A.39.39,0,0,1,8.307,3.8L6.97,1.094a.885.885,0,0,0-1.587,0L4.048,3.8a.39.39,0,0,1-.293.213L.768,4.448a.884.884,0,0,0-.491,1.51L2.439,8.064a.389.389,0,0,1,.111.346l-.51,2.974a.876.876,0,0,0,.191.716.9.9,0,0,0,1.093.216l2.668-1.4a.4.4,0,0,1,.364,0L9.029,12.32a.883.883,0,0,0,.411.105.9.9,0,0,0,.679-.318.86.86,0,0,0,.191-.716L9.8,8.416a.4.4,0,0,1,.111-.346Zm0,0" transform="translate(-0.005 -0.415)" fill="#bababa"/>
    </g>
  </g>
</svg>
