<svg xmlns="http://www.w3.org/2000/svg" width="16.071" height="12.568" viewBox="0 0 16.071 12.568">
  <g id="tag" transform="translate(0 -53.064)">
    <path id="Path_5433" data-name="Path 5433" d="M4.335,65.271a1.235,1.235,0,0,0,1.746,0l5.976-5.976a1.75,1.75,0,0,0,.389-.594,6.283,6.283,0,0,0,1.7.254c1.274-.007,1.7-.564,1.835-.9s.238-1.023-.657-1.934l-.03-.03a7.145,7.145,0,0,0-2.274-1.445c-.168-.069-.337-.132-.5-.191v-.01a1.351,1.351,0,0,0-1.333-1.333L7.6,53.064a1.741,1.741,0,0,0-1.264.515L.361,59.555a1.235,1.235,0,0,0,0,1.746ZM8.941,55.2a1.021,1.021,0,0,1,1.733.871,7.124,7.124,0,0,0,1.363.743c.178.073.35.139.515.195l-.02-1.439.086.036a6.22,6.22,0,0,1,1.937,1.221l.02.02c.429.439.475.719.439.805-.112.267-1.317.5-3.145-.257a7.058,7.058,0,0,1-1.442-.8c-.013.016-.03.033-.043.049A1.02,1.02,0,1,1,8.941,55.2Z" transform="translate(0 0)" fill="#979797"/>
  </g>
</svg>
