<svg id="traslados" xmlns="http://www.w3.org/2000/svg" width="12.225" height="12.049" viewBox="0 0 12.225 12.049">
  <path id="Path_5189" data-name="Path 5189" d="M11.894,3.624h-.952a.33.33,0,0,0-.329.316c-.026-.1-.046-.208-.076-.309l-.578-1.92a.408.408,0,0,0,.189-.34A.417.417,0,0,0,9.732.955H9.676C9.451.416,7.944,0,6.113,0S2.774.416,2.549.955H2.493a.416.416,0,0,0-.417.417.408.408,0,0,0,.189.34l-.578,1.92c-.031.1-.05.207-.076.309a.33.33,0,0,0-.329-.316H.331A.331.331,0,0,0,0,3.955v.383a.331.331,0,0,0,.331.331H.892l.415.465c.127.019.259.033.379.058A5.673,5.673,0,0,1,6.113,9.075a5.706,5.706,0,0,1,4.719-3.928l.086-.012.415-.465h.561a.331.331,0,0,0,.331-.331V3.955a.331.331,0,0,0-.331-.332ZM5.74,4.756a.46.46,0,0,1-.46.46h-2.3a.46.46,0,0,1-.453-.544l.42-2.265A.46.46,0,0,1,3.4,2.031H5.279a.46.46,0,0,1,.46.46ZM9.6,5.051a.461.461,0,0,1-.354.166h-2.3a.46.46,0,0,1-.46-.46V2.491a.46.46,0,0,1,.46-.46H8.828a.46.46,0,0,1,.452.376L9.7,4.673a.46.46,0,0,1-.1.378Zm0,0" fill="#373737"/>
  <path id="Path_5190" data-name="Path 5190" d="M212.539,179.612a7.754,7.754,0,0,0,.024-1.082,5.278,5.278,0,0,0-4.362,3.7h4.076Zm-1.636,1.825a.7.7,0,1,1,.7-.7.7.7,0,0,1-.7.7Zm.971-1.58a.269.269,0,1,1,.269-.269.269.269,0,0,1-.269.269Zm0,0" transform="translate(-201.711 -172.966)" fill="#373737"/>
  <path id="Path_5191" data-name="Path 5191" d="M48.179,182.211a5.193,5.193,0,0,0-4.364-3.7,7.8,7.8,0,0,0,.024,1.083l.262,2.618h4.078Zm-2.7-2.2a.7.7,0,1,1-.7.7.7.7,0,0,1,.7-.7ZM44.5,179.3a.269.269,0,1,1-.269.269.269.269,0,0,1,.269-.269Zm0,0" transform="translate(-42.441 -172.946)" fill="#373737"/>
  <path id="Path_5192" data-name="Path 5192" d="M49.2,310.8H40.3a.417.417,0,1,0,0,.833H41.1V312.7a.46.46,0,0,0,.46.46h1.006a.46.46,0,0,0,.46-.46v-1.068h3.437V312.7a.46.46,0,0,0,.46.46h1.007a.46.46,0,0,0,.46-.46v-1.068H49.2a.417.417,0,1,0,0-.833Zm0,0" transform="translate(-38.637 -301.113)" fill="#373737"/>
</svg>
