<svg id="ubication-mini" xmlns="http://www.w3.org/2000/svg" width="9.573" height="13" viewBox="0 0 9.573 13">
  <path id="Path_98" data-name="Path 98" d="M4.786,0A4.791,4.791,0,0,0,0,4.786,4.671,4.671,0,0,0,.419,6.739a30.221,30.221,0,0,0,4.165,6.167.266.266,0,0,0,.4,0A30.241,30.241,0,0,0,9.154,6.739a4.671,4.671,0,0,0,.419-1.954A4.8,4.8,0,0,0,4.786,0Zm0,7.272A2.486,2.486,0,1,1,7.272,4.786,2.489,2.489,0,0,1,4.786,7.272Zm0,0" transform="translate(0 0)" fill="#979797"/>
</svg>
