<svg xmlns="http://www.w3.org/2000/svg" width="291.602" height="183.542" viewBox="0 0 291.602 183.542">
  <g id="visa-grey" transform="translate(-474 -1670)">
    <g id="Group_1556" data-name="Group 1556" transform="translate(474 1670)">
      <path id="Path_5375" data-name="Path 5375" d="M276.9,183.542H14.7A14.737,14.737,0,0,1,0,168.843V14.7A14.737,14.737,0,0,1,14.7,0H276.9a14.742,14.742,0,0,1,14.7,14.7V168.843A14.742,14.742,0,0,1,276.9,183.542Z" fill="#dadada"/>
      <g id="Group_1549" data-name="Group 1549" transform="translate(28.199 100.019)">
        <path id="Path_5376" data-name="Path 5376" d="M42.379,125.88a1.753,1.753,0,0,1,1.748,1.748v10.107a1.723,1.723,0,0,1-1.748,1.748H37.238a1.723,1.723,0,0,1-1.748-1.748V127.628a1.753,1.753,0,0,1,1.748-1.748h5.141Zm0,11.855V127.628H37.238v10.107Z" transform="translate(-35.49 -125.88)" fill="#fff"/>
        <path id="Path_5377" data-name="Path 5377" d="M58.219,125.88a1.753,1.753,0,0,1,1.748,1.748v10.107a1.723,1.723,0,0,1-1.748,1.748H53.078a1.723,1.723,0,0,1-1.748-1.748V127.628a1.753,1.753,0,0,1,1.748-1.748h5.141Zm0,11.855V127.628H53.078v10.107Z" transform="translate(-38.744 -125.88)" fill="#fff"/>
        <path id="Path_5378" data-name="Path 5378" d="M74.059,125.88a1.753,1.753,0,0,1,1.748,1.748v10.107a1.723,1.723,0,0,1-1.748,1.748H68.918a1.723,1.723,0,0,1-1.748-1.748V127.628a1.753,1.753,0,0,1,1.748-1.748h5.141Zm0,11.855V127.628H68.918v10.107Z" transform="translate(-41.999 -125.88)" fill="#fff"/>
        <path id="Path_5379" data-name="Path 5379" d="M89.9,125.88a1.753,1.753,0,0,1,1.748,1.748v10.107a1.723,1.723,0,0,1-1.748,1.748H84.758a1.723,1.723,0,0,1-1.748-1.748V127.628a1.753,1.753,0,0,1,1.748-1.748H89.9Zm0,11.855V127.628H84.758v10.107Z" transform="translate(-45.253 -125.88)" fill="#fff"/>
        <path id="Path_5380" data-name="Path 5380" d="M121.579,125.88a1.753,1.753,0,0,1,1.748,1.748v10.107a1.723,1.723,0,0,1-1.748,1.748h-5.141a1.723,1.723,0,0,1-1.748-1.748V127.628a1.753,1.753,0,0,1,1.748-1.748h5.141Zm0,11.855V127.628h-5.141v10.107Z" transform="translate(-51.761 -125.88)" fill="#fff"/>
        <path id="Path_5381" data-name="Path 5381" d="M137.409,125.88a1.753,1.753,0,0,1,1.748,1.748v10.107a1.723,1.723,0,0,1-1.748,1.748h-5.141a1.723,1.723,0,0,1-1.748-1.748V127.628a1.753,1.753,0,0,1,1.748-1.748h5.141Zm0,11.855V127.628h-5.141v10.107Z" transform="translate(-55.013 -125.88)" fill="#fff"/>
        <path id="Path_5382" data-name="Path 5382" d="M153.249,125.88A1.753,1.753,0,0,1,155,127.628v10.107a1.723,1.723,0,0,1-1.748,1.748h-5.141a1.723,1.723,0,0,1-1.748-1.748V127.628a1.753,1.753,0,0,1,1.748-1.748h5.141Zm0,11.855V127.628h-5.141v10.107Z" transform="translate(-58.268 -125.88)" fill="#fff"/>
        <path id="Path_5383" data-name="Path 5383" d="M169.089,125.88a1.753,1.753,0,0,1,1.748,1.748v10.107a1.723,1.723,0,0,1-1.748,1.748h-5.141a1.723,1.723,0,0,1-1.748-1.748V127.628a1.753,1.753,0,0,1,1.748-1.748h5.141Zm0,11.855V127.628h-5.141v10.107Z" transform="translate(-61.522 -125.88)" fill="#fff"/>
        <path id="Path_5384" data-name="Path 5384" d="M200.769,125.88a1.753,1.753,0,0,1,1.748,1.748v10.107a1.723,1.723,0,0,1-1.748,1.748h-5.141a1.723,1.723,0,0,1-1.748-1.748V127.628a1.753,1.753,0,0,1,1.748-1.748h5.141Zm0,11.855V127.628h-5.141v10.107Z" transform="translate(-68.03 -125.88)" fill="#fff"/>
        <path id="Path_5385" data-name="Path 5385" d="M216.609,125.88a1.753,1.753,0,0,1,1.748,1.748v10.107a1.723,1.723,0,0,1-1.748,1.748h-5.141a1.723,1.723,0,0,1-1.748-1.748V127.628a1.753,1.753,0,0,1,1.748-1.748h5.141Zm0,11.855V127.628h-5.141v10.107Z" transform="translate(-71.285 -125.88)" fill="#fff"/>
        <path id="Path_5386" data-name="Path 5386" d="M232.449,125.88a1.753,1.753,0,0,1,1.748,1.748v10.107a1.723,1.723,0,0,1-1.748,1.748h-5.141a1.723,1.723,0,0,1-1.748-1.748V127.628a1.753,1.753,0,0,1,1.748-1.748h5.141Zm0,11.855V127.628h-5.141v10.107Z" transform="translate(-74.539 -125.88)" fill="#fff"/>
        <path id="Path_5387" data-name="Path 5387" d="M248.289,125.88a1.753,1.753,0,0,1,1.748,1.748v10.107a1.723,1.723,0,0,1-1.748,1.748h-5.141a1.723,1.723,0,0,1-1.748-1.748V127.628a1.753,1.753,0,0,1,1.748-1.748h5.141Zm0,11.855V127.628h-5.141v10.107Z" transform="translate(-77.793 -125.88)" fill="#fff"/>
        <path id="Path_5388" data-name="Path 5388" d="M279.969,125.88a1.753,1.753,0,0,1,1.748,1.748v10.107a1.723,1.723,0,0,1-1.748,1.748h-5.141a1.723,1.723,0,0,1-1.748-1.748V127.628a1.753,1.753,0,0,1,1.748-1.748h5.141Zm0,11.855V127.628h-5.141v10.107Z" transform="translate(-84.302 -125.88)" fill="#fff"/>
        <path id="Path_5389" data-name="Path 5389" d="M295.809,125.88a1.753,1.753,0,0,1,1.748,1.748v10.107a1.723,1.723,0,0,1-1.748,1.748h-5.141a1.723,1.723,0,0,1-1.748-1.748V127.628a1.753,1.753,0,0,1,1.748-1.748h5.141Zm0,11.855V127.628h-5.141v10.107Z" transform="translate(-87.556 -125.88)" fill="#fff"/>
        <path id="Path_5390" data-name="Path 5390" d="M311.649,125.88a1.753,1.753,0,0,1,1.748,1.748v10.107a1.723,1.723,0,0,1-1.748,1.748h-5.141a1.723,1.723,0,0,1-1.748-1.748V127.628a1.753,1.753,0,0,1,1.748-1.748h5.141Zm0,11.855V127.628h-5.141v10.107Z" transform="translate(-90.81 -125.88)" fill="#fff"/>
        <path id="Path_5391" data-name="Path 5391" d="M327.489,125.88a1.753,1.753,0,0,1,1.748,1.748v10.107a1.723,1.723,0,0,1-1.748,1.748h-5.141a1.723,1.723,0,0,1-1.748-1.748V127.628a1.753,1.753,0,0,1,1.748-1.748h5.141Zm0,11.855V127.628h-5.141v10.107Z" transform="translate(-94.065 -125.88)" fill="#fff"/>
      </g>
      <g id="Group_1550" data-name="Group 1550" transform="translate(28.27 120.725)">
        <path id="Path_5392" data-name="Path 5392" d="M35.58,156.008a7.135,7.135,0,0,1,.294-2.272,2.811,2.811,0,0,1,.866-1.327,2.219,2.219,0,0,1,1.438-.469,2.435,2.435,0,0,1,1.128.254,2.1,2.1,0,0,1,.795.747,4.053,4.053,0,0,1,.493,1.184,7.9,7.9,0,0,1,.183,1.883,7.378,7.378,0,0,1-.286,2.264,2.866,2.866,0,0,1-.858,1.335,2.226,2.226,0,0,1-1.446.469,2.192,2.192,0,0,1-1.812-.826A5.223,5.223,0,0,1,35.58,156.008Zm1.009,0a4.914,4.914,0,0,0,.461,2.606,1.316,1.316,0,0,0,2.272,0,7.622,7.622,0,0,0,0-5.22,1.364,1.364,0,0,0-1.144-.644,1.245,1.245,0,0,0-1.073.572A4.867,4.867,0,0,0,36.589,156.008Z" transform="translate(-35.58 -151.94)" fill="#fff"/>
        <path id="Path_5393" data-name="Path 5393" d="M43.37,156.008a7.135,7.135,0,0,1,.294-2.272,2.811,2.811,0,0,1,.866-1.327,2.219,2.219,0,0,1,1.438-.469,2.435,2.435,0,0,1,1.128.254,2.1,2.1,0,0,1,.795.747,4.053,4.053,0,0,1,.493,1.184,7.9,7.9,0,0,1,.183,1.883,7.378,7.378,0,0,1-.286,2.264,2.866,2.866,0,0,1-.858,1.335,2.226,2.226,0,0,1-1.446.469,2.192,2.192,0,0,1-1.812-.826A5.223,5.223,0,0,1,43.37,156.008Zm1,0a4.914,4.914,0,0,0,.461,2.606,1.37,1.37,0,0,0,1.136.652,1.351,1.351,0,0,0,1.136-.652,7.622,7.622,0,0,0,0-5.22,1.364,1.364,0,0,0-1.144-.644,1.245,1.245,0,0,0-1.073.572A4.867,4.867,0,0,0,44.371,156.008Z" transform="translate(-37.18 -151.94)" fill="#fff"/>
        <path id="Path_5394" data-name="Path 5394" d="M51.15,156.008a7.135,7.135,0,0,1,.294-2.272,2.811,2.811,0,0,1,.866-1.327,2.219,2.219,0,0,1,1.438-.469,2.435,2.435,0,0,1,1.128.254,2.1,2.1,0,0,1,.795.747,4.053,4.053,0,0,1,.493,1.184,7.9,7.9,0,0,1,.183,1.883,7.378,7.378,0,0,1-.286,2.264,2.866,2.866,0,0,1-.858,1.335,2.226,2.226,0,0,1-1.446.469,2.192,2.192,0,0,1-1.812-.826A5.223,5.223,0,0,1,51.15,156.008Zm1.009,0a4.914,4.914,0,0,0,.461,2.606,1.316,1.316,0,0,0,2.272,0,7.622,7.622,0,0,0,0-5.22,1.364,1.364,0,0,0-1.144-.644,1.236,1.236,0,0,0-1.073.572A4.867,4.867,0,0,0,52.159,156.008Z" transform="translate(-38.779 -151.94)" fill="#fff"/>
        <path id="Path_5395" data-name="Path 5395" d="M58.94,156.008a7.135,7.135,0,0,1,.294-2.272,2.811,2.811,0,0,1,.866-1.327,2.219,2.219,0,0,1,1.438-.469,2.435,2.435,0,0,1,1.128.254,2.1,2.1,0,0,1,.795.747,4.053,4.053,0,0,1,.493,1.184,7.9,7.9,0,0,1,.183,1.883,7.379,7.379,0,0,1-.286,2.264,2.866,2.866,0,0,1-.858,1.335,2.226,2.226,0,0,1-1.446.469,2.192,2.192,0,0,1-1.812-.826A5.223,5.223,0,0,1,58.94,156.008Zm1,0a4.914,4.914,0,0,0,.461,2.606,1.316,1.316,0,0,0,2.272,0,7.622,7.622,0,0,0,0-5.22,1.364,1.364,0,0,0-1.144-.644,1.245,1.245,0,0,0-1.073.572A4.94,4.94,0,0,0,59.941,156.008Z" transform="translate(-40.379 -151.94)" fill="#fff"/>
      </g>
      <g id="Group_1552" data-name="Group 1552" transform="translate(116.839 134.478)">
        <g id="Group_1551" data-name="Group 1551">
          <path id="Path_5396" data-name="Path 5396" d="M149.251,174.939l-2.2-5.689h.818l1.478,4.132c.119.334.215.644.3.93q.131-.465.31-.93l1.533-4.132h.771l-2.225,5.689Z" transform="translate(-147.05 -169.25)" fill="#fff"/>
          <path id="Path_5397" data-name="Path 5397" d="M152.91,174.939l2.185-5.689h.81l2.328,5.689h-.858l-.667-1.724h-2.376l-.628,1.724Zm1.645-2.336h1.931l-.6-1.573c-.183-.477-.318-.874-.405-1.176a6.755,6.755,0,0,1-.31,1.089Z" transform="translate(-148.254 -169.25)" fill="#fff"/>
          <path id="Path_5398" data-name="Path 5398" d="M160.33,174.939V169.25h.755v5.014h2.8v.667h-3.56Z" transform="translate(-149.778 -169.25)" fill="#fff"/>
          <path id="Path_5399" data-name="Path 5399" d="M166.09,174.939V169.25h.755v5.689Z" transform="translate(-150.962 -169.25)" fill="#fff"/>
          <path id="Path_5400" data-name="Path 5400" d="M168.71,174.939V169.25h1.963a4.625,4.625,0,0,1,1.009.079,1.953,1.953,0,0,1,.834.405,2.351,2.351,0,0,1,.675.969,3.763,3.763,0,0,1,.222,1.351,3.931,3.931,0,0,1-.151,1.152,2.756,2.756,0,0,1-.389.826,2.12,2.12,0,0,1-.516.516,2.088,2.088,0,0,1-.675.286,3.937,3.937,0,0,1-.914.1H168.71Zm.755-.675h1.216a2.907,2.907,0,0,0,.882-.1,1.264,1.264,0,0,0,.509-.294,1.768,1.768,0,0,0,.413-.723,3.415,3.415,0,0,0,.151-1.1,2.638,2.638,0,0,0-.294-1.375,1.49,1.49,0,0,0-.715-.644,2.868,2.868,0,0,0-.977-.119h-1.192v4.354Z" transform="translate(-151.5 -169.25)" fill="#fff"/>
          <path id="Path_5401" data-name="Path 5401" d="M149.105,186.941v-5.014H147.23v-.667h4.505v.667h-1.883v5.014Z" transform="translate(-147.087 -171.717)" fill="#fff"/>
          <path id="Path_5402" data-name="Path 5402" d="M153.91,186.939V181.25h.755v2.336h2.956V181.25h.755v5.689h-.755v-2.678h-2.956v2.678Z" transform="translate(-148.459 -171.715)" fill="#fff"/>
          <path id="Path_5403" data-name="Path 5403" d="M161.12,186.939V181.25h2.519a3.381,3.381,0,0,1,1.16.151,1.309,1.309,0,0,1,.636.54,1.625,1.625,0,0,1,.238.858,1.4,1.4,0,0,1-.389,1.017,1.963,1.963,0,0,1-1.208.524,1.864,1.864,0,0,1,.453.286,3.815,3.815,0,0,1,.628.755l.993,1.549H165.2l-.755-1.184c-.222-.342-.4-.6-.54-.787a1.7,1.7,0,0,0-.381-.381,1.285,1.285,0,0,0-.342-.151,2.578,2.578,0,0,0-.421-.024h-.874v2.527h-.771Zm.747-3.178h1.621a2.479,2.479,0,0,0,.81-.1.879.879,0,0,0,.445-.342.906.906,0,0,0,.151-.509.846.846,0,0,0-.294-.667,1.358,1.358,0,0,0-.922-.262h-1.8v1.883Z" transform="translate(-149.941 -171.715)" fill="#fff"/>
          <path id="Path_5404" data-name="Path 5404" d="M172.061,181.25h.755v3.289a3.92,3.92,0,0,1-.191,1.359,1.656,1.656,0,0,1-.7.818,2.5,2.5,0,0,1-1.327.318,2.764,2.764,0,0,1-1.311-.278,1.563,1.563,0,0,1-.723-.795,3.853,3.853,0,0,1-.215-1.422V181.25h.755v3.282a3.383,3.383,0,0,0,.135,1.1,1.052,1.052,0,0,0,.477.54,1.64,1.64,0,0,0,.818.191,1.589,1.589,0,0,0,1.184-.373,2.14,2.14,0,0,0,.35-1.446V181.25Z" transform="translate(-151.426 -171.715)" fill="#fff"/>
        </g>
        <path id="Path_5405" data-name="Path 5405" d="M181,182.839l8.359-4.179L181,174.48Z" transform="translate(-154.025 -170.324)" fill="#fff"/>
      </g>
      <g id="Group_1553" data-name="Group 1553" transform="translate(159.801 127.264)">
        <path id="Path_5406" data-name="Path 5406" d="M201.12,164.823V160.27h.906l1.081,3.218c.1.3.175.524.215.675.048-.167.135-.405.238-.731l1.089-3.162h.81v4.553h-.58v-3.806l-1.319,3.806h-.54l-1.319-3.877v3.877Z" transform="translate(-201.12 -160.191)" fill="#fff"/>
        <path id="Path_5407" data-name="Path 5407" d="M207.58,162.585a2.44,2.44,0,0,1,.612-1.772,2.066,2.066,0,0,1,1.573-.644,2.208,2.208,0,0,1,1.136.3,1.933,1.933,0,0,1,.771.842,2.943,2.943,0,0,1-.016,2.463,1.861,1.861,0,0,1-.795.826,2.215,2.215,0,0,1-1.1.278,2.176,2.176,0,0,1-1.152-.31,1.975,1.975,0,0,1-.763-.85A2.562,2.562,0,0,1,207.58,162.585Zm.62.008a1.83,1.83,0,0,0,.445,1.3,1.545,1.545,0,0,0,2.233,0,1.927,1.927,0,0,0,.437-1.359,2.294,2.294,0,0,0-.191-.969,1.456,1.456,0,0,0-.548-.644,1.486,1.486,0,0,0-.81-.23,1.511,1.511,0,0,0-1.1.437A1.944,1.944,0,0,0,208.2,162.593Z" transform="translate(-202.447 -160.17)" fill="#fff"/>
        <path id="Path_5408" data-name="Path 5408" d="M214.02,164.823V160.27h.62l2.392,3.576V160.27h.58v4.553h-.62l-2.392-3.576v3.576Z" transform="translate(-203.77 -160.191)" fill="#fff"/>
        <path id="Path_5409" data-name="Path 5409" d="M220.872,164.823V160.81h-1.5v-.54h3.607v.54h-1.5v4.013Z" transform="translate(-204.869 -160.191)" fill="#fff"/>
        <path id="Path_5410" data-name="Path 5410" d="M224.72,164.823V160.27h.6v1.867h2.368V160.27h.6v4.553h-.6v-2.145h-2.368v2.145Z" transform="translate(-205.969 -160.191)" fill="#fff"/>
        <path id="Path_5411" data-name="Path 5411" d="M229.85,164.884l1.319-4.7h.445l-1.319,4.7Z" transform="translate(-207.022 -160.172)" fill="#fff"/>
        <path id="Path_5412" data-name="Path 5412" d="M233.856,164.823v-1.931L232.1,160.27h.731l.9,1.375c.167.254.318.516.461.771.135-.238.3-.509.493-.8l.882-1.335h.7l-1.82,2.622v1.923Z" transform="translate(-207.485 -160.191)" fill="#fff"/>
        <path id="Path_5413" data-name="Path 5413" d="M238.04,164.823V160.27h3.289v.54h-2.686v1.39h2.519v.532h-2.519v1.549h2.8v.54Z" transform="translate(-208.705 -160.191)" fill="#fff"/>
        <path id="Path_5414" data-name="Path 5414" d="M242.74,164.823l1.748-4.553h.652L247,164.823h-.683l-.532-1.375h-1.9l-.5,1.375Zm1.311-1.867h1.541l-.477-1.263c-.143-.381-.254-.7-.326-.946a5.634,5.634,0,0,1-.246.866Z" transform="translate(-209.671 -160.191)" fill="#fff"/>
        <path id="Path_5415" data-name="Path 5415" d="M248.71,164.823V160.27h2.018a2.719,2.719,0,0,1,.922.119.969.969,0,0,1,.509.437,1.285,1.285,0,0,1,.191.683,1.154,1.154,0,0,1-.31.818,1.551,1.551,0,0,1-.969.421,1.622,1.622,0,0,1,.365.23,3.263,3.263,0,0,1,.5.6l.795,1.24h-.755l-.6-.946a7.1,7.1,0,0,0-.437-.628,1.335,1.335,0,0,0-.3-.3.949.949,0,0,0-.278-.119,1.685,1.685,0,0,0-.334-.024h-.7v2.018Zm.6-2.543h1.3a1.925,1.925,0,0,0,.644-.087.73.73,0,0,0,.358-.27.752.752,0,0,0,.119-.405.7.7,0,0,0-.23-.532,1.124,1.124,0,0,0-.739-.207h-1.438v1.5Z" transform="translate(-210.897 -160.191)" fill="#fff"/>
      </g>
      <g id="Group_1554" data-name="Group 1554" transform="translate(160.333 136.218)">
        <path id="Path_5416" data-name="Path 5416" d="M208.051,171.44a1.594,1.594,0,0,1,1.589,1.589v9.185a1.564,1.564,0,0,1-1.589,1.589h-4.672a1.564,1.564,0,0,1-1.589-1.589v-9.185a1.594,1.594,0,0,1,1.589-1.589Zm0,10.774v-9.185h-4.672v9.185Z" transform="translate(-201.79 -171.44)" fill="#fff"/>
        <path id="Path_5417" data-name="Path 5417" d="M222.451,171.44a1.594,1.594,0,0,1,1.589,1.589v9.185a1.564,1.564,0,0,1-1.589,1.589h-4.672a1.564,1.564,0,0,1-1.589-1.589v-9.185a1.594,1.594,0,0,1,1.589-1.589Zm0,10.774v-9.185h-4.672v9.185Z" transform="translate(-204.748 -171.44)" fill="#fff"/>
        <path id="Path_5418" data-name="Path 5418" d="M232.163,183.247c-.191.334-.381.556-.779.556a.8.8,0,0,1-.795-.747,1.658,1.658,0,0,1,.35-.826l5.943-10.186c.191-.318.381-.6.779-.6a.774.774,0,0,1,.779.747,1.237,1.237,0,0,1-.175.62Z" transform="translate(-207.707 -171.44)" fill="#fff"/>
        <path id="Path_5419" data-name="Path 5419" d="M251.251,171.44a1.594,1.594,0,0,1,1.589,1.589v9.185a1.564,1.564,0,0,1-1.589,1.589h-4.672a1.564,1.564,0,0,1-1.589-1.589v-9.185a1.594,1.594,0,0,1,1.589-1.589Zm0,10.774v-9.185h-4.672v9.185Z" transform="translate(-210.665 -171.44)" fill="#fff"/>
        <path id="Path_5420" data-name="Path 5420" d="M265.651,171.44a1.594,1.594,0,0,1,1.589,1.589v9.185a1.564,1.564,0,0,1-1.589,1.589h-4.672a1.564,1.564,0,0,1-1.589-1.589v-9.185a1.594,1.594,0,0,1,1.589-1.589Zm0,10.774v-9.185h-4.672v9.185Z" transform="translate(-213.624 -171.44)" fill="#fff"/>
      </g>
      <g id="Group_1555" data-name="Group 1555" transform="translate(27.015 48.635)">
        <path id="Path_5421" data-name="Path 5421" d="M70.947,98.554h-28.6A8.367,8.367,0,0,1,34,90.211V69.553a8.362,8.362,0,0,1,8.343-8.343h28.6a8.367,8.367,0,0,1,8.343,8.343V90.211A8.372,8.372,0,0,1,70.947,98.554Z" transform="translate(-34 -61.21)" fill="#fff"/>
      </g>
    </g>
  </g>
</svg>
