<svg xmlns="http://www.w3.org/2000/svg" width="14.5" height="13" viewBox="0 0 14.5 13">
  <g id="Grupo_21" data-name="Grupo 21" transform="translate(-1066 -126)">
    <rect id="Rectángulo_23" data-name="Rectángulo 23" width="3" height="3" transform="translate(1066 126)" fill="#414141"/>
    <rect id="Rectángulo_24" data-name="Rectángulo 24" width="3" height="3" transform="translate(1066 131)" fill="#414141"/>
    <rect id="Rectángulo_25" data-name="Rectángulo 25" width="3" height="3" transform="translate(1066 136)" fill="#414141"/>
    <line id="Línea_1" data-name="Línea 1" x2="10" transform="translate(1070.5 127.5)" fill="none" stroke="#414141" stroke-width="1"/>
    <line id="Línea_2" data-name="Línea 2" x2="10" transform="translate(1070.5 132.5)" fill="none" stroke="#414141" stroke-width="1"/>
    <line id="Línea_3" data-name="Línea 3" x2="10" transform="translate(1070.5 137.5)" fill="none" stroke="#414141" stroke-width="1"/>
  </g>
</svg>
