<svg xmlns="http://www.w3.org/2000/svg" xmlns:xlink="http://www.w3.org/1999/xlink" width="82" height="82" viewBox="0 0 82 82">
  <defs>
    <filter id="Elipse_5" x="0" y="0" width="82" height="82" filterUnits="userSpaceOnUse">
      <feOffset dy="5" input="SourceAlpha"/>
      <feGaussianBlur stdDeviation="5" result="blur"/>
      <feFlood flood-opacity="0.102"/>
      <feComposite operator="in" in2="blur"/>
      <feComposite in="SourceGraphic"/>
    </filter>
  </defs>
  <g id="Grupo_2019" data-name="Grupo 2019" transform="translate(15 10)">
    <g transform="matrix(1, 0, 0, 1, -15, -10)" filter="url(#Elipse_5)">
      <circle id="Elipse_5-2" data-name="Elipse 5" cx="26" cy="26" r="26" transform="translate(15 10)" fill="#fff"/>
    </g>
    <path id="Trazado_7073" data-name="Trazado 7073" d="M8251.973,461.726l16.957,12.2-16.957,12.2Z" transform="translate(-8230.973 -447.726)" fill="#583bf4"/>
  </g>
</svg>
