<svg xmlns="http://www.w3.org/2000/svg" width="16.083" height="16.083" viewBox="0 0 16.083 16.083">
  <g id="earth-grid-select-language-button" transform="translate(0.2 0.2)">
    <g id="language">
      <path id="Trazado_7077" data-name="Trazado 7077" d="M7.841,0a7.841,7.841,0,1,0,7.841,7.841A7.864,7.864,0,0,0,7.841,0Zm5.411,4.7H10.978a12.393,12.393,0,0,0-1.1-2.823A6.312,6.312,0,0,1,13.252,4.7ZM7.841,1.568A10.529,10.529,0,0,1,9.331,4.7H6.352A11.529,11.529,0,0,1,7.841,1.568ZM1.8,9.41a5.056,5.056,0,0,1-.235-1.568A5.056,5.056,0,0,1,1.8,6.273H4.47a10.509,10.509,0,0,0-.078,1.568c0,.549.078,1.019.078,1.568Zm.627,1.568H4.7A12.393,12.393,0,0,0,5.8,13.8,6.312,6.312,0,0,1,2.431,10.978ZM4.7,4.7H2.431A6.609,6.609,0,0,1,5.8,1.882,12.393,12.393,0,0,0,4.7,4.7Zm3.137,9.41a10.529,10.529,0,0,1-1.49-3.137h2.98A11.529,11.529,0,0,1,7.841,14.115Zm1.8-4.7H6.038a10.627,10.627,0,0,1-.157-1.568,10.627,10.627,0,0,1,.157-1.568H9.723A10.627,10.627,0,0,1,9.88,7.841,10.824,10.824,0,0,1,9.645,9.41ZM9.88,13.8a11.125,11.125,0,0,0,1.1-2.823h2.274A6.312,6.312,0,0,1,9.88,13.8ZM11.292,9.41a10.509,10.509,0,0,0,.078-1.568c0-.549-.078-1.019-.078-1.568h2.666a5.056,5.056,0,0,1,.235,1.568,5.057,5.057,0,0,1-.235,1.568Z" fill="#583bf4" stroke="#f7f7f7" stroke-width="0.4"/>
    </g>
  </g>
</svg>
