<svg xmlns="http://www.w3.org/2000/svg" xmlns:xlink="http://www.w3.org/1999/xlink" width="14" height="16" viewBox="0 0 14 16">
  <defs>
    <clipPath id="clip-actividades">
      <rect width="14" height="16"/>
    </clipPath>
  </defs>
  <g id="actividades" clip-path="url(#clip-actividades)">
    <rect width="14" height="16" fill="#fff"/>
    <g id="Grupo_88" data-name="Grupo 88" transform="translate(-177.946 -495.266)">
      <path id="Trazado_171" data-name="Trazado 171" d="M187.522,509.419a2.158,2.158,0,0,1-1.006-.25l-1.54-.81-1.54.81a2.159,2.159,0,0,1-3.133-2.276l.294-1.715-1.246-1.215a2.159,2.159,0,0,1,1.2-3.682l1.722-.251.77-1.56a2.159,2.159,0,0,1,3.872,0l.77,1.561,1.723.25a2.159,2.159,0,0,1,1.2,3.682l-1.247,1.215.295,1.715a2.163,2.163,0,0,1-2.127,2.526Zm-2.547-1.983a.847.847,0,0,1,.393.1l1.573.827a1.245,1.245,0,0,0,1.807-1.313l-.3-1.751a.842.842,0,0,1,.242-.746l1.273-1.241a1.245,1.245,0,0,0-.69-2.124l-1.759-.256a.844.844,0,0,1-.635-.46l-.787-1.595a1.245,1.245,0,0,0-2.233,0l-.787,1.594a.845.845,0,0,1-.635.461l-1.759.256a1.245,1.245,0,0,0-.69,2.124l1.273,1.241a.844.844,0,0,1,.242.747l-.3,1.751a1.245,1.245,0,0,0,1.807,1.313l1.573-.827A.844.844,0,0,1,184.975,507.436Z" fill="#333"/>
    </g>
  </g>
</svg>
