<svg xmlns="http://www.w3.org/2000/svg" xmlns:xlink="http://www.w3.org/1999/xlink" width="14" height="16" viewBox="0 0 14 16">
  <defs>
    <clipPath id="clip-arte">
      <rect width="14" height="16"/>
    </clipPath>
  </defs>
  <g id="arte" clip-path="url(#clip-arte)">
    <rect width="14" height="16" fill="#fff"/>
    <g id="Grupo_55" data-name="Grupo 55" transform="translate(-490.266 -206.021)">
      <path id="Trazado_147" data-name="Trazado 147" d="M503.718,208.505a.886.886,0,0,0-.781-.484,1,1,0,0,0-.472.124l-.1.052a5.022,5.022,0,0,0-.864.532c-.962.781-2.448,2.038-3.534,2.955l-.587.5c-.289.244-.781.715-1.216,1.131-.264.253-.513.492-.679.643l-.208.191a1.061,1.061,0,0,0-.176.02A2.548,2.548,0,0,0,493,216.156q-.041.167-.08.335c-.062.262-.127.532-.2.792a2.111,2.111,0,0,1-.577.313l-.875.338.731.588a3.17,3.17,0,0,0,1.727.735,5.271,5.271,0,0,0,.587.034,3.244,3.244,0,0,0,3.32-2.546,1.121,1.121,0,0,0,.041-.247l.194-.245.166-.17c.385-.395.451-.463.477-.494q.449-.524.9-1.046c.7-.806,1.416-1.64,2.108-2.476.124-.149.287-.333.476-.547a10.563,10.563,0,0,0,1.751-2.355l.04-.1v-.438Zm-6.606,8.092a2.7,2.7,0,0,1-2.8,2.153,4.785,4.785,0,0,1-.527-.031,2.612,2.612,0,0,1-1.448-.619c.089-.034.8-.316.89-.623.11-.395.2-.8.3-1.193a2,2,0,0,1,1.687-1.588.5.5,0,0,1,.1-.011c.11,0,.164.057.275.177.276.294.591.571.9.849l.6.578.01.009A.356.356,0,0,1,497.111,216.6Zm.353-.705c-.021-.025-.043-.05-.067-.074-.174-.171-.358-.336-.539-.5l-1.005-.966c.165-.151.406-.381.665-.629l1.583,1.511h0C498.065,215.277,497.516,215.837,497.464,215.892Zm5.781-6.932a15.621,15.621,0,0,1-2.142,2.762c-.868,1.047-1.762,2.073-2.649,3.1l-1.545-1.475c.317-.3.623-.589.822-.757,1.122-.948,2.972-2.519,4.113-3.446a5.263,5.263,0,0,1,.874-.526.475.475,0,0,1,.219-.061.35.35,0,0,1,.309.207Z" fill="#333"/>
      <path id="Trazado_148" data-name="Trazado 148" d="M499.17,231.668l.076.535a3.153,3.153,0,0,0,2.105-1.878l-.5-.206C500.846,230.134,500.266,231.511,499.17,231.668Z" transform="translate(-4.979 -13.919)" fill="#333"/>
    </g>
  </g>
</svg>
