<svg xmlns="http://www.w3.org/2000/svg" xmlns:xlink="http://www.w3.org/1999/xlink" width="14" height="16" viewBox="0 0 14 16">
  <defs>
    <clipPath id="clip-disponibilidad">
      <rect width="14" height="16"/>
    </clipPath>
  </defs>
  <g id="disponibilidad" clip-path="url(#clip-disponibilidad)">
    <rect width="14" height="16" fill="#fff"/>
    <g id="Grupo_94" data-name="Grupo 94" transform="translate(-66.057 -495)">
      <g id="Grupo_30" data-name="Grupo 30" transform="translate(70.909 502.675)">
        <circle id="Elipse_18" data-name="Elipse 18" cx="0.15" cy="0.15" r="0.15" transform="translate(0.241 0.241)" fill="#333"/>
        <path id="Trazado_98" data-name="Trazado 98" d="M735.983,514.184a.391.391,0,1,1,.391-.391A.391.391,0,0,1,735.983,514.184Zm0-.482a.091.091,0,1,0,.091.091A.091.091,0,0,0,735.983,513.7Z" transform="translate(-735.592 -513.402)" fill="#333"/>
      </g>
      <g id="Grupo_31" data-name="Grupo 31" transform="translate(72.853 502.675)">
        <circle id="Elipse_19" data-name="Elipse 19" cx="0.15" cy="0.15" r="0.15" transform="translate(0.241 0.241)" fill="#333"/>
        <path id="Trazado_99" data-name="Trazado 99" d="M744.045,514.184a.391.391,0,1,1,.391-.391A.392.392,0,0,1,744.045,514.184Zm0-.482a.091.091,0,1,0,.091.091A.091.091,0,0,0,744.045,513.7Z" transform="translate(-743.654 -513.402)" fill="#333"/>
      </g>
      <g id="Grupo_32" data-name="Grupo 32" transform="translate(74.796 502.675)">
        <circle id="Elipse_20" data-name="Elipse 20" cx="0.15" cy="0.15" r="0.15" transform="translate(0.241 0.241)" fill="#333"/>
        <path id="Trazado_100" data-name="Trazado 100" d="M752.109,514.184a.391.391,0,1,1,.391-.391A.391.391,0,0,1,752.109,514.184Zm0-.482a.091.091,0,1,0,.091.091A.091.091,0,0,0,752.109,513.7Z" transform="translate(-751.718 -513.402)" fill="#333"/>
      </g>
      <g id="Grupo_33" data-name="Grupo 33" transform="translate(70.909 504.2)">
        <circle id="Elipse_21" data-name="Elipse 21" cx="0.15" cy="0.15" r="0.15" transform="translate(0.241 0.241)" fill="#333"/>
        <path id="Trazado_101" data-name="Trazado 101" d="M735.983,520.51a.391.391,0,1,1,.391-.391A.391.391,0,0,1,735.983,520.51Zm0-.482a.091.091,0,1,0,.091.091A.091.091,0,0,0,735.983,520.028Z" transform="translate(-735.592 -519.728)" fill="#333"/>
      </g>
      <g id="Grupo_34" data-name="Grupo 34" transform="translate(72.853 504.2)">
        <circle id="Elipse_22" data-name="Elipse 22" cx="0.15" cy="0.15" r="0.15" transform="translate(0.241 0.241)" fill="#333"/>
        <path id="Trazado_102" data-name="Trazado 102" d="M744.045,520.51a.391.391,0,1,1,.391-.391A.392.392,0,0,1,744.045,520.51Zm0-.482a.091.091,0,1,0,.091.091A.091.091,0,0,0,744.045,520.028Z" transform="translate(-743.654 -519.728)" fill="#333"/>
      </g>
      <g id="Grupo_35" data-name="Grupo 35" transform="translate(74.796 504.2)">
        <circle id="Elipse_23" data-name="Elipse 23" cx="0.15" cy="0.15" r="0.15" transform="translate(0.241 0.241)" fill="#333"/>
        <path id="Trazado_103" data-name="Trazado 103" d="M752.109,520.51a.391.391,0,1,1,.391-.391A.391.391,0,0,1,752.109,520.51Zm0-.482a.091.091,0,1,0,.091.091A.091.091,0,0,0,752.109,520.028Z" transform="translate(-751.718 -519.728)" fill="#333"/>
      </g>
      <path id="Trazado_104" data-name="Trazado 104" d="M737.028,506.268h-7.681V500.15a.882.882,0,0,1,.881-.882h5.918a.883.883,0,0,1,.882.882Zm-7.2-.482h6.716V500.15a.4.4,0,0,0-.4-.4h-5.918a.4.4,0,0,0-.4.4Z" transform="translate(-659.943)" fill="#333"/>
      <rect id="Rectángulo_12" data-name="Rectángulo 12" width="7.198" height="0.482" transform="translate(69.645 501.359)" fill="#333"/>
      <path id="Trazado_105" data-name="Trazado 105" d="M737.028,512.85h-7.681v-4.909h7.606l1.439,3.817-1.364.368Zm-7.2-.482h6.716v-.611l1.208-.325-1.134-3.008h-6.791Z" transform="translate(-659.943 -6.582)" fill="#333"/>
    </g>
  </g>
</svg>
