<svg xmlns="http://www.w3.org/2000/svg" xmlns:xlink="http://www.w3.org/1999/xlink" width="14" height="16" viewBox="0 0 14 16">
  <defs>
    <clipPath id="clip-facilidades">
      <rect width="14" height="16"/>
    </clipPath>
  </defs>
  <g id="facilidades" clip-path="url(#clip-facilidades)">
    <rect width="14" height="16" fill="#fff"/>
    <path id="Trazado_206" data-name="Trazado 206" d="M838.49,220.873a.763.763,0,0,1-.75-.891l.518-3.019-2.2-2.162a.763.763,0,0,1,.422-1.3l3.032-.44,1.376-2.762a.761.761,0,0,1,1.366,0l1.356,2.747,3.052.455a.762.762,0,0,1,.422,1.3l-2.194,2.138.51,3.043a.762.762,0,0,1-1.106.8l-2.712-1.426-2.736,1.426A.765.765,0,0,1,838.49,220.873Zm3.079-2.268a.774.774,0,0,1,.362.089l2.712,1.426-.5-3.031a.777.777,0,0,1,.223-.688l2.194-2.139-3.038-.459a.777.777,0,0,1-.585-.425l-1.356-2.747,0,0-1.373,2.752a.776.776,0,0,1-.586.425l-3.031.441,2.188,2.157a.778.778,0,0,1,.223.689l-.517,3.019,2.727-1.414A.783.783,0,0,1,841.569,218.6Z" transform="translate(-834.825 -206.873)" fill="#333"/>
  </g>
</svg>
