<svg xmlns="http://www.w3.org/2000/svg" width="17.878" height="11.918" viewBox="0 0 17.878 11.918">
  <g id="filter-results-button_3_" data-name="filter-results-button (3)" transform="translate(0 -76.5)">
    <g id="filter" transform="translate(0 76.5)">
      <path id="Trazado_10" data-name="Trazado 10" d="M6.952,88.418h3.973V86.432H6.952ZM0,76.5v1.986H17.878V76.5Zm2.98,6.952H14.9V81.466H2.98Z" transform="translate(0 -76.5)" fill="#ffac00"/>
    </g>
  </g>
</svg>
