<svg xmlns="http://www.w3.org/2000/svg" xmlns:xlink="http://www.w3.org/1999/xlink" width="14" height="16" viewBox="0 0 14 16">
  <defs>
    <clipPath id="clip-nivel">
      <rect width="14" height="16"/>
    </clipPath>
  </defs>
  <g id="nivel" clip-path="url(#clip-nivel)">
    <rect width="14" height="16" fill="#fff"/>
    <g id="Grupo_90" data-name="Grupo 90" transform="translate(-381.363 -483)">
      <g id="Grupo_40" data-name="Grupo 40" transform="translate(384.363 483.574)">
        <path id="Trazado_123" data-name="Trazado 123" d="M386.586,494.984l.75-3.808.746.392.633,1.76a.754.754,0,0,0,.708.5.752.752,0,0,0,.708-1.007l-.732-2.038a.75.75,0,0,0-.362-.414l-1.292-.669.18-1.214.184.235a.655.655,0,0,0,.484.251l1.675.084a.657.657,0,0,0,.065-1.311l-1.376-.069-1.108-1.415a.62.62,0,0,0-.057-.062,1.3,1.3,0,1,0-.318-.173.652.652,0,0,0-.336.011l-1.912.323-.027.007a.655.655,0,0,0-.44.517L384.5,488.5a.657.657,0,0,0,.542.754.68.68,0,0,0,.106.009.654.654,0,0,0,.647-.551l.188-1.15.262.049-.344,2.309c0,.027-.006.053-.008.079l-.681,4.656a.748.748,0,0,0,.5.793A.648.648,0,0,0,386.586,494.984Zm.722-9.994a.935.935,0,1,1,.935.935A.936.936,0,0,1,387.308,484.99Zm-1.44,2.187a.179.179,0,0,0-.208.146l-.216,1.33a.3.3,0,1,1-.593-.1l.263-1.615a.3.3,0,0,1,.19-.233l1.291-.218a4.983,4.983,0,0,0-.279.77Zm-.074,7.865c-.324-.081-.243-.486-.243-.486s.617-3.922.649-3.891a1.261,1.261,0,0,0,.77.328l-.67,3.618C386.237,494.99,386.118,495.124,385.793,495.042Zm3.079-4.358a.4.4,0,0,1,.191.218l.732,2.038a.4.4,0,1,1-.746.268l-.656-1.826a.179.179,0,0,0-.086-.1l-1.268-.656a.175.175,0,0,0-.073-.019h0a1.015,1.015,0,0,1-.63-.262.421.421,0,0,1-.092-.281s0-.007,0-.01a.54.54,0,0,1,.005-.084l.055-.367,1.067.166v0a.178.178,0,0,0,.094.184Zm1.413-1.984-1.675-.084a.3.3,0,0,1-.221-.115l-.439-.561a.178.178,0,0,0-.316.084l-.207,1.394-1.067-.166.26-1.752a3.779,3.779,0,0,1,.429-1.086l.163-.027.027-.007a.3.3,0,0,1,.331.1l1.157,1.479a.178.178,0,0,0,.131.068l1.457.073a.3.3,0,0,1-.03.6Z" transform="translate(-384.454 -483.664)" fill="#333"/>
        <path id="Trazado_124" data-name="Trazado 124" d="M385.889,495.434a1,1,0,0,1-.276-.043.787.787,0,0,1-.527-.83l.681-4.658c0-.024,0-.052.008-.079l.339-2.276-.194-.036-.182,1.115a.689.689,0,0,1-.682.581.64.64,0,0,1-.112-.01.692.692,0,0,1-.571-.794l.264-1.615a.69.69,0,0,1,.463-.545l.032-.008,1.913-.323a.646.646,0,0,1,.224-.028,1.312,1.312,0,0,1-.441-.985,1.326,1.326,0,1,1,1.326,1.325,1.308,1.308,0,0,1-.34-.045l1.073,1.371,1.359.068a.692.692,0,1,1-.069,1.381l-1.675-.084a.693.693,0,0,1-.51-.265l-.133-.171-.165,1.108,1.27.657a.785.785,0,0,1,.379.433l.733,2.038a.787.787,0,1,1-1.482.532l-.628-1.747-.693-.364-.742,3.767A.675.675,0,0,1,385.889,495.434Zm-.027-8,.331.062-.349,2.343c0,.026-.006.052-.008.076l-.681,4.66a.705.705,0,0,0,.477.754.612.612,0,0,0,.83-.44l.759-3.851.8.42,0,.013.633,1.76a.718.718,0,0,0,1.351-.485l-.733-2.038a.715.715,0,0,0-.345-.394l-1.314-.68,0-.025.193-1.294.234.3a.62.62,0,0,0,.458.238l1.676.084a.621.621,0,0,0,.062-1.241l-1.392-.069-1.117-1.428a.53.53,0,0,0-.054-.058l-.12-.116.156.058a1.26,1.26,0,1,0-.309-.168l.133.1-.161-.036a.618.618,0,0,0-.318.011l-1.917.324-.021.006a.62.62,0,0,0-.417.49l-.263,1.615a.622.622,0,0,0,.514.714.588.588,0,0,0,.1.008.619.619,0,0,0,.613-.522Zm0,7.581a.707.707,0,0,1-.17-.024.427.427,0,0,1-.269-.527,29.99,29.99,0,0,1,.672-3.917l.02-.007.016.015a1.214,1.214,0,0,0,.752.318l.034.006-.006.034-.67,3.617c-.039.238-.1.368-.2.434A.315.315,0,0,1,385.865,495.01Zm.261-4.37c-.075.35-.41,2.425-.631,3.831,0,.017-.071.375.217.447h0a.363.363,0,0,0,.293-.015c.082-.054.134-.173.169-.388l.664-3.584A1.343,1.343,0,0,1,386.126,490.641Zm3.207,2.774a.432.432,0,0,1-.406-.286l-.656-1.826a.145.145,0,0,0-.069-.079l-1.268-.656a.138.138,0,0,0-.059-.015l-.033,0a1,1,0,0,1-.622-.272.452.452,0,0,1-.1-.3v-.012a.531.531,0,0,1,.006-.088l.059-.4,1.135.176,0,.034a.145.145,0,0,0,.076.152l1.4.727a.429.429,0,0,1,.207.238l.733,2.038a.432.432,0,0,1-.406.577Zm-2.421-2.927a.2.2,0,0,1,.054.019l1.269.656a.217.217,0,0,1,.1.117l.656,1.826a.362.362,0,0,0,.34.239.367.367,0,0,0,.122-.021.362.362,0,0,0,.218-.462l-.733-2.038a.359.359,0,0,0-.174-.2l-1.405-.727a.213.213,0,0,1-.115-.188l-1-.155-.049.332a.472.472,0,0,0,0,.079v.012a.38.38,0,0,0,.084.257.976.976,0,0,0,.6.249Zm.454-1.12-1.136-.176.005-.034.261-1.752a3.743,3.743,0,0,1,.436-1.1l.008-.011.176-.029.022-.006a.335.335,0,0,1,.371.111l1.157,1.479a.141.141,0,0,0,.105.055l1.457.073a.336.336,0,0,1,.318.352.331.331,0,0,1-.351.319h0l-1.675-.084a.339.339,0,0,1-.248-.128l-.439-.561a.143.143,0,0,0-.254.067Zm-1.057-.235,1,.155.2-1.36a.213.213,0,0,1,.379-.1l.439.561a.268.268,0,0,0,.2.1l1.675.084h.012a.266.266,0,0,0,.015-.531l-1.456-.073a.212.212,0,0,1-.157-.081l-1.157-1.479a.266.266,0,0,0-.293-.088l-.033.008-.149.025a3.874,3.874,0,0,0-.415,1.062Zm-1.25-.282a.345.345,0,0,1-.276-.14.336.336,0,0,1-.059-.25l.264-1.615a.336.336,0,0,1,.212-.26l1.365-.231-.03.061a4.953,4.953,0,0,0-.277.764l-.008.031-.479-.089a.144.144,0,0,0-.168.118l-.216,1.33a.334.334,0,0,1-.136.22A.325.325,0,0,1,385.059,488.851Zm1.385-2.4-1.226.207a.268.268,0,0,0-.161.2l-.263,1.615a.266.266,0,1,0,.525.085l.217-1.33a.212.212,0,0,1,.088-.14.216.216,0,0,1,.162-.035l.416.077A5.119,5.119,0,0,1,386.443,486.446Zm1.709-.577a.97.97,0,1,1,.97-.969A.97.97,0,0,1,388.152,485.869Zm0-1.869a.9.9,0,1,0,.9.9A.9.9,0,0,0,388.152,484Z" transform="translate(-384.363 -483.574)" fill="#333"/>
      </g>
      <path id="Trazado_157" data-name="Trazado 157" d="M388.929,519.744a.2.2,0,0,1-.2-.2v-2.026h2.513v-1.864h2.512v-1.864h2.715a.2.2,0,1,1,0,.405h-2.31v1.864h-2.512v1.864h-2.513v1.621A.2.2,0,0,1,388.929,519.744Z" transform="translate(-3.141 -21.752)" fill="#333"/>
    </g>
  </g>
</svg>
