<svg xmlns="http://www.w3.org/2000/svg" width="40.977" height="27.317" viewBox="0 0 40.977 27.317">
  <g id="credit-card_1_" data-name="credit-card (1)" transform="translate(0 -85.333)">
    <g id="Grupo_1913" data-name="Grupo 1913" transform="translate(0 85.333)">
      <g id="Grupo_1912" data-name="Grupo 1912" transform="translate(0 0)">
        <path id="Trazado_5686" data-name="Trazado 5686" d="M36.708,85.333H4.268A4.274,4.274,0,0,0,0,89.6v18.781a4.274,4.274,0,0,0,4.268,4.268h32.44a4.274,4.274,0,0,0,4.268-4.268V89.6A4.274,4.274,0,0,0,36.708,85.333Zm2.561,23.049a2.564,2.564,0,0,1-2.561,2.561H4.268a2.564,2.564,0,0,1-2.561-2.561V89.6A2.564,2.564,0,0,1,4.268,87.04h32.44A2.564,2.564,0,0,1,39.269,89.6v18.781Z" transform="translate(0 -85.333)" fill="#f8af02"/>
      </g>
    </g>
    <g id="Grupo_1915" data-name="Grupo 1915" transform="translate(0 90.455)">
      <g id="Grupo_1914" data-name="Grupo 1914" transform="translate(0 0)">
        <path id="Trazado_5687" data-name="Trazado 5687" d="M40.123,149.333H.854a.854.854,0,0,0-.854.854v5.122a.854.854,0,0,0,.854.854H40.123a.854.854,0,0,0,.854-.854v-5.122A.854.854,0,0,0,40.123,149.333Zm-.854,5.122H1.707V151.04H39.269v3.415Z" transform="translate(0 -149.333)" fill="#f8af02"/>
      </g>
    </g>
    <g id="Grupo_1917" data-name="Grupo 1917" transform="translate(5.122 102.407)">
      <g id="Grupo_1916" data-name="Grupo 1916">
        <path id="Trazado_5688" data-name="Trazado 5688" d="M75.1,298.667H64.854a.854.854,0,1,0,0,1.707H75.1a.854.854,0,1,0,0-1.707Z" transform="translate(-64 -298.667)" fill="#f8af02"/>
      </g>
    </g>
    <g id="Grupo_1919" data-name="Grupo 1919" transform="translate(5.122 105.821)">
      <g id="Grupo_1918" data-name="Grupo 1918" transform="translate(0 0)">
        <path id="Trazado_5689" data-name="Trazado 5689" d="M75.1,341.333H64.854a.854.854,0,1,0,0,1.707H75.1a.854.854,0,1,0,0-1.707Z" transform="translate(-64 -341.333)" fill="#f8af02"/>
      </g>
    </g>
    <g id="Grupo_1921" data-name="Grupo 1921" transform="translate(29.025 100.699)">
      <g id="Grupo_1920" data-name="Grupo 1920" transform="translate(0 0)">
        <path id="Trazado_5690" data-name="Trazado 5690" d="M366.935,277.333h-1.707a2.564,2.564,0,0,0-2.561,2.561V281.6a2.564,2.564,0,0,0,2.561,2.561h1.707A2.564,2.564,0,0,0,369.5,281.6v-1.707A2.564,2.564,0,0,0,366.935,277.333Zm.854,4.268a.854.854,0,0,1-.854.854h-1.707a.854.854,0,0,1-.854-.854v-1.707a.854.854,0,0,1,.854-.854h1.707a.854.854,0,0,1,.854.854Z" transform="translate(-362.667 -277.333)" fill="#f8af02"/>
      </g>
    </g>
  </g>
</svg>
