<svg xmlns="http://www.w3.org/2000/svg" xmlns:xlink="http://www.w3.org/1999/xlink" width="14" height="16" viewBox="0 0 14 16">
  <defs>
    <clipPath id="clip-tipos-yoga">
      <rect width="14" height="16"/>
    </clipPath>
  </defs>
  <g id="tipos-yoga" clip-path="url(#clip-tipos-yoga)">
    <rect width="14" height="16" fill="#fff"/>
    <g id="Grupo_89" data-name="Grupo 89" transform="translate(-277.251 -497.686)">
      <g id="Grupo_59" data-name="Grupo 59" transform="translate(278.101 499.825)">
        <path id="Trazado_156" data-name="Trazado 156" d="M289.764,502.394c-.346.024-.7.062-1.036.1l-.057.006-.409.043-.128.013-.032-.125c-.042-.165-.081-.329-.12-.491-.09-.372-.173-.715-.275-1.058-.071-.239-.142-.367-.222-.4s-.231,0-.466.123c-.308.156-.611.333-.9.5l-.026.015c-.123.072-.246.144-.369.213l-.112.064-.079-.1c-.1-.131-.2-.261-.3-.39-.22-.292-.5-.567-.726-.834-.14-.167-.252-.248-.343-.248s-.2.078-.333.239c-.234.28-.414.445-.63.729-.1.129-.481.554-.481.554-.138-.078-.238-.167-.375-.245l-.009-.005c-.32-.182-.644-.365-.964-.539a.451.451,0,0,0-.376-.069.458.458,0,0,0-.212.325c-.1.372-.2.751-.286,1.118l-.018.074q-.053.212-.106.422l-.031.123-.663-.064-1.116-.107a.459.459,0,0,0-.37.073.494.494,0,0,0-.086.387,5.6,5.6,0,0,0,1.6,3.663,10.557,10.557,0,0,0,1.142.956c.176.133.336.255.49.379l.076.061-.026.094c-.05.182-.1.364-.156.546-.12.414-.245.841-.339,1.27a.391.391,0,0,0,.048.342.421.421,0,0,0,.356.082c.358-.044.712-.109,1.086-.177l.029-.005c.156-.029.315-.058.478-.086l.087-.015.055.07.265.339c.206.266.42.54.636.809a.462.462,0,0,0,.306.2.423.423,0,0,0,.3-.2c.223-.275.441-.553.652-.822l.267-.341.056-.071.089.017c.158.029.313.061.467.092.342.07.665.136,1,.171.258.028.416,0,.484-.071s.077-.236.024-.488a10.623,10.623,0,0,0-.341-1.17l-.007-.02c-.058-.173-.116-.347-.171-.526l-.034-.111.1-.06.123-.073.014-.008c.111-.065.236-.14.357-.219a5.825,5.825,0,0,0,2.745-4.467c.032-.32.019-.491-.042-.555S290.086,502.372,289.764,502.394Zm-2.715-1.182.166-.086.046.181c.022.088.044.17.065.249.045.17.083.314.115.465a2.5,2.5,0,0,1,.091.73,15.83,15.83,0,0,0-1.953,1.491c-.107.092-.7.848-.7.848l-.319-1.382s0,.019.317-.473A5.6,5.6,0,0,1,287.048,501.213Zm-2.879-.7,1.024,1.283-.967,1.31-.234-.327c-.086-.12-.164-.23-.244-.337s-.157-.2-.244-.315l-.332-.437Zm-3.334,2.24c.028-.128.275-1.065.315-1.213l0-.015.063-.235.049-.189.169.1a5.529,5.529,0,0,1,2.93,4.663l.053.605-.327-.512c-.048-.076-.089-.137-.123-.189-.069-.105-.111-.17-.151-.242a5.846,5.846,0,0,0-2.194-2.266C280.623,502.645,280.835,502.752,280.835,502.752Zm-2.089.427,0-.053-.008-.094.147-.014a4.609,4.609,0,0,1,3.409,1.444,4.4,4.4,0,0,1,1.535,3.172l-.007.145-.145,0A5.211,5.211,0,0,1,278.746,503.179Zm2.862,6.432a6.6,6.6,0,0,1,.5-1.438c.425.106.638.106,1.275.238l.06.018.26.063a4.525,4.525,0,0,1-.744.851Zm2.7,1.028-.126-.119c-.437-.411-.618-.622-.607-.866s.2-.424.615-.756l.1-.083.582.585a.287.287,0,0,1,.033.365Zm.571-2.116h0a5.024,5.024,0,0,0,1.592-.35c.1.159.425,1.382.425,1.382l-1.276-.213s-.262-.087-.731-.8Zm4.872-5.344a5.258,5.258,0,0,1-4.934,4.607l-.151.008-.005-.151a4.423,4.423,0,0,1,1.438-3.107,4.832,4.832,0,0,1,3.511-1.526l.166.006Z" transform="translate(-278.101 -499.825)" fill="#333"/>
      </g>
    </g>
  </g>
</svg>
