<svg xmlns="http://www.w3.org/2000/svg" xmlns:xlink="http://www.w3.org/1999/xlink" width="14" height="16" viewBox="0 0 14 16">
  <defs>
    <clipPath id="clip-viajes">
      <rect width="14" height="16"/>
    </clipPath>
  </defs>
  <g id="viajes" clip-path="url(#clip-viajes)">
    <rect width="14" height="16" fill="#fff"/>
    <g id="Grupo_39" data-name="Grupo 39" transform="translate(-277.669 -199.618)">
      <path id="Trazado_121" data-name="Trazado 121" d="M290.1,207.461a5.591,5.591,0,1,1-5.673-5.592A5.6,5.6,0,0,1,290.1,207.461Zm-4.137-4.943c-.213-.045-.418-.1-.625-.132a4.927,4.927,0,0,0-1.231-.053,5.11,5.11,0,0,0-.784.123,5.3,5.3,0,0,0-1.1.4.13.13,0,0,0-.089.135,2.664,2.664,0,0,1-.138.881,1,1,0,0,1-.408.536,1.5,1.5,0,0,1-.714.223c-.2.015-.412.009-.617.014a.084.084,0,0,0-.06.028,4.858,4.858,0,0,0-.456.88.362.362,0,0,0-.033.122.562.562,0,0,0,.308.512c.153.088.318.155.476.235a2.684,2.684,0,0,1,.351.194.352.352,0,0,1,.076.493,1.908,1.908,0,0,0-.279.57,1.7,1.7,0,0,0-.021.964,1.725,1.725,0,0,0,.642.91c.2.154.418.288.629.43a6.841,6.841,0,0,1,.839.633.97.97,0,0,1,.283.38.365.365,0,0,1-.082.393.673.673,0,0,1-.355.178,2.073,2.073,0,0,1-.953-.016c-.1-.023-.206-.05-.313-.076a5.119,5.119,0,0,0,6.463-.039,5.03,5.03,0,0,0,1.622-2.355,5.1,5.1,0,0,0,.11-2.866,2.492,2.492,0,0,1-1.378.3c0,.008,0,.013,0,.015l.036.033a3.019,3.019,0,0,1,.58.678.932.932,0,0,1,.059.831,1.817,1.817,0,0,1-.332.517,3.092,3.092,0,0,0-.621,1.2,3.51,3.51,0,0,1-.464,1.068,1.863,1.863,0,0,1-.713.652.743.743,0,0,1-.661.044,1.1,1.1,0,0,1-.532-.5,1.7,1.7,0,0,1-.189-.977,3.509,3.509,0,0,0-.061-1.127,1.6,1.6,0,0,0-.3-.651.757.757,0,0,0-.461-.281,1.381,1.381,0,0,1-1.025-.76,1.644,1.644,0,0,1-.164-1.063,1.266,1.266,0,0,1,1.229-1.074,4.009,4.009,0,0,1,.515.012,3.5,3.5,0,0,1,1.08.239l.178.073.013-.013a1.543,1.543,0,0,0-.1-.191,1.975,1.975,0,0,0-1-.7,4.878,4.878,0,0,0-1.024-.206,1.059,1.059,0,0,1-.586-.227.524.524,0,0,1-.073-.748.928.928,0,0,1,.456-.289,2.323,2.323,0,0,1,.829-.085c.164.008.329.01.493,0a.953.953,0,0,0,.45-.127A.462.462,0,0,0,285.964,202.518Zm.429.159c-.005.017-.009.032-.015.047a1.728,1.728,0,0,1-.089.2,1.026,1.026,0,0,1-.671.462,2.47,2.47,0,0,1-.79.049,1.987,1.987,0,0,0-.7.049.564.564,0,0,0-.263.139c-.053.054-.052.09,0,.14a.554.554,0,0,0,.3.116c.278.047.559.082.835.141a2.587,2.587,0,0,1,1.358.723,1.322,1.322,0,0,1,.347.541.638.638,0,0,1-.151.666.217.217,0,0,1-.267.021,2.384,2.384,0,0,0-.325-.174,3.4,3.4,0,0,0-1.484-.228.8.8,0,0,0-.734.595,1.165,1.165,0,0,0,.065.827.967.967,0,0,0,.748.587,1.136,1.136,0,0,1,.634.345,2.008,2.008,0,0,1,.487.981,3.761,3.761,0,0,1,.069,1.068,3.178,3.178,0,0,0,0,.455.923.923,0,0,0,.292.621.329.329,0,0,0,.421.064,1.328,1.328,0,0,0,.487-.412,2.863,2.863,0,0,0,.411-.834c.081-.242.151-.489.244-.726a3.711,3.711,0,0,1,.576-.908,1.685,1.685,0,0,0,.208-.336.437.437,0,0,0-.01-.394,1.683,1.683,0,0,0-.3-.392,7.648,7.648,0,0,0-.792-.7.222.222,0,0,1-.051-.31.23.23,0,0,1,.237-.091c.139.017.277.035.416.045a3.176,3.176,0,0,0,.941-.046,1.246,1.246,0,0,0,.484-.21.071.071,0,0,0,.031-.1,5.239,5.239,0,0,0-.447-.921,5.192,5.192,0,0,0-1.69-1.7A4.958,4.958,0,0,0,286.393,202.677Zm-6.9,3.651-.057.293,0,.016a5.163,5.163,0,0,0,.01,1.705,5.1,5.1,0,0,0,.733,1.882,1.159,1.159,0,0,0,.322.368,3.328,3.328,0,0,0,1.553.572,1.17,1.17,0,0,0,.518-.069c-.075-.073-.138-.142-.209-.2a8.866,8.866,0,0,0-.985-.706,3.085,3.085,0,0,1-.876-.772,2,2,0,0,1-.387-1.048,2.317,2.317,0,0,1,.276-1.262c.032-.062.069-.12.108-.187A2.718,2.718,0,0,1,279.493,206.328Zm1.044-2.129a1.772,1.772,0,0,0,.7-.113.531.531,0,0,0,.259-.209,1.686,1.686,0,0,0,.176-.7A5.2,5.2,0,0,0,280.537,204.2Z" transform="translate(-0.175 -0.176)" fill="#333"/>
      <path id="Trazado_122" data-name="Trazado 122" d="M284.339,212.95a5.666,5.666,0,0,1-.088-11.332h.078a5.666,5.666,0,0,1,.093,11.332Zm-.01-11.183h-.076a5.517,5.517,0,1,0,5.6,5.517h0a5.522,5.522,0,0,0-5.522-5.518Zm.03,10.735a5.221,5.221,0,0,1-3.276-1.147l-.254-.208.424.1c.069.017.138.035.206.05a2,2,0,0,0,.919.017.61.61,0,0,0,.318-.156.291.291,0,0,0,.066-.318.91.91,0,0,0-.263-.349,6.614,6.614,0,0,0-.81-.612l-.02-.014-.192-.128c-.146-.1-.3-.2-.44-.305a1.736,1.736,0,0,1-.648-1.954,2,2,0,0,1,.289-.592.288.288,0,0,0,.052-.209.269.269,0,0,0-.11-.18,1.981,1.981,0,0,0-.272-.153l-.069-.035c-.059-.03-.12-.058-.18-.086-.1-.046-.2-.094-.3-.15a.636.636,0,0,1-.345-.578.418.418,0,0,1,.037-.146,5,5,0,0,1,.464-.9.156.156,0,0,1,.121-.062c.074,0,.148,0,.223,0,.129,0,.262,0,.391-.011a1.418,1.418,0,0,0,.68-.211.921.921,0,0,0,.378-.5,2.564,2.564,0,0,0,.134-.857.2.2,0,0,1,.131-.2,5.374,5.374,0,0,1,1.118-.4,5.213,5.213,0,0,1,.8-.125,5.008,5.008,0,0,1,1.25.054c.144.025.286.056.431.089l.2.043.07.015-.013.071a.534.534,0,0,1-.266.393,1.023,1.023,0,0,1-.485.137c-.155.006-.319.005-.5,0a2.227,2.227,0,0,0-.8.082.847.847,0,0,0-.421.264.448.448,0,0,0,.063.644.97.97,0,0,0,.547.209,5.044,5.044,0,0,1,1.039.21,2.035,2.035,0,0,1,1.035.727.887.887,0,0,1,.079.14c.01.02.019.04.03.06l.027.05-.076.073-.058-.006-.178-.073a3.4,3.4,0,0,0-1.057-.234,3.985,3.985,0,0,0-.506-.012,1.191,1.191,0,0,0-1.159,1.013,1.576,1.576,0,0,0,.156,1.016,1.313,1.313,0,0,0,.973.721.827.827,0,0,1,.506.307,1.662,1.662,0,0,1,.317.681,3.619,3.619,0,0,1,.062,1.15,1.621,1.621,0,0,0,.18.935,1.019,1.019,0,0,0,.5.471.665.665,0,0,0,.6-.042,1.78,1.78,0,0,0,.684-.627,3.408,3.408,0,0,0,.453-1.046,3.192,3.192,0,0,1,.636-1.229,1.746,1.746,0,0,0,.32-.5.858.858,0,0,0-.054-.768,2.945,2.945,0,0,0-.567-.661l-.056-.053-.013-.117.082-.007a2.4,2.4,0,0,0,1.338-.29l.088-.053.024.1a5.2,5.2,0,0,1-.111,2.906,5.231,5.231,0,0,1-4.928,3.575Zm-2.9-1.048a5.049,5.049,0,0,0,6.085-.253,4.973,4.973,0,0,0,1.6-2.321,5.042,5.042,0,0,0,.131-2.727,2.46,2.46,0,0,1-1.153.26,2.832,2.832,0,0,1,.509.614,1.01,1.01,0,0,1,.064.895,1.875,1.875,0,0,1-.344.539,3,3,0,0,0-.607,1.172,3.563,3.563,0,0,1-.474,1.091,1.923,1.923,0,0,1-.741.677.812.812,0,0,1-.725.046,1.18,1.18,0,0,1-.567-.536,1.768,1.768,0,0,1-.2-1.018,3.482,3.482,0,0,0-.059-1.1,1.519,1.519,0,0,0-.288-.622.682.682,0,0,0-.417-.255,1.456,1.456,0,0,1-1.078-.8,1.722,1.722,0,0,1-.171-1.11,1.341,1.341,0,0,1,1.3-1.136,4.159,4.159,0,0,1,.524.012,3.539,3.539,0,0,1,1.1.244l.016.007a.278.278,0,0,0-.016-.024,1.892,1.892,0,0,0-.963-.673,4.894,4.894,0,0,0-1.008-.2,1.125,1.125,0,0,1-.626-.244.6.6,0,0,1-.082-.852.988.988,0,0,1,.491-.312,2.347,2.347,0,0,1,.855-.088c.177.008.336.009.487,0a.877.877,0,0,0,.415-.116.374.374,0,0,0,.177-.22l-.124-.027c-.142-.032-.282-.063-.423-.087a4.882,4.882,0,0,0-1.213-.052,5.066,5.066,0,0,0-.773.121,5.249,5.249,0,0,0-1.087.394c-.044.021-.048.03-.047.068a2.741,2.741,0,0,1-.142.906,1.067,1.067,0,0,1-.438.574,1.566,1.566,0,0,1-.749.234c-.134.01-.27.01-.4.011-.073,0-.146,0-.219,0a4.626,4.626,0,0,0-.449.861.313.313,0,0,0-.028.1.488.488,0,0,0,.271.447c.091.053.191.1.287.144.062.029.124.058.185.089l.068.034a2.121,2.121,0,0,1,.292.165.415.415,0,0,1,.171.28.435.435,0,0,1-.078.318,1.838,1.838,0,0,0-.268.548,1.616,1.616,0,0,0-.021.922,1.658,1.658,0,0,0,.615.871c.138.106.287.2.432.3l.194.129.02.014a6.79,6.79,0,0,1,.828.626,1.034,1.034,0,0,1,.3.41.44.44,0,0,1-.1.468.741.741,0,0,1-.392.2A2.124,2.124,0,0,1,281.461,211.455Zm.525-.387c-.038,0-.077,0-.116-.005a3.378,3.378,0,0,1-1.588-.585,1.233,1.233,0,0,1-.344-.389,5.2,5.2,0,0,1-.754-3.639l.088-.46.1.113a2.046,2.046,0,0,0,.78.483c.066.029.133.057.2.087l.075.034-.078.134c-.025.042-.048.081-.069.122a2.252,2.252,0,0,0-.268,1.222,1.93,1.93,0,0,0,.372,1.01,3.069,3.069,0,0,0,.856.753,8.94,8.94,0,0,1,.994.712c.05.042.1.089.145.138l.154.151-.112.041A1.279,1.279,0,0,1,281.986,211.068Zm-2.621-4.762-.03.154a5.137,5.137,0,0,0,.008,1.694,5.027,5.027,0,0,0,.722,1.854,1.105,1.105,0,0,0,.3.346,3.233,3.233,0,0,0,1.519.56,1.057,1.057,0,0,0,.371-.029c-.039-.039-.077-.077-.117-.111a8.8,8.8,0,0,0-.977-.7,3.207,3.207,0,0,1-.9-.792,2.077,2.077,0,0,1-.4-1.087,2.4,2.4,0,0,1,.284-1.3c.021-.039.043-.078.067-.118l-.119-.052A2.5,2.5,0,0,1,279.364,206.305Zm6.739,4.754a.422.422,0,0,1-.29-.131,1,1,0,0,1-.316-.67,3.308,3.308,0,0,1,0-.466,3.631,3.631,0,0,0-.067-1.047,1.91,1.91,0,0,0-.468-.947,1.052,1.052,0,0,0-.593-.323,1.038,1.038,0,0,1-.8-.629,1.241,1.241,0,0,1-.068-.878.883.883,0,0,1,.8-.649,3.481,3.481,0,0,1,1.516.234,2.254,2.254,0,0,1,.315.166l.021.013a.144.144,0,0,0,.175-.009.562.562,0,0,0,.133-.593,1.267,1.267,0,0,0-.329-.51,2.493,2.493,0,0,0-1.32-.7c-.179-.038-.365-.067-.544-.094l-.287-.046a.615.615,0,0,1-.333-.134.176.176,0,0,1-.067-.121.179.179,0,0,1,.06-.127.632.632,0,0,1,.3-.159,2.077,2.077,0,0,1,.723-.052,2.354,2.354,0,0,0,.766-.046.95.95,0,0,0,.625-.428.862.862,0,0,0,.059-.129c.008-.021.017-.042.026-.063a.2.2,0,0,0,.007-.023l.024-.077.08.013a4.982,4.982,0,0,1,.826.414,5.262,5.262,0,0,1,1.714,1.721,5.313,5.313,0,0,1,.453.934.144.144,0,0,1-.056.183,1.3,1.3,0,0,1-.512.223,3.263,3.263,0,0,1-.963.048c-.124-.009-.247-.024-.371-.04l-.049-.006a.155.155,0,0,0-.166.06.146.146,0,0,0,.036.209,7.717,7.717,0,0,1,.8.707,1.783,1.783,0,0,1,.309.41.513.513,0,0,1,.012.458,1.739,1.739,0,0,1-.217.351,3.667,3.667,0,0,0-.565.889c-.063.159-.116.327-.168.49-.024.078-.049.155-.075.233a2.88,2.88,0,0,1-.422.855,1.386,1.386,0,0,1-.514.435A.5.5,0,0,1,286.1,211.059Zm-1.572-5.6c-.073,0-.148,0-.223.007a.727.727,0,0,0-.667.541,1.1,1.1,0,0,0,.061.776.9.9,0,0,0,.693.544,1.217,1.217,0,0,1,.676.366,2.06,2.06,0,0,1,.506,1.017,3.791,3.791,0,0,1,.07,1.089,3.137,3.137,0,0,0,0,.445.848.848,0,0,0,.268.573.255.255,0,0,0,.338.051,1.245,1.245,0,0,0,.459-.39,2.755,2.755,0,0,0,.4-.812c.026-.076.05-.153.074-.23.052-.165.106-.335.171-.5a3.78,3.78,0,0,1,.587-.926,1.608,1.608,0,0,0,.2-.32.364.364,0,0,0-.009-.329,1.647,1.647,0,0,0-.284-.375,7.55,7.55,0,0,0-.785-.693.3.3,0,0,1-.065-.411.3.3,0,0,1,.307-.123l.05.006c.12.015.241.03.363.039a3.147,3.147,0,0,0,.919-.044,1.162,1.162,0,0,0,.455-.2,4.54,4.54,0,0,0-.434-.919,5.117,5.117,0,0,0-1.666-1.672,4.884,4.884,0,0,0-.729-.373l-.015.037a1.045,1.045,0,0,1-.069.151,1.092,1.092,0,0,1-.717.5,2.51,2.51,0,0,1-.814.051,1.943,1.943,0,0,0-.671.046.5.5,0,0,0-.23.12.144.144,0,0,0-.016.019l.016.015a.486.486,0,0,0,.258.1c.095.016.19.031.285.045.182.028.369.057.553.1a2.676,2.676,0,0,1,1.4.744,1.414,1.414,0,0,1,.365.572.709.709,0,0,1-.169.739.289.289,0,0,1-.358.033l-.021-.013a2.189,2.189,0,0,0-.294-.156A3.269,3.269,0,0,0,284.532,205.461Zm1.686-2.96.071.023Zm-6.017,1.6.1-.125a5.266,5.266,0,0,1,1.153-1.04l.132-.088-.016.157a1.778,1.778,0,0,1-.186.733.612.612,0,0,1-.293.24,1.83,1.83,0,0,1-.731.12Zm1.207-.949a5.086,5.086,0,0,0-.879.792,1.381,1.381,0,0,0,.5-.1.45.45,0,0,0,.225-.178A1.324,1.324,0,0,0,281.407,203.152Z" transform="translate(0)" fill="#333"/>
    </g>
  </g>
</svg>
