<svg xmlns="http://www.w3.org/2000/svg" width="27.444" height="49.232" viewBox="0 0 27.444 49.232">
  <path id="arrow-left-02" d="M1670,3390.563l-23.2,23.2,23.2,23.2" transform="translate(-1643.97 -3389.148)" fill="none" stroke="#f66" stroke-width="4"/>
</svg>
