<svg xmlns="http://www.w3.org/2000/svg" width="27.444" height="49.232" viewBox="0 0 27.444 49.232">
  <path id="arrow-right-01" d="M1670,3390.563l-23.2,23.2,23.2,23.2" transform="translate(1671.414 3438.381) rotate(180)" fill="none" stroke="#30d8a4" stroke-width="4"/>
</svg>
