<svg xmlns="http://www.w3.org/2000/svg" width="66" height="66" viewBox="0 0 66 66">
  <g id="Grupo_60" data-name="Grupo 60" transform="translate(-1158 -3067)">
    <circle id="Elipse_12" data-name="Elipse 12" cx="33" cy="33" r="33" transform="translate(1158 3067)" fill="#f66"/>
    <path id="arrow-right-01" d="M17,0,0,17,17,34" transform="translate(1200.194 3117.996) rotate(180)" fill="none" stroke="#fff" stroke-width="4"/>
  </g>
</svg>
