<svg xmlns="http://www.w3.org/2000/svg" width="28.313" height="32" viewBox="0 0 28.313 32">
  <g id="curso-01" opacity="0.738">
    <g id="Grupo_23" data-name="Grupo 23" transform="translate(0 0)">
      <path id="Trazado_46" data-name="Trazado 46" d="M7.357,3.281H17V1.957a1.957,1.957,0,1,1,3.913,0V3.281h2.834a.609.609,0,0,1,.608.608V19.1a6.755,6.755,0,1,1-7.946,10.524H.608A.609.609,0,0,1,0,29.013V3.892a.609.609,0,0,1,.608-.608H3.442V1.959a1.957,1.957,0,0,1,3.913,0V3.283Zm15.785,15.4V9.312H1.219V28.4H15.588a6.754,6.754,0,0,1,5.971-9.912,6.973,6.973,0,0,1,1.584.186ZM21.559,19.71a5.536,5.536,0,1,0,5.536,5.536,5.531,5.531,0,0,0-5.536-5.536ZM17,4.5H7.356v.351a1.957,1.957,0,0,1-3.913,0V4.5H1.217V8.1H23.141V4.5H20.916v.351a1.957,1.957,0,0,1-3.913,0V4.5Zm1.957-3.281a.737.737,0,0,0-.738.738V4.849a.738.738,0,1,0,1.476,0V1.957A.737.737,0,0,0,18.959,1.219Zm-13.56,0a.737.737,0,0,0-.738.738V4.849a.738.738,0,1,0,1.476,0V1.957A.737.737,0,0,0,5.4,1.219Z" transform="translate(0 0)" fill="#434343"/>
      <path id="Trazado_47" data-name="Trazado 47" d="M114.67,119.828a.608.608,0,1,1,1.217,0v2.247h1.334a.608.608,0,1,1,0,1.217h-1.942a.609.609,0,0,1-.608-.608Z" transform="translate(-93.72 -97.438)" fill="#434343"/>
    </g>
  </g>
</svg>
