<svg xmlns="http://www.w3.org/2000/svg" width="42.483" height="57.696" viewBox="0 0 42.483 57.696">
  <g id="location" transform="translate(-578.733 -6934.453)">
    <circle id="Elipse_9" data-name="Elipse 9" cx="15" cy="15" r="15" transform="translate(585 6940)" fill="#fff"/>
    <g id="placeholder-filled-point" transform="translate(565.85 6934.453)">
      <path id="Trazado_64" data-name="Trazado 64" d="M34.124,0A21.266,21.266,0,0,0,12.883,21.242a20.72,20.72,0,0,0,1.858,8.671C20.051,41.533,30.233,53.8,33.228,57.286a1.183,1.183,0,0,0,1.791,0C38.014,53.8,48.2,41.535,53.508,29.912a20.711,20.711,0,0,0,1.858-8.671A21.267,21.267,0,0,0,34.124,0Zm0,32.275A11.034,11.034,0,1,1,45.157,21.241,11.046,11.046,0,0,1,34.124,32.275Z" fill="#f66"/>
    </g>
  </g>
</svg>
