{
    "/Themes/ETR/compiled/js/app.js": "/Themes/ETR/compiled/js/app.js?id=46575b862458f36bb68e",
    "/Themes/Stocktextil/js/app.js": "/Themes/Stocktextil/js/app.js?id=8b61c12ae0beaf4d1f96",
    "/Themes/Stocktextil/css/app.css": "/Themes/Stocktextil/css/app.css?id=2c4b8d68d5bdc02830ee",
    "/Themes/ETR/compiled/css/app.css": "/Themes/ETR/compiled/css/app.css?id=585d4a58820e7e947d71"
}