<?xml version="1.0" encoding="UTF-8" standalone="no"?>
<!DOCTYPE svg  PUBLIC '-//W3C//DTD SVG 1.1//EN'  'http://www.w3.org/Graphics/SVG/1.1/DTD/svg11.dtd'>
<svg version="1.1" xmlns="http://www.w3.org/2000/svg">
<defs>
<font id="AvenirLTStd-Light" horiz-adv-x="520">
<font-face ascent="756" bbox="-30 -250 939 932" font-weight="300" x-height="462" panose-1="2 11 4 2 2 2 3 2 2 4" font-family="Avenir LT Std 35 Light" units-per-em="1000" unicode-range="U+0020-00FE" underline-position="-150" descent="-244" cap-height="708" underline-thickness="50"/>
<missing-glyph/>
<glyph unicode=" " glyph-name="space" horiz-adv-x="260"/>
<glyph unicode="!" glyph-name="exclam" d="M215 708v-522h-60v522h60zM137 42q0 20 14 34t34 14t34 -14t14 -34t-14 -34t-34 -14t-34 14t-14 34z" horiz-adv-x="370"/>
<glyph unicode='&quot;' glyph-name="quotedbl" d="M161 480v228h60v-228h-60zM299 480v228h60v-228h-60z"/>
<glyph unicode="#" glyph-name="numbersign" d="M91 0l30 229h-108v48h115l22 156h-108v48h115l30 227h52l-31 -227h139l31 227h52l-31 -227h108v-48h-115l-21 -156h108v-48h-115l-30 -229h-52l30 229h-139l-30 -229h-52zM319 277l21 156h-138l-21 -156h138z"/>
<glyph unicode="$" glyph-name="dollar" d="M281 314v-272q57 2 94.5 42.5t37.5 100.5q0 80 -89 113zM233 400v266q-50 -9 -85 -45.5t-35 -90.5q0 -49 26 -77.5t77 -46.5zM233 -79v67q-56 0 -111 27.5t-89 77.5l57 39q24 -40 62 -64t81 -26v290l-71 26q-65 24 -90 72.5t-25 95.5q0 79 57 133t129 61v67h48v-67 q122 0 185 -89l-55 -40q-23 35 -58 55t-72 20v-282l70 -24q53 -19 90.5 -63t37.5 -116q0 -82 -58.5 -135t-139.5 -58v-67h-48z"/>
<glyph unicode="%" glyph-name="percent" d="M38 548q0 71 50.5 121.5t121.5 50.5t121.5 -50.5t50.5 -121.5t-50.5 -121.5t-121.5 -50.5t-121.5 50.5t-50.5 121.5zM92 548q0 -50 34.5 -84t83.5 -34t83.5 34t34.5 84t-34.5 84t-83.5 34t-83.5 -34t-34.5 -84zM433 160q0 71 50.5 121.5t121.5 50.5t121.5 -50.5 t50.5 -121.5t-50.5 -121.5t-121.5 -50.5t-121.5 50.5t-50.5 121.5zM487 160q0 -50 34.5 -84t83.5 -34t83.5 34t34.5 84t-34.5 84t-83.5 34t-83.5 -34t-34.5 -84zM158 -6l456 748l46 -28l-457 -748z" horiz-adv-x="815"/>
<glyph unicode="&amp;" glyph-name="ampersand" d="M315 388l172 -182l102 184h68l-128 -226l161 -169h-89l-106 114q-46 -62 -98 -94.5t-122 -32.5q-92 0 -154 57t-62 149q0 39 12 70.5t40 58t48.5 41t61.5 39.5q-27 33 -41.5 52t-29.5 52.5t-15 63.5q0 74 52 117.5t126 43.5q65 0 112.5 -42t47.5 -108q0 -36 -12 -65 t-39 -52.5t-47 -36t-60 -34.5zM308 666q-45 0 -76 -28t-31 -72q0 -23 14.5 -51.5t27 -44t34.5 -41.5q29 15 45 24.5t39.5 28t34.5 40.5t11 49q0 42 -28 68.5t-71 26.5zM455 151l-196 204q-25 -15 -38.5 -24t-35 -26t-32.5 -32t-19.5 -37t-8.5 -46q0 -66 46 -107t114 -41 q97 0 170 109z" horiz-adv-x="704"/>
<glyph unicode="&apos;" glyph-name="quotesingle" d="M100 480v228h60v-228h-60z" horiz-adv-x="260"/>
<glyph unicode="(" glyph-name="parenleft" d="M197 732l51 -32q-63 -79 -96.5 -191t-33.5 -221q0 -208 130 -414l-47 -30q-69 95 -106 212t-37 232q0 119 36.5 235.5t102.5 208.5z" horiz-adv-x="260"/>
<glyph unicode=")" glyph-name="parenright" d="M63 -156l-51 32q63 79 96.5 191t33.5 221q0 208 -130 414l47 30q69 -95 106 -212t37 -232q0 -119 -36.5 -235.5t-102.5 -208.5z" horiz-adv-x="260"/>
<glyph unicode="*" glyph-name="asterisk" d="M247 708v-152l144 48l15 -48l-144 -47l91 -122l-37 -29l-94 125l-89 -125l-40 29l91 122l-146 50l14 45l147 -48v152h48z" horiz-adv-x="444"/>
<glyph unicode="+" glyph-name="plus" d="M78 279v48h231v231h48v-231h231v-48h-231v-231h-48v231h-231z" horiz-adv-x="666"/>
<glyph unicode="," glyph-name="comma" d="M50 -138l66 228h70l-77 -228h-59z" horiz-adv-x="260"/>
<glyph unicode="-" glyph-name="hyphen" d="M43 210v54h247v-54h-247z" horiz-adv-x="333"/>
<glyph unicode="." glyph-name="period" d="M82 42q0 20 14 34t34 14t34 -14t14 -34t-14 -34t-34 -14t-34 14t-14 34z" horiz-adv-x="260"/>
<glyph unicode="/" glyph-name="slash" d="M9 -18l304 762l52 -18l-303 -762z" horiz-adv-x="370"/>
<glyph unicode="0" glyph-name="zero" d="M26 354q0 52 5 98t20.5 97t40 87t68 60t100.5 24t100.5 -24t68 -60t40 -87t20.5 -97t5 -98t-5 -98t-20.5 -97t-40 -87t-68 -60t-100.5 -24t-100.5 24t-68 60t-40 87t-20.5 97t-5 98zM92 354q0 -39 3 -75t13.5 -81.5t27.5 -78t49 -55t75 -22.5t75 22.5t49 55t27.5 78 t13.5 81.5t3 75t-3 75t-13.5 81.5t-27.5 78t-49 55t-75 22.5t-75 -22.5t-49 -55t-27.5 -78t-13.5 -81.5t-3 -75z"/>
<glyph unicode="1" glyph-name="one" d="M261 0v624h-1l-128 -105l-37 46l175 143h51v-708h-60z"/>
<glyph unicode="2" glyph-name="two" d="M41 0v70l266 281q31 33 48.5 54t35 57.5t17.5 71.5q0 60 -39.5 96t-101.5 36q-54 0 -92.5 -32t-49.5 -84l-70 7q17 80 74 121.5t141 41.5q85 0 144.5 -49t59.5 -132q0 -39 -11 -74.5t-36 -70t-44 -55.5t-55 -58l-221 -227h372v-54h-438z"/>
<glyph unicode="3" glyph-name="three" d="M41 127l65 21q20 -53 55.5 -79.5t93.5 -26.5q76 0 117 43.5t41 110.5q0 73 -55.5 109.5t-131.5 36.5h-26v60h30q65 0 111.5 33.5t46.5 100.5q0 57 -36 93.5t-95 36.5q-43 0 -78.5 -22t-55.5 -61l-57 32q56 105 191 105q86 0 141.5 -47t55.5 -135q0 -59 -33 -103.5 t-93 -60.5v-2q67 -12 109 -62.5t42 -118.5q0 -88 -57 -145.5t-162 -57.5q-165 0 -219 139z"/>
<glyph unicode="4" glyph-name="four" d="M329 0v174h-306v71l283 463h83v-480h108v-54h-108v-174h-60zM329 228v414h-2l-250 -414h252z"/>
<glyph unicode="5" glyph-name="five" d="M451 708v-54h-292l-3 -225q39 20 103 20q99 0 159.5 -68t60.5 -166q0 -107 -69.5 -167t-156.5 -60q-149 0 -212 120l62 31q18 -41 60.5 -69t89.5 -28q57 0 108.5 45.5t51.5 123.5q0 77 -51.5 130.5t-126.5 53.5q-71 0 -140 -48l6 361h350z"/>
<glyph unicode="6" glyph-name="six" d="M361 708l-193 -312h2q36 30 105 30q94 0 155.5 -63t61.5 -155q0 -96 -65.5 -158t-166.5 -62t-166.5 62t-65.5 158q0 34 12 71.5t22 56t31 53.5l192 319h76zM260 374q-69 0 -117.5 -48.5t-48.5 -117.5q0 -74 46 -120t120 -46t120 46t46 120q0 69 -48.5 117.5t-117.5 48.5z "/>
<glyph unicode="7" glyph-name="seven" d="M443 708v-54l-282 -654h-67l287 654h-340v54h402z"/>
<glyph unicode="8" glyph-name="eight" d="M66 536q0 82 55 133t139 51t139 -51t55 -133q0 -51 -31.5 -96.5t-81.5 -59.5v-1q65 -14 101.5 -65t36.5 -117q0 -94 -62 -151.5t-157 -57.5t-157 57.5t-62 151.5q0 66 36.5 117t101.5 65v1q-50 14 -81.5 59.5t-31.5 96.5zM132 536q0 -54 36 -92t92 -38t92 38t36 92 q0 58 -36.5 94t-91.5 36t-91.5 -36t-36.5 -94zM107 197q0 -65 42.5 -110t110.5 -45t110.5 45t42.5 110q0 69 -44 112t-109 43t-109 -43t-44 -112z"/>
<glyph unicode="9" glyph-name="nine" d="M159 0l193 312h-2q-36 -30 -105 -30q-94 0 -155.5 63t-61.5 155q0 96 65.5 158t166.5 62t166.5 -62t65.5 -158q0 -34 -12 -71.5t-22 -56t-31 -53.5l-192 -319h-76zM260 334q69 0 117.5 48.5t48.5 117.5q0 74 -46 120t-120 46t-120 -46t-46 -120q0 -69 48.5 -117.5 t117.5 -48.5z"/>
<glyph unicode=":" glyph-name="colon" d="M82 420q0 20 14 34t34 14t34 -14t14 -34t-14 -34t-34 -14t-34 14t-14 34zM82 42q0 20 14 34t34 14t34 -14t14 -34t-14 -34t-34 -14t-34 14t-14 34z" horiz-adv-x="260"/>
<glyph unicode=";" glyph-name="semicolon" d="M50 -138l66 228h70l-77 -228h-59zM82 420q0 20 14 34t34 14t34 -14t14 -34t-14 -34t-34 -14t-34 14t-14 34z" horiz-adv-x="260"/>
<glyph unicode="&lt;" glyph-name="less" d="M584 561v-50l-448 -208l448 -208v-50l-502 234v48z" horiz-adv-x="666"/>
<glyph unicode="=" glyph-name="equal" d="M78 351v48h510v-48h-510zM78 207v48h510v-48h-510z" horiz-adv-x="666"/>
<glyph unicode="&gt;" glyph-name="greater" d="M82 45v50l448 208l-448 208v50l502 -234v-48z" horiz-adv-x="666"/>
<glyph unicode="?" glyph-name="question" d="M204 186v84q0 37 16 67t39 52l46 44t39 52t16 66q0 54 -31.5 87.5t-85.5 33.5q-51 0 -85.5 -31.5t-45.5 -84.5l-65 8q13 75 66.5 118.5t128.5 43.5q81 0 132.5 -46t51.5 -126q0 -46 -16.5 -81.5t-40.5 -58.5t-48 -44t-40.5 -51.5t-16.5 -68.5v-64h-60zM187 42q0 20 14 34 t34 14t34 -14t14 -34t-14 -34t-34 -14t-34 14t-14 34z" horiz-adv-x="463"/>
<glyph unicode="@" glyph-name="at" d="M254 280q0 -42 23 -68.5t61 -26.5q66 0 117.5 77.5t51.5 149.5q0 102 -81 102q-48 0 -88.5 -39t-62 -92.5t-21.5 -102.5zM622 549l-97 -290q-11 -33 -11 -48q0 -26 26 -26q53 0 107.5 79t54.5 162q0 109 -85 180.5t-201 71.5q-134 0 -226 -96.5t-92 -226.5 q0 -134 94 -229.5t226 -95.5q74 0 144.5 37t109.5 95h58q-45 -82 -131 -131t-181 -49q-161 0 -267.5 108t-106.5 265q0 156 107.5 263.5t262.5 107.5q146 0 244 -86t98 -214q0 -121 -73 -208t-161 -87q-27 0 -44.5 17.5t-17.5 49.5h-2q-22 -27 -57.5 -47t-71.5 -20 q-65 0 -100 42t-35 105q0 112 66 201t170 89q82 0 106 -83h2l24 64h60z" horiz-adv-x="800"/>
<glyph unicode="A" glyph-name="A" d="M5 0l309 708h68l298 -708h-74l-77 188h-375l-80 -188h-69zM505 248l-160 388l-165 -388h325z" horiz-adv-x="685"/>
<glyph unicode="B" glyph-name="B" d="M97 0v708h204q46 0 82 -7t71.5 -26t55 -58t19.5 -96q0 -56 -33 -95.5t-94 -51.5v-2q70 -5 114 -52.5t44 -121.5q0 -58 -22.5 -99t-60.5 -61.5t-75.5 -29t-78.5 -8.5h-226zM163 648v-246h137q48 0 82.5 12t51 31.5t23 38t6.5 37.5q0 127 -154 127h-146zM163 342v-282h151 q55 0 93 13.5t55.5 36t24.5 43.5t7 43q0 73 -50 109.5t-120 36.5h-161z" horiz-adv-x="630"/>
<glyph unicode="C" glyph-name="C" d="M626 152l54 -41q-94 -129 -263 -129q-161 0 -263.5 104.5t-102.5 267.5t102.5 267.5t263.5 104.5q157 0 244 -111l-54 -45q-32 47 -83 71.5t-107 24.5q-136 0 -218 -88.5t-82 -223.5t82 -223.5t218 -88.5q58 0 116 28t93 82z" horiz-adv-x="704"/>
<glyph unicode="D" glyph-name="D" d="M88 0v708h219q75 0 136.5 -17.5t100.5 -43.5t68 -62.5t43.5 -69t23 -69t10 -56t1.5 -36.5t-1.5 -36.5t-10 -56t-23 -69t-43.5 -69t-68 -62.5t-100.5 -43.5t-136.5 -17.5h-219zM154 648v-588h136q149 0 241.5 74t92.5 220t-92.5 220t-241.5 74h-136z" horiz-adv-x="741"/>
<glyph unicode="E" glyph-name="E" d="M97 0v708h433v-60h-367v-252h344v-60h-344v-276h383v-60h-449z" horiz-adv-x="593"/>
<glyph unicode="F" glyph-name="F" d="M97 0v708h424v-60h-358v-252h333v-60h-333v-336h-66z" horiz-adv-x="556"/>
<glyph unicode="G" glyph-name="G" d="M681 382v-336q-112 -64 -264 -64q-161 0 -263.5 104.5t-102.5 267.5t102.5 267.5t263.5 104.5q158 0 255 -98l-48 -50q-32 39 -90.5 63.5t-116.5 24.5q-136 0 -218 -88.5t-82 -223.5t82 -223.5t218 -88.5q127 0 198 42v238h-170v60h236z" horiz-adv-x="778"/>
<glyph unicode="H" glyph-name="H" d="M97 0v708h66v-312h396v312h66v-708h-66v336h-396v-336h-66z" horiz-adv-x="722"/>
<glyph unicode="I" glyph-name="I" d="M97 0v708h66v-708h-66z" horiz-adv-x="260"/>
<glyph unicode="J" glyph-name="J" d="M385 708v-500q0 -32 -2.5 -57t-13.5 -59t-30.5 -56t-57.5 -38t-90 -16q-75 0 -121.5 38.5t-62.5 106.5l66 12q24 -97 118 -97q128 0 128 150v516h66z" horiz-adv-x="482"/>
<glyph unicode="K" glyph-name="K" d="M97 0v708h66v-312h6l343 312h91l-358 -324l378 -384h-95l-359 366h-6v-366h-66z" horiz-adv-x="611"/>
<glyph unicode="L" glyph-name="L" d="M97 0v708h66v-648h330v-60h-396z" horiz-adv-x="500"/>
<glyph unicode="M" glyph-name="M" d="M90 0v708h99l258 -594l258 594h94v-708h-66v624h-2l-270 -624h-29l-274 624h-2v-624h-66z" horiz-adv-x="889"/>
<glyph unicode="N" glyph-name="N" d="M97 0v708h85l431 -620h2v620h66v-708h-85l-431 620h-2v-620h-66z" horiz-adv-x="778"/>
<glyph unicode="O" glyph-name="O" d="M51 354q0 163 102.5 267.5t263.5 104.5t263.5 -104.5t102.5 -267.5t-102.5 -267.5t-263.5 -104.5t-263.5 104.5t-102.5 267.5zM117 354q0 -135 82 -223.5t218 -88.5t218 88.5t82 223.5t-82 223.5t-218 88.5t-218 -88.5t-82 -223.5z" horiz-adv-x="834"/>
<glyph unicode="P" glyph-name="P" d="M97 0v708h204q41 0 78.5 -9t72.5 -28.5t56 -58t21 -91.5q0 -91 -61.5 -138t-151.5 -47h-153v-336h-66zM163 648v-252h150q64 0 107 30t43 95q0 64 -45 95.5t-109 31.5h-146z" horiz-adv-x="574"/>
<glyph unicode="Q" glyph-name="Q" d="M813 60v-60h-390q-152 0 -262 102t-110 261q0 157 99 260t260 103t260 -103t99 -260q0 -97 -48.5 -184t-128.5 -117v-2h221zM117 363q0 -127 86 -215t218 -88q130 0 206 89t76 214q0 132 -79 217.5t-214 85.5t-214 -85.5t-79 -217.5z" horiz-adv-x="834"/>
<glyph unicode="R" glyph-name="R" d="M163 648v-252h140q49 0 84 12.5t51.5 33t23.5 40t7 40.5t-7 40.5t-23.5 40t-51.5 33t-84 12.5h-140zM97 0v708h186q252 0 252 -186q0 -159 -181 -182l206 -340h-75l-199 336h-123v-336h-66z" horiz-adv-x="593"/>
<glyph unicode="S" glyph-name="S" d="M53 89l63 42q53 -89 162 -89q68 0 113.5 38t45.5 101q0 46 -27 76t-67.5 43t-88 30t-88 35.5t-67.5 61t-27 105.5q0 90 66 142t161 52q125 0 193 -89l-57 -41q-50 70 -138 70q-68 0 -113.5 -35t-45.5 -99q0 -43 20 -72t52.5 -44.5t71 -27t77.5 -25t71.5 -33.5t52.5 -57.5 t20 -91.5q0 -92 -64.5 -145.5t-155.5 -53.5q-154 0 -230 107z" horiz-adv-x="556"/>
<glyph unicode="T" glyph-name="T" d="M254 0v648h-242v60h550v-60h-242v-648h-66z" horiz-adv-x="574"/>
<glyph unicode="U" glyph-name="U" d="M600 708v-437q0 -59 -13.5 -109t-42.5 -91.5t-80.5 -65t-121.5 -23.5t-121.5 23.5t-80.5 65t-42.5 91.5t-13.5 109v437h66v-420q0 -34 4 -64.5t16.5 -65t32.5 -59t56 -41t83 -16.5t83 16.5t56 41t32.5 59t16.5 65t4 64.5v420h66z" horiz-adv-x="684"/>
<glyph unicode="V" glyph-name="V" d="M261 0l-264 708h71l228 -621l230 621h70l-269 -708h-66z" horiz-adv-x="593"/>
<glyph unicode="W" glyph-name="W" d="M211 0l-206 708h68l176 -627h2l179 627h84l179 -627h2l176 627h68l-206 -708h-81l-179 630h-2l-179 -630h-81z" horiz-adv-x="944"/>
<glyph unicode="X" glyph-name="X" d="M1 0l266 372l-242 336h78l204 -288l201 288h79l-240 -336l263 -372h-82l-224 320l-224 -320h-79z" horiz-adv-x="611"/>
<glyph unicode="Y" glyph-name="Y" d="M254 0v305l-260 403h79l214 -336l219 336h74l-260 -403v-305h-66z" horiz-adv-x="574"/>
<glyph unicode="Z" glyph-name="Z" d="M23 0v52l414 596h-408v60h493v-54l-417 -594h428v-60h-510z" horiz-adv-x="556"/>
<glyph unicode="[" glyph-name="bracketleft" d="M224 732v-48h-90v-792h90v-48h-150v888h150z" horiz-adv-x="260"/>
<glyph unicode="\" glyph-name="backslash" d="M57 744l304 -762l-53 -18l-303 762z" horiz-adv-x="370"/>
<glyph unicode="]" glyph-name="bracketright" d="M36 -156v48h90v792h-90v48h150v-888h-150z" horiz-adv-x="260"/>
<glyph unicode="^" glyph-name="asciicircum" d="M82 256l228 452h46l228 -452h-56l-195 398l-194 -398h-57z" horiz-adv-x="666"/>
<glyph unicode="_" glyph-name="underscore" d="M0 -125v50h500v-50h-500z" horiz-adv-x="500"/>
<glyph unicode="`" glyph-name="grave" d="M74 708l104 -144h-50l-134 144h80z" horiz-adv-x="240"/>
<glyph unicode="a" glyph-name="a" d="M439 307v-113q0 -126 9 -194h-56q-6 34 -6 75h-2q-50 -87 -162 -87q-67 0 -115 34.5t-48 102.5q0 155 256 155h70v28q0 57 -35.5 84.5t-94.5 27.5q-80 0 -141 -52l-35 41q32 30 80.5 47.5t95.5 17.5q87 0 135.5 -41t48.5 -126zM385 232h-66q-85 0 -142.5 -24.5 t-57.5 -79.5q0 -40 32 -63t73 -23q88 0 124.5 45.5t36.5 113.5v31z" horiz-adv-x="519"/>
<glyph unicode="b" glyph-name="b" d="M67 0v756h60v-375h2q26 45 77.5 69t107.5 24q106 0 174.5 -68.5t68.5 -174.5t-68.5 -174.5t-174.5 -68.5q-56 0 -107.5 24t-77.5 69h-2v-81h-60zM121 231q0 -78 56 -133.5t137 -55.5q83 0 133 54.5t50 134.5t-50 134.5t-133 54.5q-81 0 -137 -55.5t-56 -133.5z" horiz-adv-x="611"/>
<glyph unicode="c" glyph-name="c" d="M421 106l46 -38q-67 -80 -170 -80q-106 0 -174.5 68.5t-68.5 174.5t68.5 174.5t174.5 68.5q101 0 172 -80l-48 -36q-57 62 -124 62q-83 0 -133 -54.5t-50 -134.5t50 -134.5t133 -54.5q72 0 124 64z" horiz-adv-x="481"/>
<glyph unicode="d" glyph-name="d" d="M484 0v81h-2q-26 -45 -77.5 -69t-107.5 -24q-106 0 -174.5 68.5t-68.5 174.5t68.5 174.5t174.5 68.5q56 0 107.5 -24t77.5 -69h2v375h60v-756h-60zM490 231q0 78 -56 133.5t-137 55.5q-83 0 -133 -54.5t-50 -134.5t50 -134.5t133 -54.5q81 0 137 55.5t56 133.5z" horiz-adv-x="611"/>
<glyph unicode="e" glyph-name="e" d="M444 124l44 -37q-66 -99 -200 -99q-105 0 -169.5 68t-64.5 176q0 104 65 173t166 69t159 -64.5t58 -151.5v-42h-388q0 -17 4.5 -37.5t17 -45t31 -44.5t50.5 -33.5t72 -13.5q46 0 89.5 22.5t65.5 59.5zM114 270h328q0 62 -47 106t-113 44q-45 0 -80.5 -19.5t-53 -47 t-26 -49.5t-8.5 -34z" horiz-adv-x="556"/>
<glyph unicode="f" glyph-name="f" d="M114 0v408h-96v54h96v151q0 81 42 118t96 37q42 0 69 -12l-12 -52q-20 10 -54 10q-81 0 -81 -123v-129h108v-54h-108v-408h-60z" horiz-adv-x="296"/>
<glyph unicode="g" glyph-name="g" d="M544 462v-432q0 -66 -17 -116t-42 -78.5t-60 -46.5t-65 -23.5t-62 -5.5q-70 0 -132 26t-97 71l47 44q62 -87 182 -87q186 0 186 212v64h-2q-57 -90 -175 -90q-102 0 -174.5 69.5t-72.5 167.5t72.5 167.5t174.5 69.5q118 0 175 -90h2v78h60zM486 237q0 76 -53.5 129.5 t-129.5 53.5t-129.5 -53.5t-53.5 -129.5t53.5 -129.5t129.5 -53.5t129.5 53.5t53.5 129.5z" horiz-adv-x="611"/>
<glyph unicode="h" glyph-name="h" d="M80 0v756h60v-375h2q19 40 61.5 66.5t96.5 26.5q176 0 176 -199v-275h-60v272q0 148 -116 148q-70 0 -115 -49t-45 -140v-231h-60z" horiz-adv-x="556"/>
<glyph unicode="i" glyph-name="i" d="M90 0v462h60v-462h-60zM75 645q0 19 13 32t32 13t32 -13t13 -32t-13 -32t-32 -13t-32 13t-13 32z" horiz-adv-x="240"/>
<glyph unicode="j" glyph-name="j" d="M150 462v-543q0 -78 -28.5 -118.5t-103.5 -40.5q-24 0 -48 9l9 53q21 -8 38 -8q44 0 58.5 26.5t14.5 73.5v548h60zM75 645q0 19 13 32t32 13t32 -13t13 -32t-13 -32t-32 -13t-32 13t-13 32z" horiz-adv-x="240"/>
<glyph unicode="k" glyph-name="k" d="M80 0v756h60v-504l228 209h88l-238 -211l266 -250h-91l-253 244v-244h-60z" horiz-adv-x="481"/>
<glyph unicode="l" glyph-name="l" d="M90 0v756h60v-756h-60z" horiz-adv-x="240"/>
<glyph unicode="m" glyph-name="m" d="M80 0v332q0 18 -2.5 68.5t-2.5 61.5h60q2 -73 4 -81h3q19 40 61.5 66.5t96.5 26.5q48 0 85.5 -25t53.5 -75q21 49 63.5 74.5t93.5 25.5q176 0 176 -199v-275h-60v272q0 148 -116 148q-39 0 -68 -15.5t-44 -40.5t-21.5 -51t-6.5 -53v-260h-60v278q0 66 -24.5 104t-71.5 38 q-70 0 -115 -49t-45 -140v-231h-60z" horiz-adv-x="852"/>
<glyph unicode="n" glyph-name="n" d="M80 0v332q0 18 -2.5 68.5t-2.5 61.5h60q2 -73 4 -81h3q19 40 61.5 66.5t96.5 26.5q176 0 176 -199v-275h-60v272q0 148 -116 148q-70 0 -115 -49t-45 -140v-231h-60z" horiz-adv-x="556"/>
<glyph unicode="o" glyph-name="o" d="M54 231q0 106 68.5 174.5t174.5 68.5t174.5 -68.5t68.5 -174.5t-68.5 -174.5t-174.5 -68.5t-174.5 68.5t-68.5 174.5zM114 231q0 -80 50 -134.5t133 -54.5t133 54.5t50 134.5t-50 134.5t-133 54.5t-133 -54.5t-50 -134.5z" horiz-adv-x="594"/>
<glyph unicode="p" glyph-name="p" d="M67 -228v690h60v-81h2q26 45 77.5 69t107.5 24q106 0 174.5 -68.5t68.5 -174.5t-68.5 -174.5t-174.5 -68.5q-56 0 -107.5 24t-77.5 69h-2v-309h-60zM121 231q0 -78 56 -133.5t137 -55.5q83 0 133 54.5t50 134.5t-50 134.5t-133 54.5q-81 0 -137 -55.5t-56 -133.5z" horiz-adv-x="611"/>
<glyph unicode="q" glyph-name="q" d="M484 -228v309h-2q-26 -45 -77.5 -69t-107.5 -24q-106 0 -174.5 68.5t-68.5 174.5t68.5 174.5t174.5 68.5q56 0 107.5 -24t77.5 -69h2v81h60v-690h-60zM490 231q0 78 -56 133.5t-137 55.5q-83 0 -133 -54.5t-50 -134.5t50 -134.5t133 -54.5q81 0 137 55.5t56 133.5z" horiz-adv-x="611"/>
<glyph unicode="r" glyph-name="r" d="M80 0v332q0 18 -2.5 68.5t-2.5 61.5h60q2 -73 4 -81q52 93 147 93q15 0 35 -5l-7 -59q-12 4 -23 4q-75 0 -113 -45t-38 -117v-252h-60z" horiz-adv-x="333"/>
<glyph unicode="s" glyph-name="s" d="M28 82l53 36q18 -36 55 -56t79 -20t74 23.5t32 61.5q0 35 -28 53.5t-68.5 26.5t-81 18.5t-68.5 38.5t-28 77q0 63 47.5 98t110.5 35q119 0 163 -87l-54 -32q-36 65 -109 65q-36 0 -67 -20t-31 -54t28 -51.5t68.5 -25t81 -17.5t68.5 -39.5t28 -81.5q0 -68 -48.5 -105.5 t-118.5 -37.5q-133 0 -186 94z" horiz-adv-x="426"/>
<glyph unicode="t" glyph-name="t" d="M306 462v-54h-132v-301q0 -31 17 -48t47 -17q31 0 68 16l5 -54q-44 -16 -78 -16q-61 0 -90 33t-29 86v301h-100v54h100v133h60v-133h132z" horiz-adv-x="333"/>
<glyph unicode="u" glyph-name="u" d="M471 462v-332q0 -18 2.5 -68.5t2.5 -61.5h-60q-2 73 -4 81h-3q-19 -40 -61.5 -66.5t-96.5 -26.5q-176 0 -176 199v275h60v-272q0 -148 116 -148q70 0 115 49t45 140v231h60z" horiz-adv-x="556"/>
<glyph unicode="v" glyph-name="v" d="M204 0l-189 462h68l154 -397l150 397h61l-182 -462h-62z" horiz-adv-x="463"/>
<glyph unicode="w" glyph-name="w" d="M160 0l-145 462h66l112 -387h2l129 387h57l137 -387h2l109 387h60l-136 -462h-62l-138 378h-2l-129 -378h-62z" horiz-adv-x="704"/>
<glyph unicode="x" glyph-name="x" d="M6 0l192 250l-165 212h77l128 -175l127 175h75l-163 -212l198 -250h-78l-161 209l-158 -209h-72z" horiz-adv-x="481"/>
<glyph unicode="y" glyph-name="y" d="M448 462l-238 -605q-38 -97 -127 -97q-25 0 -59 9l6 56q37 -11 54 -11q29 0 46 21t31 56l42 107l-188 464h67l153 -389l149 389h64z" horiz-adv-x="463"/>
<glyph unicode="z" glyph-name="z" d="M27 0v36l277 372h-263v54h346v-36l-276 -372h288v-54h-372z" horiz-adv-x="426"/>
<glyph unicode="{" glyph-name="braceleft" d="M274 732v-48h-23q-29 0 -42 -28t-13 -70v-141q0 -47 -15.5 -85t-30 -52t-24.5 -19v-2q11 -6 25 -20t29.5 -51.5t15.5 -84.5v-142q0 -41 13 -69t42 -28h23v-48h-50q-42 0 -65 32.5t-23 88.5v146q0 153 -70 153v48q70 0 70 154v145q0 57 23 89t65 32h50z" horiz-adv-x="333"/>
<glyph unicode="|" glyph-name="bar" d="M87 750h48v-1000h-48v1000z" horiz-adv-x="222"/>
<glyph unicode="}" glyph-name="braceright" d="M59 -156v48h23q29 0 42 28t13 70v141q0 47 15.5 85t30 52t24.5 19v2q-11 6 -25 20t-29.5 51.5t-15.5 84.5v142q0 41 -13 69t-42 28h-23v48h50q42 0 65 -32.5t23 -88.5v-146q0 -153 70 -153v-48q-70 0 -70 -154v-145q0 -57 -23 -89t-65 -32h-50z" horiz-adv-x="333"/>
<glyph unicode="~" glyph-name="asciitilde" d="M529 364l34 -32q-43 -90 -125 -90q-32 0 -115 36q-72 32 -98 32q-27 0 -47 -17.5t-41 -50.5l-34 32q47 90 125 90q32 0 115 -36q72 -32 98 -32q27 0 47 17.5t41 50.5z" horiz-adv-x="666"/>
<glyph unicode=" " glyph-name="uni00A0" horiz-adv-x="260"/>
<glyph unicode="¡" glyph-name="exclamdown" d="M155 -222v522h60v-522h-60zM233 444q0 -20 -14 -34t-34 -14t-34 14t-14 34t14 34t34 14t34 -14t14 -34z" horiz-adv-x="370"/>
<glyph unicode="¢" glyph-name="cent" d="M256 47v370q-67 -10 -105.5 -62.5t-38.5 -121.5q0 -67 39.5 -120t104.5 -66zM304 418v-376q67 3 116 64l46 -38q-63 -77 -162 -80v-69h-48v72q-91 13 -147.5 80.5t-56.5 161.5q0 93 57 159t147 79v72h48v-71q95 -1 164 -78l-48 -36q-50 55 -116 60z"/>
<glyph unicode="£" glyph-name="sterling" d="M58 0v54h105v288h-95v54h95v117q0 36 11.5 70.5t35 66t66 51t97.5 19.5q79 0 143 -56l-40 -48q-50 50 -106 50q-69 0 -105 -46t-36 -100v-124h165v-54h-165v-288h245v-54h-416z"/>
<glyph unicode="¤" glyph-name="currency" d="M14 142l57 55q-60 65 -60 157t60 157l-57 55l34 37l57 -56q69 53 155 53t155 -53l57 56l34 -37l-57 -55q60 -65 60 -157t-60 -157l57 -55l-34 -37l-57 56q-69 -53 -155 -53t-155 53l-57 -56zM71 354q0 -79 56 -135.5t133 -56.5t133 56.5t56 135.5q0 80 -55.5 136 t-133.5 56t-133.5 -56t-55.5 -136z"/>
<glyph unicode="¥" glyph-name="yen" d="M227 0v180h-170v48h170v77l-9 16h-161v48h134l-191 339h68l192 -344l195 344h65l-191 -339h134v-48h-161l-9 -16v-77h170v-48h-170v-180h-66z"/>
<glyph unicode="¦" glyph-name="brokenbar" d="M87 675h48v-350h-48v350zM87 175h48v-350h-48v350z" horiz-adv-x="222"/>
<glyph unicode="§" glyph-name="section" d="M212 227l102 -52q30 16 53 41.5t23 54.5q0 59 -74 98l-75 41q-97 -32 -97 -95q0 -34 16.5 -52t51.5 -36zM64 -24l61 30q34 -90 130 -90q49 0 85 26t36 71q0 37 -30.5 64.5t-74.5 46.5t-88 41t-74.5 59.5t-30.5 88.5q0 84 106 129q-82 50 -82 127q0 73 55.5 115t130.5 42 q54 0 98 -23t62 -71l-58 -34q-29 68 -105 68q-48 0 -82.5 -25.5t-34.5 -71.5q0 -35 29.5 -61.5t72 -45.5t85 -40.5t72 -58t29.5 -85.5q0 -83 -89 -132q75 -44 75 -123q0 -77 -55 -122t-131 -45q-66 0 -117.5 30t-74.5 90z"/>
<glyph unicode="¨" glyph-name="dieresis" d="M-23 652q0 20 14 34t34 14t34 -14t14 -34t-14 -34t-34 -14t-34 14t-14 34zM167 652q0 20 14 34t34 14t34 -14t14 -34t-14 -34t-34 -14t-34 14t-14 34z" horiz-adv-x="240"/>
<glyph unicode="©" glyph-name="copyright" d="M594 431h-54q-10 43 -44 73t-86 31q-74 0 -117.5 -52t-43.5 -129t43.5 -129t117.5 -52q52 0 87 30t43 74h54q-9 -72 -60.5 -112t-124.5 -40q-100 0 -157 64t-57 165t57 165t157 64q73 0 124.5 -40t60.5 -112zM28 354q0 154 109 263t263 109t263 -109t109 -263t-109 -263 t-263 -109t-263 109t-109 263zM82 354q0 -132 93 -225t225 -93t225 93t93 225t-93 225t-225 93t-225 -93t-93 -225z" horiz-adv-x="800"/>
<glyph unicode="ª" glyph-name="ordfeminine" d="M186 602h64v9q-2 34 -19.5 50.5t-63.5 16.5q-51 0 -94 -35l-26 38q48 39 131 39q61 0 90.5 -25t29.5 -84v-80q0 -69 5 -101h-49q-2 6 -4 46h-2q-32 -52 -104 -52q-47 0 -78.5 20t-31.5 61q0 97 152 97zM250 560h-38q-130 0 -130 -53q0 -17 22 -29t50 -12q48 0 72 27.5 t24 59.5v7z" horiz-adv-x="337"/>
<glyph unicode="«" glyph-name="guillemotleft" d="M200 34l-137 203l137 203l42 -29l-116 -174l118 -176zM366 34l-137 203l137 203l42 -29l-116 -174l118 -176z" horiz-adv-x="481"/>
<glyph unicode="¬" glyph-name="logicalnot" d="M540 134v217h-462v48h510v-265h-48z" horiz-adv-x="666"/>
<glyph unicode="­" glyph-name="uni00AD" d="M43 210v54h247v-54h-247z" horiz-adv-x="333"/>
<glyph unicode="®" glyph-name="registered" d="M319 329v-188h-54v429h165q71 0 103 -30t32 -89q0 -103 -108 -122l128 -188h-61l-128 188h-77zM319 522v-145h69q28 0 45 2t37.5 8.5t30.5 22.5t10 41q0 38 -28 54.5t-68 16.5h-96zM28 354q0 154 109 263t263 109t263 -109t109 -263t-109 -263t-263 -109t-263 109 t-109 263zM82 354q0 -132 93 -225t225 -93t225 93t93 225t-93 225t-225 93t-225 -93t-93 -225z" horiz-adv-x="800"/>
<glyph unicode="¯" glyph-name="macron" d="M252 654v-48h-264v48h264z" horiz-adv-x="240"/>
<glyph unicode="°" glyph-name="degree" d="M200 432q-60 0 -102 42t-42 103q0 60 42 101.5t102 41.5t102 -41.5t42 -101.5q0 -61 -42 -103t-102 -42zM200 480q40 0 68 28t28 68t-28 68t-68 28t-68 -28t-28 -68t28 -68t68 -28z" horiz-adv-x="400"/>
<glyph unicode="±" glyph-name="plusminus" d="M78 327v48h228v183h48v-183h234v-48h-234v-183h-48v183h-228zM82 48v48h502v-48h-502z" horiz-adv-x="666"/>
<glyph unicode="²" glyph-name="twosuperior" d="M23 289v43l172 168q23 23 34 35t21 32t10 42q0 28 -22.5 45.5t-61.5 17.5q-66 0 -86 -59l-51 4q12 53 53 78t86 25q59 0 97.5 -29.5t38.5 -79.5q0 -30 -15 -60t-30.5 -46.5t-46.5 -46.5l-127 -121h220v-48h-292z" horiz-adv-x="338"/>
<glyph unicode="³" glyph-name="threesuperior" d="M127 488v48h23q37 0 66 18.5t29 56.5q0 26 -21 43.5t-56 17.5q-58 0 -88 -50l-39 25q46 73 127 73q56 0 93.5 -30t37.5 -78q0 -34 -23 -60.5t-59 -38.5v-2q43 -6 68.5 -36t25.5 -71q0 -55 -41 -88t-104 -33q-105 0 -139 89l47 18q23 -59 92 -59q34 0 62.5 23t28.5 53 q0 81 -113 81h-17z" horiz-adv-x="338"/>
<glyph unicode="´" glyph-name="acute" d="M62 564l104 144h80l-134 -144h-50z" horiz-adv-x="240"/>
<glyph unicode="µ" glyph-name="mu" d="M471 462v-332q0 -18 2.5 -68.5t2.5 -61.5h-60q-2 73 -4 81h-3q-19 -40 -61.5 -66.5t-96.5 -26.5q-74 0 -117 38v-254h-59v690h60v-272q0 -148 116 -148q70 0 115 49t45 140v231h60z" horiz-adv-x="556"/>
<glyph unicode="¶" glyph-name="paragraph" d="M267 -126v449q-87 0 -147 55.5t-60 133.5q0 94 58.5 145t164.5 51h227v-834h-60v786h-123v-786h-60z" horiz-adv-x="600"/>
<glyph unicode="·" glyph-name="periodcentered" d="M82 318q0 20 14 34t34 14t34 -14t14 -34t-14 -34t-34 -14t-34 14t-14 34z" horiz-adv-x="260"/>
<glyph unicode="¸" glyph-name="cedilla" d="M171 0l-47 -64l2 -2q13 7 31 7q35 0 59 -19t24 -53q0 -42 -34 -63.5t-78 -21.5q-50 0 -95 21l14 32q33 -17 76 -17q23 0 43 11t20 32t-17 31.5t-39 10.5q-23 0 -44 -8l-16 15l63 88h38z" horiz-adv-x="240"/>
<glyph unicode="¹" glyph-name="onesuperior" d="M177 289v371l-85 -66l-25 34l110 86h54v-425h-54z" horiz-adv-x="338"/>
<glyph unicode="º" glyph-name="ordmasculine" d="M34 572q0 66 43.5 107t114.5 41q70 0 115 -40.5t45 -107.5q0 -65 -45.5 -106.5t-114.5 -41.5q-71 0 -114.5 41t-43.5 107zM82 572q0 -43 31 -74.5t79 -31.5t80 31t32 75q0 46 -31 76t-81 30q-47 0 -78.5 -31.5t-31.5 -74.5z" horiz-adv-x="386"/>
<glyph unicode="»" glyph-name="guillemotright" d="M115 440l137 -203l-137 -203l-42 29l116 174l-118 176zM281 440l137 -203l-137 -203l-42 29l116 174l-118 176z" horiz-adv-x="481"/>
<glyph unicode="¼" glyph-name="onequarter" d="M624 0v102h-190v45l185 277h59v-274h64v-48h-64v-102h-54zM624 150v202h-2l-134 -202h136zM146 289v371l-85 -66l-25 34l110 86h54v-425h-54zM115 -6l456 748l46 -28l-457 -748z" horiz-adv-x="778"/>
<glyph unicode="½" glyph-name="onehalf" d="M138 289v371l-85 -66l-25 34l110 86h54v-425h-54zM106 -6l456 748l46 -28l-457 -748zM458 0v43l172 168q23 23 34 35t21 32t10 42q0 28 -22.5 45.5t-61.5 17.5q-66 0 -86 -59l-51 4q12 53 53 78t86 25q59 0 97.5 -29.5t38.5 -79.5q0 -30 -15 -60t-30.5 -46.5t-46.5 -46.5 l-127 -121h220v-48h-292z" horiz-adv-x="778"/>
<glyph unicode="¾" glyph-name="threequarters" d="M640 0v102h-190v45l185 277h59v-274h64v-48h-64v-102h-54zM638 150v202h-2l-134 -202h136zM121 488v48h23q95 7 95 75q0 26 -21 43.5t-56 17.5q-58 0 -88 -50l-39 25q46 73 127 73q56 0 93.5 -30t37.5 -78q0 -34 -23 -60.5t-59 -38.5v-2q43 -6 68.5 -36t25.5 -71 q0 -55 -41 -88t-104 -33q-105 0 -140 89l48 18q23 -59 92 -59q34 0 62.5 23t28.5 53q0 81 -113 81h-17zM166 -6l456 748l46 -28l-457 -748z" horiz-adv-x="778"/>
<glyph unicode="¿" glyph-name="questiondown" d="M259 300v-84q0 -37 -16 -67t-39 -52l-46 -44t-39 -52t-16 -66q0 -54 31.5 -87.5t85.5 -33.5q51 0 85.5 31.5t45.5 84.5l65 -8q-13 -75 -66.5 -118.5t-128.5 -43.5q-81 0 -132.5 46t-51.5 126q0 46 16.5 81.5t40.5 58.5t48 44t40.5 51.5t16.5 68.5v64h60zM276 444 q0 -20 -14 -34t-34 -14t-34 14t-14 34t14 34t34 14t34 -14t14 -34z" horiz-adv-x="463"/>
<glyph unicode="À" glyph-name="Agrave" d="M5 0l309 708h68l298 -708h-74l-77 188h-375l-80 -188h-69zM505 248l-160 388l-165 -388h325zM297 896l104 -144h-50l-134 144h80z" horiz-adv-x="685"/>
<glyph unicode="Á" glyph-name="Aacute" d="M5 0l309 708h68l298 -708h-74l-77 188h-375l-80 -188h-69zM505 248l-160 388l-165 -388h325zM285 752l104 144h80l-134 -144h-50z" horiz-adv-x="685"/>
<glyph unicode="Â" glyph-name="Acircumflex" d="M5 0l309 708h68l298 -708h-74l-77 188h-375l-80 -188h-69zM505 248l-160 388l-165 -388h325zM200 752l108 144h70l108 -144h-65l-81 108l-81 -108h-59z" horiz-adv-x="685"/>
<glyph unicode="Ã" glyph-name="Atilde" d="M5 0l309 708h68l298 -708h-74l-77 188h-375l-80 -188h-69zM505 248l-160 388l-165 -388h325zM223 769h-36q5 40 27 68q25 34 63 34q27 0 75 -25q46 -23 63 -23q38 0 48 48h36q-5 -42 -24 -69q-23 -33 -60 -33q-23 0 -75 24t-66 24q-39 0 -51 -48z" horiz-adv-x="685"/>
<glyph unicode="Ä" glyph-name="Adieresis" d="M5 0l309 708h68l298 -708h-74l-77 188h-375l-80 -188h-69zM505 248l-160 388l-165 -388h325zM200 840q0 20 14 34t34 14t34 -14t14 -34t-14 -34t-34 -14t-34 14t-14 34zM390 840q0 20 14 34t34 14t34 -14t14 -34t-14 -34t-34 -14t-34 14t-14 34z" horiz-adv-x="685"/>
<glyph unicode="Å" glyph-name="Aring" d="M5 0l309 708h68l298 -708h-74l-77 188h-375l-80 -188h-69zM505 248l-160 388l-165 -388h325zM250 837q0 39 27.5 67t66.5 28q38 0 65 -29t27 -67q0 -37 -27 -65.5t-65 -28.5q-39 0 -66.5 28t-27.5 67zM400 837q0 25 -16 42t-41 17q-24 0 -40.5 -17.5t-16.5 -42.5 t16.5 -41.5t40.5 -16.5q25 0 41 17t16 42z" horiz-adv-x="685"/>
<glyph unicode="Æ" glyph-name="AE" d="M-5 0l461 708h403v-60h-293v-252h276v-60h-276v-276h301v-60h-367v188h-312l-123 -188h-70zM500 248v400h-12l-261 -400h273z" horiz-adv-x="926"/>
<glyph unicode="Ç" glyph-name="Ccedilla" d="M626 152l54 -41q-94 -129 -263 -129q-18 0 -27 1l-34 -47l2 -2q13 7 31 7q35 0 59 -19t24 -53q0 -42 -34 -63.5t-78 -21.5q-50 0 -95 21l14 32q33 -17 76 -17q23 0 43 11t20 32t-17 31.5t-39 10.5q-23 0 -44 -8l-16 15l54 75q-137 19 -221 120t-84 247q0 163 102.5 267.5 t263.5 104.5q157 0 244 -111l-54 -45q-32 47 -83 71.5t-107 24.5q-136 0 -218 -88.5t-82 -223.5t82 -223.5t218 -88.5q58 0 116 28t93 82z" horiz-adv-x="704"/>
<glyph unicode="È" glyph-name="Egrave" d="M97 0v708h433v-60h-367v-252h344v-60h-344v-276h383v-60h-449zM251 896l104 -144h-50l-134 144h80z" horiz-adv-x="593"/>
<glyph unicode="É" glyph-name="Eacute" d="M97 0v708h433v-60h-367v-252h344v-60h-344v-276h383v-60h-449zM239 752l104 144h80l-134 -144h-50z" horiz-adv-x="593"/>
<glyph unicode="Ê" glyph-name="Ecircumflex" d="M97 0v708h433v-60h-367v-252h344v-60h-344v-276h383v-60h-449zM154 752l108 144h70l108 -144h-65l-81 108l-81 -108h-59z" horiz-adv-x="593"/>
<glyph unicode="Ë" glyph-name="Edieresis" d="M97 0v708h433v-60h-367v-252h344v-60h-344v-276h383v-60h-449zM154 840q0 20 14 34t34 14t34 -14t14 -34t-14 -34t-34 -14t-34 14t-14 34zM344 840q0 20 14 34t34 14t34 -14t14 -34t-14 -34t-34 -14t-34 14t-14 34z" horiz-adv-x="593"/>
<glyph unicode="Ì" glyph-name="Igrave" d="M97 0v708h66v-708h-66zM84 896l104 -144h-50l-134 144h80z" horiz-adv-x="260"/>
<glyph unicode="Í" glyph-name="Iacute" d="M97 0v708h66v-708h-66zM72 752l104 144h80l-134 -144h-50z" horiz-adv-x="260"/>
<glyph unicode="Î" glyph-name="Icircumflex" d="M97 0v708h66v-708h-66zM-13 752l108 144h70l108 -144h-65l-81 108l-81 -108h-59z" horiz-adv-x="260"/>
<glyph unicode="Ï" glyph-name="Idieresis" d="M97 0v708h66v-708h-66zM-13 840q0 20 14 34t34 14t34 -14t14 -34t-14 -34t-34 -14t-34 14t-14 34zM177 840q0 20 14 34t34 14t34 -14t14 -34t-14 -34t-34 -14t-34 14t-14 34z" horiz-adv-x="260"/>
<glyph unicode="Ð" glyph-name="Eth" d="M154 648v-252h258v-54h-258v-282h136q149 0 241.5 74t92.5 220t-92.5 220t-241.5 74h-136zM88 0v342h-78v54h78v312h219q75 0 136.5 -17.5t100.5 -43.5t68 -62.5t43.5 -69t23 -69t10 -56t1.5 -36.5t-1.5 -36.5t-10 -56t-23 -69t-43.5 -69t-68 -62.5t-100.5 -43.5 t-136.5 -17.5h-219z" horiz-adv-x="741"/>
<glyph unicode="Ñ" glyph-name="Ntilde" d="M97 0v708h85l431 -620h2v620h66v-708h-85l-431 620h-2v-620h-66zM269 769h-36q5 40 27 68q26 34 63 34q27 0 75 -25q46 -23 63 -23q38 0 48 48h36q-5 -42 -24 -69q-23 -33 -60 -33q-23 0 -75 24t-66 24q-39 0 -51 -48z" horiz-adv-x="778"/>
<glyph unicode="Ò" glyph-name="Ograve" d="M51 354q0 163 102.5 267.5t263.5 104.5t263.5 -104.5t102.5 -267.5t-102.5 -267.5t-263.5 -104.5t-263.5 104.5t-102.5 267.5zM117 354q0 -135 82 -223.5t218 -88.5t218 88.5t82 223.5t-82 223.5t-218 88.5t-218 -88.5t-82 -223.5zM371 896l104 -144h-50l-134 144h80z " horiz-adv-x="834"/>
<glyph unicode="Ó" glyph-name="Oacute" d="M51 354q0 163 102.5 267.5t263.5 104.5t263.5 -104.5t102.5 -267.5t-102.5 -267.5t-263.5 -104.5t-263.5 104.5t-102.5 267.5zM117 354q0 -135 82 -223.5t218 -88.5t218 88.5t82 223.5t-82 223.5t-218 88.5t-218 -88.5t-82 -223.5zM359 752l104 144h80l-134 -144h-50z " horiz-adv-x="834"/>
<glyph unicode="Ô" glyph-name="Ocircumflex" d="M51 354q0 163 102.5 267.5t263.5 104.5t263.5 -104.5t102.5 -267.5t-102.5 -267.5t-263.5 -104.5t-263.5 104.5t-102.5 267.5zM117 354q0 -135 82 -223.5t218 -88.5t218 88.5t82 223.5t-82 223.5t-218 88.5t-218 -88.5t-82 -223.5zM274 752l108 144h70l108 -144h-65 l-81 108l-81 -108h-59z" horiz-adv-x="834"/>
<glyph unicode="Õ" glyph-name="Otilde" d="M51 354q0 163 102.5 267.5t263.5 104.5t263.5 -104.5t102.5 -267.5t-102.5 -267.5t-263.5 -104.5t-263.5 104.5t-102.5 267.5zM117 354q0 -135 82 -223.5t218 -88.5t218 88.5t82 223.5t-82 223.5t-218 88.5t-218 -88.5t-82 -223.5zM297 769h-36q5 40 27 68q26 34 63 34 q27 0 75 -25q46 -23 63 -23q38 0 48 48h36q-5 -42 -24 -69q-23 -33 -60 -33q-23 0 -75 24t-66 24q-39 0 -51 -48z" horiz-adv-x="834"/>
<glyph unicode="Ö" glyph-name="Odieresis" d="M51 354q0 163 102.5 267.5t263.5 104.5t263.5 -104.5t102.5 -267.5t-102.5 -267.5t-263.5 -104.5t-263.5 104.5t-102.5 267.5zM117 354q0 -135 82 -223.5t218 -88.5t218 88.5t82 223.5t-82 223.5t-218 88.5t-218 -88.5t-82 -223.5zM274 840q0 20 14 34t34 14t34 -14 t14 -34t-14 -34t-34 -14t-34 14t-14 34zM464 840q0 20 14 34t34 14t34 -14t14 -34t-14 -34t-34 -14t-34 14t-14 34z" horiz-adv-x="834"/>
<glyph unicode="×" glyph-name="multiply" d="M136 535l198 -198l199 198l33 -34l-199 -198l198 -198l-34 -34l-197 199l-199 -199l-35 34l200 198l-198 198z" horiz-adv-x="666"/>
<glyph unicode="Ø" glyph-name="Oslash" d="M68 15l76 82q-93 102 -93 257q0 163 102.5 267.5t263.5 104.5q137 0 235 -79l74 81l34 -31l-75 -81q98 -103 98 -262q0 -163 -102.5 -267.5t-263.5 -104.5q-142 0 -239 83l-75 -81zM188 144l421 457q-79 65 -192 65q-136 0 -218 -88.5t-82 -223.5q0 -127 71 -210z M642 569l-422 -458q78 -69 197 -69q136 0 218 88.5t82 223.5q0 131 -75 215z" horiz-adv-x="834"/>
<glyph unicode="Ù" glyph-name="Ugrave" d="M600 708v-437q0 -59 -13.5 -109t-42.5 -91.5t-80.5 -65t-121.5 -23.5t-121.5 23.5t-80.5 65t-42.5 91.5t-13.5 109v437h66v-420q0 -34 4 -64.5t16.5 -65t32.5 -59t56 -41t83 -16.5t83 16.5t56 41t32.5 59t16.5 65t4 64.5v420h66zM296 896l104 -144h-50l-134 144h80z" horiz-adv-x="684"/>
<glyph unicode="Ú" glyph-name="Uacute" d="M600 708v-437q0 -59 -13.5 -109t-42.5 -91.5t-80.5 -65t-121.5 -23.5t-121.5 23.5t-80.5 65t-42.5 91.5t-13.5 109v437h66v-420q0 -34 4 -64.5t16.5 -65t32.5 -59t56 -41t83 -16.5t83 16.5t56 41t32.5 59t16.5 65t4 64.5v420h66zM284 752l104 144h80l-134 -144h-50z" horiz-adv-x="684"/>
<glyph unicode="Û" glyph-name="Ucircumflex" d="M600 708v-437q0 -59 -13.5 -109t-42.5 -91.5t-80.5 -65t-121.5 -23.5t-121.5 23.5t-80.5 65t-42.5 91.5t-13.5 109v437h66v-420q0 -34 4 -64.5t16.5 -65t32.5 -59t56 -41t83 -16.5t83 16.5t56 41t32.5 59t16.5 65t4 64.5v420h66zM199 752l108 144h70l108 -144h-65 l-81 108l-81 -108h-59z" horiz-adv-x="684"/>
<glyph unicode="Ü" glyph-name="Udieresis" d="M600 708v-437q0 -59 -13.5 -109t-42.5 -91.5t-80.5 -65t-121.5 -23.5t-121.5 23.5t-80.5 65t-42.5 91.5t-13.5 109v437h66v-420q0 -34 4 -64.5t16.5 -65t32.5 -59t56 -41t83 -16.5t83 16.5t56 41t32.5 59t16.5 65t4 64.5v420h66zM199 840q0 20 14 34t34 14t34 -14t14 -34 t-14 -34t-34 -14t-34 14t-14 34zM389 840q0 20 14 34t34 14t34 -14t14 -34t-14 -34t-34 -14t-34 14t-14 34z" horiz-adv-x="684"/>
<glyph unicode="Ý" glyph-name="Yacute" d="M254 0v305l-260 403h79l214 -336l219 336h74l-260 -403v-305h-66zM229 752l104 144h80l-134 -144h-50z" horiz-adv-x="574"/>
<glyph unicode="Þ" glyph-name="Thorn" d="M97 0v708h65v-156h139q41 0 78.5 -9t72.5 -28.5t56 -58t21 -91.5q0 -91 -61.5 -138t-151.5 -47h-153v-180h-66zM163 492v-252h150q64 0 107 30t43 95q0 64 -45 95.5t-109 31.5h-146z" horiz-adv-x="574"/>
<glyph unicode="ß" glyph-name="germandbls" d="M266 404v54h15q60 0 97.5 35t37.5 94q0 61 -36 94t-94 33q-77 0 -111.5 -52.5t-34.5 -136.5v-525h-60v534q0 105 55.5 169.5t155.5 64.5q81 0 133 -47.5t52 -131.5q0 -58 -27 -99t-72 -55v-2q159 -30 159 -212q0 -106 -68.5 -166.5t-178.5 -60.5q-27 0 -47 5v58 q22 -9 53 -9q81 0 131 47t50 125q0 89 -54.5 136.5t-134.5 47.5h-21z" horiz-adv-x="593"/>
<glyph unicode="à" glyph-name="agrave" d="M439 307v-113q0 -126 9 -194h-56q-6 34 -6 75h-2q-50 -87 -162 -87q-67 0 -115 34.5t-48 102.5q0 155 256 155h70v28q0 57 -35.5 84.5t-94.5 27.5q-80 0 -141 -52l-35 41q32 30 80.5 47.5t95.5 17.5q87 0 135.5 -41t48.5 -126zM385 232h-66q-85 0 -142.5 -24.5 t-57.5 -79.5q0 -40 32 -63t73 -23q88 0 124.5 45.5t36.5 113.5v31zM214 708l104 -144h-50l-134 144h80z" horiz-adv-x="519"/>
<glyph unicode="á" glyph-name="aacute" d="M439 307v-113q0 -126 9 -194h-56q-6 34 -6 75h-2q-50 -87 -162 -87q-67 0 -115 34.5t-48 102.5q0 155 256 155h70v28q0 57 -35.5 84.5t-94.5 27.5q-80 0 -141 -52l-35 41q32 30 80.5 47.5t95.5 17.5q87 0 135.5 -41t48.5 -126zM385 232h-66q-85 0 -142.5 -24.5 t-57.5 -79.5q0 -40 32 -63t73 -23q88 0 124.5 45.5t36.5 113.5v31zM202 564l104 144h80l-134 -144h-50z" horiz-adv-x="519"/>
<glyph unicode="â" glyph-name="acircumflex" d="M439 307v-113q0 -126 9 -194h-56q-6 34 -6 75h-2q-50 -87 -162 -87q-67 0 -115 34.5t-48 102.5q0 155 256 155h70v28q0 57 -35.5 84.5t-94.5 27.5q-80 0 -141 -52l-35 41q32 30 80.5 47.5t95.5 17.5q87 0 135.5 -41t48.5 -126zM385 232h-66q-85 0 -142.5 -24.5 t-57.5 -79.5q0 -40 32 -63t73 -23q88 0 124.5 45.5t36.5 113.5v31zM117 564l108 144h70l108 -144h-65l-81 108l-81 -108h-59z" horiz-adv-x="519"/>
<glyph unicode="ã" glyph-name="atilde" d="M439 307v-113q0 -126 9 -194h-56q-6 34 -6 75h-2q-50 -87 -162 -87q-67 0 -115 34.5t-48 102.5q0 155 256 155h70v28q0 57 -35.5 84.5t-94.5 27.5q-80 0 -141 -52l-35 41q32 30 80.5 47.5t95.5 17.5q87 0 135.5 -41t48.5 -126zM385 232h-66q-85 0 -142.5 -24.5 t-57.5 -79.5q0 -40 32 -63t73 -23q88 0 124.5 45.5t36.5 113.5v31zM140 581h-36q5 40 27 68q25 34 63 34q27 0 75 -25q46 -23 63 -23q38 0 48 48h36q-5 -42 -26 -72t-58 -30q-23 0 -75 24t-66 24q-39 0 -51 -48z" horiz-adv-x="519"/>
<glyph unicode="ä" glyph-name="adieresis" d="M439 307v-113q0 -126 9 -194h-56q-6 34 -6 75h-2q-50 -87 -162 -87q-67 0 -115 34.5t-48 102.5q0 155 256 155h70v28q0 57 -35.5 84.5t-94.5 27.5q-80 0 -141 -52l-35 41q32 30 80.5 47.5t95.5 17.5q87 0 135.5 -41t48.5 -126zM385 232h-66q-85 0 -142.5 -24.5 t-57.5 -79.5q0 -40 32 -63t73 -23q88 0 124.5 45.5t36.5 113.5v31zM117 652q0 20 14 34t34 14t34 -14t14 -34t-14 -34t-34 -14t-34 14t-14 34zM307 652q0 20 14 34t34 14t34 -14t14 -34t-14 -34t-34 -14t-34 14t-14 34z" horiz-adv-x="519"/>
<glyph unicode="å" glyph-name="aring" d="M439 307v-113q0 -126 9 -194h-56q-6 34 -6 75h-2q-50 -87 -162 -87q-67 0 -115 34.5t-48 102.5q0 155 256 155h70v28q0 57 -35.5 84.5t-94.5 27.5q-80 0 -141 -52l-35 41q32 30 80.5 47.5t95.5 17.5q87 0 135.5 -41t48.5 -126zM385 232h-66q-85 0 -142.5 -24.5 t-57.5 -79.5q0 -40 32 -63t73 -23q88 0 124.5 45.5t36.5 113.5v31zM167 649q0 39 27.5 67t66.5 28q38 0 65 -29t27 -67q0 -37 -27 -65.5t-65 -28.5q-39 0 -66.5 28t-27.5 67zM317 649q0 25 -16 42t-41 17q-24 0 -40.5 -17.5t-16.5 -42.5t16.5 -41.5t40.5 -16.5q25 0 41 17 t16 42z" horiz-adv-x="519"/>
<glyph unicode="æ" glyph-name="ae" d="M392 270v9q0 141 -142 141q-80 0 -141 -52l-35 41q32 30 80.5 47.5t95.5 17.5q67 0 111 -22t69 -74q25 45 72 70.5t97 25.5q91 0 150 -55.5t59 -167.5v-35h-356q-3 -74 39.5 -124t120.5 -50q86 0 133 74l47 -34q-39 -51 -82.5 -72.5t-107.5 -21.5q-135 0 -182 114 q-54 -114 -203 -114q-67 0 -115 34.5t-48 102.5q0 26 9 48.5t31 45.5t69 37t114 14h115zM392 216h-117q-50 0 -84.5 -9.5t-49.5 -24.5t-21 -28t-6 -26q0 -40 32 -63t73 -23q88 0 130.5 48.5t42.5 125.5zM452 270h296q-1 67 -37.5 108.5t-109.5 41.5q-67 0 -108 -43.5 t-41 -106.5z" horiz-adv-x="852"/>
<glyph unicode="ç" glyph-name="ccedilla" d="M421 106l46 -38q-67 -80 -170 -80q-9 0 -14 1l-38 -53l2 -2q13 7 31 7q35 0 59 -19t24 -53q0 -42 -34 -63.5t-78 -21.5q-50 0 -95 21l14 32q33 -17 76 -17q23 0 43 11t20 32t-17 31.5t-39 10.5q-23 0 -44 -8l-16 15l57 81q-87 14 -140.5 79.5t-53.5 158.5 q0 106 68.5 174.5t174.5 68.5q101 0 172 -80l-48 -36q-57 62 -124 62q-83 0 -133 -54.5t-50 -134.5t50 -134.5t133 -54.5q72 0 124 64z" horiz-adv-x="481"/>
<glyph unicode="è" glyph-name="egrave" d="M444 124l44 -37q-66 -99 -200 -99q-105 0 -169.5 68t-64.5 176q0 104 65 173t166 69t159 -64.5t58 -151.5v-42h-388q0 -17 4.5 -37.5t17 -45t31 -44.5t50.5 -33.5t72 -13.5q46 0 89.5 22.5t65.5 59.5zM114 270h328q0 62 -47 106t-113 44q-45 0 -80.5 -19.5t-53 -47 t-26 -49.5t-8.5 -34zM232 708l104 -144h-50l-134 144h80z" horiz-adv-x="556"/>
<glyph unicode="é" glyph-name="eacute" d="M444 124l44 -37q-66 -99 -200 -99q-105 0 -169.5 68t-64.5 176q0 104 65 173t166 69t159 -64.5t58 -151.5v-42h-388q0 -17 4.5 -37.5t17 -45t31 -44.5t50.5 -33.5t72 -13.5q46 0 89.5 22.5t65.5 59.5zM114 270h328q0 62 -47 106t-113 44q-45 0 -80.5 -19.5t-53 -47 t-26 -49.5t-8.5 -34zM220 564l104 144h80l-134 -144h-50z" horiz-adv-x="556"/>
<glyph unicode="ê" glyph-name="ecircumflex" d="M444 124l44 -37q-66 -99 -200 -99q-105 0 -169.5 68t-64.5 176q0 104 65 173t166 69t159 -64.5t58 -151.5v-42h-388q0 -17 4.5 -37.5t17 -45t31 -44.5t50.5 -33.5t72 -13.5q46 0 89.5 22.5t65.5 59.5zM114 270h328q0 62 -47 106t-113 44q-45 0 -80.5 -19.5t-53 -47 t-26 -49.5t-8.5 -34zM135 564l108 144h70l108 -144h-65l-81 108l-81 -108h-59z" horiz-adv-x="556"/>
<glyph unicode="ë" glyph-name="edieresis" d="M444 124l44 -37q-66 -99 -200 -99q-105 0 -169.5 68t-64.5 176q0 104 65 173t166 69t159 -64.5t58 -151.5v-42h-388q0 -17 4.5 -37.5t17 -45t31 -44.5t50.5 -33.5t72 -13.5q46 0 89.5 22.5t65.5 59.5zM114 270h328q0 62 -47 106t-113 44q-45 0 -80.5 -19.5t-53 -47 t-26 -49.5t-8.5 -34zM135 652q0 20 14 34t34 14t34 -14t14 -34t-14 -34t-34 -14t-34 14t-14 34zM325 652q0 20 14 34t34 14t34 -14t14 -34t-14 -34t-34 -14t-34 14t-14 34z" horiz-adv-x="556"/>
<glyph unicode="ì" glyph-name="igrave" d="M90 0v462h60v-462h-60zM74 708l104 -144h-50l-134 144h80z" horiz-adv-x="240"/>
<glyph unicode="í" glyph-name="iacute" d="M90 0v462h60v-462h-60zM62 564l104 144h80l-134 -144h-50z" horiz-adv-x="240"/>
<glyph unicode="î" glyph-name="icircumflex" d="M90 0v462h60v-462h-60zM-23 564l108 144h70l108 -144h-65l-81 108l-81 -108h-59z" horiz-adv-x="240"/>
<glyph unicode="ï" glyph-name="idieresis" d="M90 0v462h60v-462h-60zM-23 652q0 20 14 34t34 14t34 -14t14 -34t-14 -34t-34 -14t-34 14t-14 34zM167 652q0 20 14 34t34 14t34 -14t14 -34t-14 -34t-34 -14t-34 14t-14 34z" horiz-adv-x="240"/>
<glyph unicode="ð" glyph-name="eth" d="M149 604l104 56q-56 51 -94 78l52 30q56 -41 95 -80l104 56l36 -30l-106 -57q200 -183 200 -401q0 -123 -67.5 -195.5t-175.5 -72.5q-106 0 -174.5 68.5t-68.5 174.5t68.5 174.5t174.5 68.5q88 0 149 -55l2 2q-71 126 -161 207l-107 -57zM114 231q0 -80 50 -134.5 t133 -54.5t133 54.5t50 134.5t-50 134.5t-133 54.5t-133 -54.5t-50 -134.5z" horiz-adv-x="594"/>
<glyph unicode="ñ" glyph-name="ntilde" d="M80 0v332q0 18 -2.5 68.5t-2.5 61.5h60q2 -73 4 -81h3q19 40 61.5 66.5t96.5 26.5q176 0 176 -199v-275h-60v272q0 148 -116 148q-70 0 -115 -49t-45 -140v-231h-60zM158 581h-36q5 40 27 68q25 34 63 34q27 0 75 -25q46 -23 63 -23q38 0 48 48h36q-5 -42 -26 -72 t-58 -30q-23 0 -75 24t-66 24q-39 0 -51 -48z" horiz-adv-x="556"/>
<glyph unicode="ò" glyph-name="ograve" d="M54 231q0 106 68.5 174.5t174.5 68.5t174.5 -68.5t68.5 -174.5t-68.5 -174.5t-174.5 -68.5t-174.5 68.5t-68.5 174.5zM114 231q0 -80 50 -134.5t133 -54.5t133 54.5t50 134.5t-50 134.5t-133 54.5t-133 -54.5t-50 -134.5zM251 708l104 -144h-50l-134 144h80z" horiz-adv-x="594"/>
<glyph unicode="ó" glyph-name="oacute" d="M54 231q0 106 68.5 174.5t174.5 68.5t174.5 -68.5t68.5 -174.5t-68.5 -174.5t-174.5 -68.5t-174.5 68.5t-68.5 174.5zM114 231q0 -80 50 -134.5t133 -54.5t133 54.5t50 134.5t-50 134.5t-133 54.5t-133 -54.5t-50 -134.5zM239 564l104 144h80l-134 -144h-50z" horiz-adv-x="594"/>
<glyph unicode="ô" glyph-name="ocircumflex" d="M54 231q0 106 68.5 174.5t174.5 68.5t174.5 -68.5t68.5 -174.5t-68.5 -174.5t-174.5 -68.5t-174.5 68.5t-68.5 174.5zM114 231q0 -80 50 -134.5t133 -54.5t133 54.5t50 134.5t-50 134.5t-133 54.5t-133 -54.5t-50 -134.5zM154 564l108 144h70l108 -144h-65l-81 108 l-81 -108h-59z" horiz-adv-x="594"/>
<glyph unicode="õ" glyph-name="otilde" d="M54 231q0 106 68.5 174.5t174.5 68.5t174.5 -68.5t68.5 -174.5t-68.5 -174.5t-174.5 -68.5t-174.5 68.5t-68.5 174.5zM114 231q0 -80 50 -134.5t133 -54.5t133 54.5t50 134.5t-50 134.5t-133 54.5t-133 -54.5t-50 -134.5zM177 581h-36q5 40 27 68q26 34 63 34 q27 0 75 -25q46 -23 63 -23q38 0 48 48h36q-5 -42 -26 -72t-58 -30q-23 0 -75 24t-66 24q-39 0 -51 -48z" horiz-adv-x="594"/>
<glyph unicode="ö" glyph-name="odieresis" d="M54 231q0 106 68.5 174.5t174.5 68.5t174.5 -68.5t68.5 -174.5t-68.5 -174.5t-174.5 -68.5t-174.5 68.5t-68.5 174.5zM114 231q0 -80 50 -134.5t133 -54.5t133 54.5t50 134.5t-50 134.5t-133 54.5t-133 -54.5t-50 -134.5zM154 652q0 20 14 34t34 14t34 -14t14 -34 t-14 -34t-34 -14t-34 14t-14 34zM344 652q0 20 14 34t34 14t34 -14t14 -34t-14 -34t-34 -14t-34 14t-14 34z" horiz-adv-x="594"/>
<glyph unicode="÷" glyph-name="divide" d="M78 279v48h510v-48h-510zM282 457q0 21 15 36t36 15t36 -15t15 -36t-15 -36t-36 -15t-36 15t-15 36zM282 149q0 21 15 35.5t36 15.5q21 0 36 -15t15 -36t-15 -36t-36 -15t-36 15t-15 36z" horiz-adv-x="666"/>
<glyph unicode="ø" glyph-name="oslash" d="M39 2l70 71q-55 64 -55 158q0 106 68.5 174.5t174.5 68.5q91 0 157 -53l69 70l32 -29l-71 -71q56 -64 56 -160q0 -106 -68.5 -174.5t-174.5 -68.5q-94 0 -158 54l-68 -69zM150 115l263 265q-48 40 -116 40q-83 0 -133 -54.5t-50 -134.5q0 -69 36 -116zM443 349l-263 -266 q46 -41 117 -41q83 0 133 54.5t50 134.5q0 72 -37 118z" horiz-adv-x="594"/>
<glyph unicode="ù" glyph-name="ugrave" d="M471 462v-332q0 -18 2.5 -68.5t2.5 -61.5h-60q-2 73 -4 81h-3q-19 -40 -61.5 -66.5t-96.5 -26.5q-176 0 -176 199v275h60v-272q0 -148 116 -148q70 0 115 49t45 140v231h60zM232 708l104 -144h-50l-134 144h80z" horiz-adv-x="556"/>
<glyph unicode="ú" glyph-name="uacute" d="M471 462v-332q0 -18 2.5 -68.5t2.5 -61.5h-60q-2 73 -4 81h-3q-19 -40 -61.5 -66.5t-96.5 -26.5q-176 0 -176 199v275h60v-272q0 -148 116 -148q70 0 115 49t45 140v231h60zM220 564l104 144h80l-134 -144h-50z" horiz-adv-x="556"/>
<glyph unicode="û" glyph-name="ucircumflex" d="M471 462v-332q0 -18 2.5 -68.5t2.5 -61.5h-60q-2 73 -4 81h-3q-19 -40 -61.5 -66.5t-96.5 -26.5q-176 0 -176 199v275h60v-272q0 -148 116 -148q70 0 115 49t45 140v231h60zM135 564l108 144h70l108 -144h-65l-81 108l-81 -108h-59z" horiz-adv-x="556"/>
<glyph unicode="ü" glyph-name="udieresis" d="M471 462v-332q0 -18 2.5 -68.5t2.5 -61.5h-60q-2 73 -4 81h-3q-19 -40 -61.5 -66.5t-96.5 -26.5q-176 0 -176 199v275h60v-272q0 -148 116 -148q70 0 115 49t45 140v231h60zM135 652q0 20 14 34t34 14t34 -14t14 -34t-14 -34t-34 -14t-34 14t-14 34zM325 652q0 20 14 34 t34 14t34 -14t14 -34t-14 -34t-34 -14t-34 14t-14 34z" horiz-adv-x="556"/>
<glyph unicode="ý" glyph-name="yacute" d="M448 462l-238 -605q-38 -97 -127 -97q-25 0 -59 9l6 56q37 -11 54 -11q29 0 46 21t31 56l42 107l-188 464h67l153 -389l149 389h64zM174 564l104 144h80l-134 -144h-50z" horiz-adv-x="463"/>
<glyph unicode="þ" glyph-name="thorn" d="M67 -228v984h60v-375h2q26 45 77.5 69t107.5 24q106 0 174.5 -68.5t68.5 -174.5t-68.5 -174.5t-174.5 -68.5q-56 0 -107.5 24t-77.5 69h-2v-309h-60zM121 231q0 -78 56 -133.5t137 -55.5q83 0 133 54.5t50 134.5t-50 134.5t-133 54.5q-81 0 -137 -55.5t-56 -133.5z" horiz-adv-x="611"/>
<hkern k="68" g1="A,Agrave,Aacute,Acircumflex,Atilde,Adieresis,Aring" g2="T"/>
<hkern k="18" g1="A,Agrave,Aacute,Acircumflex,Atilde,Adieresis,Aring" g2="v"/>
<hkern k="50" g1="A,Agrave,Aacute,Acircumflex,Atilde,Adieresis,Aring" g2="V"/>
<hkern k="18" g1="A,Agrave,Aacute,Acircumflex,Atilde,Adieresis,Aring" g2="w"/>
<hkern k="5" g1="A,Agrave,Aacute,Acircumflex,Atilde,Adieresis,Aring" g2="W"/>
<hkern k="18" g1="A,Agrave,Aacute,Acircumflex,Atilde,Adieresis,Aring" g2="y,yacute,ydieresis"/>
<hkern k="74" g1="A,Agrave,Aacute,Acircumflex,Atilde,Adieresis,Aring" g2="Y,Yacute,Ydieresis"/>
<hkern k="86" g1="A,Agrave,Aacute,Acircumflex,Atilde,Adieresis,Aring" g2="quoteright"/>
<hkern k="-18" g1="f,fi,fl" g2="quoteright"/>
<hkern k="18" g1="f,fi,fl" g2="f,germandbls,fi,fl"/>
<hkern k="55" g1="F" g2="A,Agrave,Aacute,Acircumflex,Atilde,Adieresis,Aring,AE"/>
<hkern k="129" g1="F" g2="comma"/>
<hkern k="129" g1="F" g2="period"/>
<hkern k="92" g1="L,Lslash" g2="T"/>
<hkern k="92" g1="L,Lslash" g2="V"/>
<hkern k="55" g1="L,Lslash" g2="W"/>
<hkern k="37" g1="L,Lslash" g2="y,yacute,ydieresis"/>
<hkern k="111" g1="L,Lslash" g2="Y,Yacute,Ydieresis"/>
<hkern k="111" g1="L,Lslash" g2="quoteright"/>
<hkern k="74" g1="P" g2="A,Agrave,Aacute,Acircumflex,Atilde,Adieresis,Aring,AE"/>
<hkern k="153" g1="P" g2="comma"/>
<hkern k="153" g1="P" g2="period"/>
<hkern k="92" g1="r" g2="comma"/>
<hkern k="92" g1="r" g2="period"/>
<hkern k="18" g1="r" g2="c,ccedilla"/>
<hkern k="18" g1="r" g2="d,dotlessi"/>
<hkern k="18" g1="r" g2="e,egrave,eacute,ecircumflex,edieresis"/>
<hkern k="18" g1="r" g2="g"/>
<hkern k="18" g1="r" g2="o,ograve,oacute,ocircumflex,otilde,odieresis,oslash,oe"/>
<hkern k="18" g1="r" g2="q"/>
<hkern k="55" g1="r" g2="hyphen"/>
<hkern k="-6" g1="R" g2="T"/>
<hkern k="-6" g1="R" g2="V"/>
<hkern k="-6" g1="R" g2="W"/>
<hkern k="-24" g1="R" g2="y,yacute,ydieresis"/>
<hkern k="13" g1="R" g2="Y,Yacute,Ydieresis"/>
<hkern k="111" g1="T" g2="w"/>
<hkern k="111" g1="T" g2="y,yacute,ydieresis"/>
<hkern k="68" g1="T" g2="A,Agrave,Aacute,Acircumflex,Atilde,Adieresis,Aring,AE"/>
<hkern k="111" g1="T" g2="comma"/>
<hkern k="111" g1="T" g2="period"/>
<hkern k="111" g1="T" g2="c,ccedilla"/>
<hkern k="111" g1="T" g2="e,egrave,eacute,ecircumflex,edieresis"/>
<hkern k="111" g1="T" g2="o,ograve,oacute,ocircumflex,otilde,odieresis,oslash,oe"/>
<hkern k="129" g1="T" g2="hyphen"/>
<hkern k="111" g1="T" g2="a,agrave,aacute,acircumflex,atilde,adieresis,aring,ae"/>
<hkern k="-24" g1="T" g2="i,igrave,iacute,icircumflex,idieresis"/>
<hkern k="92" g1="T" g2="r"/>
<hkern k="111" g1="T" g2="s,scaron"/>
<hkern k="92" g1="T" g2="u,ugrave,uacute,ucircumflex,udieresis"/>
<hkern k="111" g1="T" g2="colon"/>
<hkern k="111" g1="T" g2="semicolon"/>
<hkern k="74" g1="v" g2="comma"/>
<hkern k="74" g1="v" g2="period"/>
<hkern k="18" g1="V" g2="y,yacute,ydieresis"/>
<hkern k="55" g1="V" g2="A,Agrave,Aacute,Acircumflex,Atilde,Adieresis,Aring,AE"/>
<hkern k="129" g1="V" g2="comma"/>
<hkern k="129" g1="V" g2="period"/>
<hkern k="55" g1="V" g2="e,egrave,eacute,ecircumflex,edieresis"/>
<hkern k="55" g1="V" g2="o,ograve,oacute,ocircumflex,otilde,odieresis,oslash,oe"/>
<hkern k="55" g1="V" g2="hyphen"/>
<hkern k="55" g1="V" g2="a,agrave,aacute,acircumflex,atilde,adieresis,aring,ae"/>
<hkern k="-6" g1="V" g2="i,igrave,iacute,icircumflex,idieresis"/>
<hkern k="37" g1="V" g2="r"/>
<hkern k="37" g1="V" g2="u,ugrave,uacute,ucircumflex,udieresis"/>
<hkern k="54" g1="V" g2="colon"/>
<hkern k="54" g1="V" g2="semicolon"/>
<hkern k="55" g1="w" g2="comma"/>
<hkern k="55" g1="w" g2="period"/>
<hkern k="18" g1="W" g2="A,Agrave,Aacute,Acircumflex,Atilde,Adieresis,Aring,AE"/>
<hkern k="74" g1="W" g2="comma"/>
<hkern k="74" g1="W" g2="period"/>
<hkern k="18" g1="W" g2="e,egrave,eacute,ecircumflex,edieresis"/>
<hkern k="18" g1="W" g2="o,ograve,oacute,ocircumflex,otilde,odieresis,oslash,oe"/>
<hkern k="37" g1="W" g2="a,agrave,aacute,acircumflex,atilde,adieresis,aring,ae"/>
<hkern k="-24" g1="W" g2="i,igrave,iacute,icircumflex,idieresis"/>
<hkern k="18" g1="W" g2="r"/>
<hkern k="18" g1="W" g2="u,ugrave,uacute,ucircumflex,udieresis"/>
<hkern k="18" g1="W" g2="colon"/>
<hkern k="18" g1="W" g2="semicolon"/>
<hkern k="92" g1="y,yacute,ydieresis" g2="comma"/>
<hkern k="92" g1="y,yacute,ydieresis" g2="period"/>
<hkern k="55" g1="Y,Yacute,Ydieresis" g2="v"/>
<hkern k="74" g1="Y,Yacute,Ydieresis" g2="A,Agrave,Aacute,Acircumflex,Atilde,Adieresis,Aring,AE"/>
<hkern k="123" g1="Y,Yacute,Ydieresis" g2="comma"/>
<hkern k="99" g1="Y,Yacute,Ydieresis" g2="period"/>
<hkern k="92" g1="Y,Yacute,Ydieresis" g2="e,egrave,eacute,ecircumflex,edieresis"/>
<hkern k="92" g1="Y,Yacute,Ydieresis" g2="o,ograve,oacute,ocircumflex,otilde,odieresis,oslash,oe"/>
<hkern k="92" g1="Y,Yacute,Ydieresis" g2="q"/>
<hkern k="111" g1="Y,Yacute,Ydieresis" g2="hyphen"/>
<hkern k="92" g1="Y,Yacute,Ydieresis" g2="a,agrave,aacute,acircumflex,atilde,adieresis,aring,ae"/>
<hkern k="7" g1="Y,Yacute,Ydieresis" g2="i,igrave,iacute,icircumflex,idieresis"/>
<hkern k="74" g1="Y,Yacute,Ydieresis" g2="u,ugrave,uacute,ucircumflex,udieresis"/>
<hkern k="92" g1="Y,Yacute,Ydieresis" g2="colon"/>
<hkern k="92" g1="Y,Yacute,Ydieresis" g2="semicolon"/>
<hkern k="74" g1="Y,Yacute,Ydieresis" g2="p"/>
<hkern k="111" g1="quoteright" g2="s,scaron"/>
<hkern k="36" g1="quoteright" g2="t"/>
</font>
</defs>
</svg>
