<svg xmlns="http://www.w3.org/2000/svg" width="20.002" height="20" viewBox="0 0 20.002 20">
  <path id="Fill_33" data-name="Fill 33" d="M8.856,20c-1.652,0-3.327,0-4.979-.007A3.945,3.945,0,0,1,1.2,18.852,3.846,3.846,0,0,1,.008,16.128C0,12.826,0,9.478.008,6.177A3.966,3.966,0,0,1,3.9,2.312h7.822c.251.017.308.1.347.282A.34.34,0,0,1,12,2.867a.386.386,0,0,1-.28.153l-2.614,0-2.614,0c-.976,0-1.831,0-2.614,0A3.25,3.25,0,0,0,.716,6.181c-.01,3.3-.01,6.643,0,9.942a3.252,3.252,0,0,0,3.165,3.162c1.651,0,3.324.007,4.975.007s3.324,0,4.975-.007A3.289,3.289,0,0,0,17,16.1V11.148a.365.365,0,0,1,.364-.348.4.4,0,0,1,.108.015c.206.089.221.125.236.333q0,.8,0,1.607v.053c0,1.086,0,2.208,0,3.319A3.934,3.934,0,0,1,16.562,18.8a3.855,3.855,0,0,1-2.727,1.195C12.183,20,10.508,20,8.856,20Zm1.494-6.766a.382.382,0,0,1-.288-.134.348.348,0,0,1-.079-.286l.7-3.125a.35.35,0,0,1,.056-.127L16.987.706A1.69,1.69,0,0,1,18.358,0h.014A1.705,1.705,0,0,1,19.81.961a1.58,1.58,0,0,1-.1,1.666l-6.25,8.857a.342.342,0,0,1-.114.1L10.5,13.2A.346.346,0,0,1,10.35,13.234ZM18.339.706h0a.979.979,0,0,0-.776.408l-6.207,8.8-.508,2.278,2.084-1.179c.7-1,1.424-2.014,2.119-3l.017-.024C16.407,6.1,17.792,4.147,19.141,2.21a.965.965,0,0,0,.035-.972.93.93,0,0,0-.79-.531h-.047Z" fill="#4ca5db"/>
</svg>
