<svg xmlns="http://www.w3.org/2000/svg" width="18.769" height="13.914" viewBox="0 0 18.769 13.914">
  <path id="Trazado_3" data-name="Trazado 3" d="M-5606-12204.834l5.563,5.564,11.791-11.793" transform="translate(5606.707 12211.77)" fill="none" stroke="#1ab92c" stroke-width="2"/>
</svg>
