<svg xmlns="http://www.w3.org/2000/svg" width="56.269" height="41.123" viewBox="0 0 56.269 41.123">
  <path id="Fill_2" data-name="Fill 2" d="M27.887,40.623c-7.016,0-14.132-.022-21.149-.065a6.887,6.887,0,0,1-4.63-2.011A6.7,6.7,0,0,1,.044,33.893c-.058-9.012-.058-18.151,0-27.163A6.824,6.824,0,0,1,2.063,2.119,6.763,6.763,0,0,1,6.738.065C13.754.022,20.87,0,27.887,0S42.02.022,49.037.065A6.952,6.952,0,0,1,55.731,6.73c.052,9.012.052,18.151,0,27.163a6.61,6.61,0,0,1-1.251,3.7,8.147,8.147,0,0,1-.9,1.039,6.77,6.77,0,0,1-4.547,1.924C42.019,40.6,34.9,40.623,27.887,40.623ZM21.355,21.867,4.148,37.778a4.761,4.761,0,0,0,2.614.852c7.01.044,14.117.066,21.125.066S42,38.673,49.012,38.629a4.866,4.866,0,0,0,2.922-1.081l-17.145-16.5L33.7,22.1a8.87,8.87,0,0,1-6.069,2.355A8.7,8.7,0,0,1,21.593,22.1ZM2.881,4.091a4.7,4.7,0,0,0-.9,2.664c-.058,9-.058,18.118,0,27.114A4.72,4.72,0,0,0,2.792,36.4L19.96,20.524ZM52.7,3.841,36.184,19.711,53.19,36.074a4.708,4.708,0,0,0,.6-2.206c.052-9,.052-18.119,0-27.115A4.8,4.8,0,0,0,52.7,3.841ZM34.824,1.955c-4.663,0-9.4.01-13.99.019h-.017c-4.586.009-9.327.019-13.991.019a4.782,4.782,0,0,0-2.54.768C6.2,4.6,8.136,6.474,10.012,8.286c4.245,4.1,8.634,8.342,12.987,12.48a6.974,6.974,0,0,0,9.361-.058L51.207,2.591a4.726,4.726,0,0,0-2.2-.6C44.774,1.968,40.133,1.955,34.824,1.955Z" transform="translate(0.25 0.25)" fill="#4ca5db" stroke="#e7ecf0" stroke-width="0.5"/>
</svg>
