<svg xmlns="http://www.w3.org/2000/svg" width="26" height="14" viewBox="0 0 26 14">
  <path id="Fill_15" data-name="Fill 15" d="M12.915,14a17.381,17.381,0,0,1-7.241-1.517A11.6,11.6,0,0,1,.305,7.7c-.124-.22-.278-.556-.28-.56-.092-.266.087-.56.261-.844.028-.045.055-.09.081-.135A11.8,11.8,0,0,1,5.606,1.569,17.383,17.383,0,0,1,12.82,0h.233A17.68,17.68,0,0,1,20.3,1.554,11.955,11.955,0,0,1,25.7,6.3c.115.2.263.5.269.51.125.339-.128.7-.4,1.089-.052.075-.107.153-.157.23A12.411,12.411,0,0,1,20,12.562,17.63,17.63,0,0,1,12.915,14ZM12.824.824A16.845,16.845,0,0,0,6.418,2.088,11.352,11.352,0,0,0,1.434,6.014a7.834,7.834,0,0,0-.583.964,12.3,12.3,0,0,0,1.375,2,11.846,11.846,0,0,0,4.862,3.206,17.279,17.279,0,0,0,5.872.991c.133,0,.269,0,.4,0a16.58,16.58,0,0,0,6.78-1.533,10.68,10.68,0,0,0,4.974-4.6.339.339,0,0,0-.034-.173,10.989,10.989,0,0,0-5.026-4.5A16.78,16.78,0,0,0,13.049.824Zm.081,9.191a2.87,2.87,0,0,1-2.014-.78,3.165,3.165,0,0,1-.58-3.416,2.856,2.856,0,0,1,2.643-1.907h.079A3.083,3.083,0,0,1,15.52,5.434a3.035,3.035,0,0,1,.221,2.9A3.147,3.147,0,0,1,12.905,10.014Zm.077-5.279h-.018a2.261,2.261,0,0,0-1.824,1.117,2.224,2.224,0,0,0-.163,2.128,2.307,2.307,0,0,0,2.079,1.23,2.106,2.106,0,0,0,1.478-.572,2.35,2.35,0,0,0,.424-2.718A2.213,2.213,0,0,0,12.982,4.736Z" transform="translate(0)" fill="#f44336"/>
</svg>
